# vvf statistics with RF=500
# gcat file: /disk11/salam/Abacus/AbacusCosmos_720box_products/GCAT_v9July2021/AbacusCosmos_720box_08_rockstar_halos_z0.100_Mr21_hod-default_real-0.gcat.rsd_zz.1pz0.100by100
# stats order in row: stdvvf,p2.5,p16,p50,p84,p97.5,rho
# columns: numbers, mean, sigma,All, jnrealizations
0.000000000000000000e+00 1.447942606769344165e+00 5.663088000191634185e-03 1.447942889085078733e+00 1.448421432146836274e+00 1.447376422951708541e+00 1.447905221249109031e+00 1.447904471991023900e+00 1.448492840046531782e+00 1.448059575715856084e+00 1.448249967187744236e+00 1.446658477796791464e+00 1.446793102348064686e+00 1.447620003937083233e+00 1.448551468670887354e+00 1.448233993215366722e+00 1.448027046626025216e+00 1.447613976959261750e+00 1.448307253928869720e+00 1.447983063693362826e+00 1.448447896758723319e+00 1.448067709587251839e+00 1.448397873939177183e+00 1.448276253946163772e+00 1.448087626266541861e+00 1.448657644908318165e+00 1.447980227612177151e+00 1.447917953491975496e+00 1.447600400647205632e+00 1.448439088749166048e+00 1.448535010082478092e+00 1.447659256705589703e+00 1.448453879764783681e+00 1.447734034544874149e+00 1.447795958537408278e+00 1.447314453086576913e+00 1.448031838093499335e+00 1.448214721638795055e+00 1.447649175847536274e+00 1.447324793404482390e+00 1.448127849249028820e+00 1.447809920988946120e+00 1.447818091420660425e+00 1.448333829412399965e+00 1.448019055157173440e+00 1.447910455853669731e+00 1.448356417627026715e+00 1.447620459190567033e+00 1.447627252605450554e+00 1.448040695559153157e+00 1.447340353752657904e+00 1.448276548747631232e+00 1.448019617835957673e+00 1.447975724352703830e+00 1.447468227587169309e+00 1.447966554252468452e+00 1.447709946635324707e+00 1.448031942505469738e+00 1.447402016958827753e+00 1.447635013974740037e+00 1.447508041292604242e+00 1.447780987334950753e+00 1.448098325159732358e+00 1.447419658070513870e+00 1.448019004281587030e+00 1.448148851715448826e+00 1.448238410238910978e+00 1.447968932753558979e+00 1.447816469375615256e+00 1.447175814272325667e+00 1.448823840254816586e+00 1.448661039642268333e+00 1.448310125589360675e+00 1.447990446890947025e+00 1.447859318190707345e+00 1.448504695830978406e+00 1.447762408435373072e+00 1.448065191650130812e+00 1.447679379042068337e+00 1.448223415499629851e+00 1.448026366129184561e+00 1.447514124216762621e+00 1.448005961243992168e+00 1.447699302323890658e+00 1.447620834254283562e+00 1.448061216852285282e+00 1.446787857250347420e+00 1.448198491506847763e+00 1.447867430271066569e+00 1.448254914058581644e+00 1.448022378480810612e+00 1.448437440076900895e+00 1.447767476620356542e+00 1.446961907615413434e+00 1.448181508012746255e+00 1.448026230611901166e+00 1.447933611585539238e+00 1.448096931575672652e+00 1.447479646599561853e+00 1.447739503829107210e+00 1.448512688281357041e+00 1.447799687374452526e+00 1.447957298662783998e+00 1.447425752602045756e+00 1.448109829468677390e+00 1.447264177503755800e+00 1.447662597994322731e+00 1.447391800594626687e+00 1.448248077028427616e+00 1.448009585701244939e+00 1.447783437957615993e+00 1.448144607318013755e+00 1.447684323809235840e+00 1.447809100876734645e+00 1.448181966370973628e+00 1.447942243145377672e+00 1.448161467738825037e+00 1.447250028886381656e+00 1.448423596412974579e+00 1.448312755632525040e+00 1.448147134115419732e+00 1.447763246413548810e+00 1.447545468820551351e+00 1.447828247052696193e+00 1.447741741028689244e+00 1.447685410148679352e+00 1.448142266595252137e+00 1.447693160697764103e+00 1.447346113823210878e+00 1.448149929769206645e+00 1.448708364464049492e+00 1.448322876680639082e+00 1.447709910970289560e+00 1.447840000169063890e+00 1.447956142836540394e+00 1.447734215685110515e+00 1.447868201382306985e+00 1.447897383857698284e+00 1.448201993095801443e+00 1.448062383580828172e+00 1.448447104572611721e+00 1.447246043578468422e+00 1.447169808121766987e+00 1.447253204695591489e+00 1.448106282019451019e+00 1.448341809057579033e+00 1.448256433500099138e+00 1.448078632535148236e+00 1.447956655980561003e+00 1.447720602104422660e+00 1.447751852364165703e+00 1.448003267220316692e+00 1.447458347785440136e+00 1.447704479161815216e+00 1.447483996134832474e+00 1.448063424234907082e+00 1.447080688419662531e+00 1.448381663801295627e+00 1.448096180056441140e+00 1.448605473388608678e+00 1.448201291366005838e+00 1.448121712089196711e+00 1.447306013582623674e+00 1.448104647676124124e+00 1.448500188761228546e+00 1.448009510685941192e+00 1.448246588403376833e+00 1.448017725502569020e+00 1.447735524914807836e+00 1.447482982550286845e+00 1.447362518250592922e+00 1.447638065564329279e+00 1.448117206349764485e+00 1.447979353165044225e+00 1.448115751249046124e+00 1.447707991433199171e+00 1.448518125232993725e+00 1.447966313297383234e+00 1.447661777507667669e+00 1.448221817570969794e+00 1.448437423464251195e+00 1.447883157129506104e+00 1.447935418096705451e+00 1.448182215842745757e+00 1.448077261951180805e+00 1.448129747235240128e+00 1.448189988057889677e+00 1.448723244848600045e+00 1.448455361977051048e+00 1.448239681026538328e+00 1.448252724757486343e+00 1.448129403284850625e+00 1.447523654785168423e+00 1.448008248421219779e+00 1.447834714279694790e+00 1.448367855561128792e+00 1.448298348136788594e+00 1.447992476358964220e+00 1.447639954794490702e+00 1.447941816971149098e+00 1.448418442188955435e+00 1.447645130358503396e+00 1.448289384417038361e+00 1.448013382730738874e+00 1.448168248866873453e+00 1.447867417882498620e+00 1.448048236994560645e+00 1.447745625449718521e+00 1.448054005782163811e+00 1.448014952136569056e+00 1.447690981521761566e+00 1.447836864834945336e+00 1.447683197238921249e+00 1.447984682516497923e+00 1.448336931686312168e+00 1.447965269789948772e+00 1.447858435860275739e+00 1.447754602818401626e+00 1.447319038681017966e+00 1.448036122336439302e+00 1.448357105933976152e+00 1.447758281550378001e+00 1.448204778283321392e+00 1.447808315331683637e+00 1.448719152334788207e+00 1.448236243239443333e+00 1.448025037028467521e+00 1.447179010467448235e+00 1.448173101045052480e+00
1.000000000000000000e+00 1.999999986522520146e-02 1.598036936309244816e-04 2.000000000000000042e-02 1.999739684523032038e-02 1.999199782110224616e-02 2.000666099360504449e-02 1.999687761336174652e-02 2.001386354896595582e-02 1.999606148467742567e-02 2.001930770617604480e-02 1.998980882801091458e-02 2.000340523046692173e-02 2.000567179019529379e-02 2.000732295365426072e-02 2.000755739584119536e-02 2.000350372501290969e-02 2.002461170569753979e-02 1.999804868298626220e-02 1.999232540398541633e-02 2.000443800652292742e-02 1.998751244313575273e-02 1.999792561235573876e-02 1.999259623712750650e-02 1.998992249437784446e-02 2.000248459439249796e-02 1.999171876257755179e-02 2.000196693155281008e-02 2.001371832430976286e-02 2.000893905295939024e-02 2.000579101540020041e-02 1.999981154643827586e-02 2.001378135574451156e-02 1.999151537356362585e-02 1.997694289097463535e-02 1.997154992128551132e-02 2.000167136941631563e-02 1.999341867113137161e-02 1.998085518537395106e-02 1.999181376441698868e-02 1.999021182145356568e-02 1.998888970286625405e-02 1.999593127545144788e-02 1.999057751532521549e-02 1.998774715678029376e-02 2.001429831567401799e-02 2.001619839467912165e-02 2.001291847061353185e-02 1.998633387394656291e-02 1.999558703966571732e-02 1.998517268179359971e-02 2.000877915655484632e-02 2.000735632473643610e-02 1.999663145946749959e-02 1.999372433827898560e-02 1.999898238096407127e-02 1.998723024279185426e-02 1.999247728587193532e-02 1.998358219283151091e-02 1.998392483546261936e-02 2.000660497627036044e-02 2.000841309909114074e-02 1.999286476639988014e-02 1.999199315276932107e-02 1.999947389604832607e-02 1.999605540275681270e-02 2.000245485766992404e-02 2.000099354810205496e-02 1.998729179695431582e-02 1.996184639103051189e-02 1.999951897005613002e-02 2.000243188951961529e-02 1.999769284276678091e-02 2.000280389989027297e-02 1.999574600526600118e-02 1.999459716929573305e-02 1.998815495729606290e-02 2.001255955917941726e-02 2.000633454222542143e-02 2.000666697297586935e-02 1.998953659315588077e-02 1.999307748496880963e-02 1.998933103588842672e-02 1.998351792138627556e-02 1.997440626422508289e-02 1.999951725635052899e-02 2.001232897140972633e-02 2.000250560720103279e-02 2.001186547911924449e-02 2.002455455402064530e-02 2.000768328347205319e-02 2.001207395035458497e-02 1.999421200250636743e-02 1.998117036932967050e-02 2.000050742369554116e-02 1.999211938655776413e-02 2.000505815465734513e-02 2.002094322010882291e-02 1.999409216698740457e-02 2.001168168573029191e-02 2.001293407798386201e-02 2.001072451959736223e-02 2.001948150285977682e-02 2.001220481405152282e-02 2.000451371846122262e-02 1.999026277586373954e-02 2.000471650605174442e-02 2.000127617331831642e-02 1.999329369775655618e-02 2.000072181144145825e-02 1.999895995215476147e-02 2.000980779418724126e-02 2.000644602088133897e-02 2.001026988056010467e-02 2.000357432917203998e-02 2.000590697889101377e-02 1.999318597228195299e-02 1.997920197287622254e-02 2.000849672384012387e-02 2.001355982950306020e-02 2.000008372728824882e-02 2.000343090935061824e-02 1.998865830113690997e-02 1.998819097785429696e-02 1.999011710432544581e-02 2.000049323453552408e-02 2.001099492134824839e-02 2.001915452051899677e-02 2.002737940100710046e-02 2.001548414661977887e-02 2.000920115950233225e-02 2.000256082014323714e-02 1.997820367100781175e-02 2.000393263058743501e-02 1.999624307052535327e-02 1.997992918824622113e-02 1.999830156698807412e-02 2.001714714894482772e-02 1.999596980728395035e-02 1.999560843924341053e-02 2.000432954828464116e-02 1.999313973977549438e-02 1.998961721096097210e-02 2.000823719594425551e-02 2.001164567879773828e-02 2.001587810748024082e-02 2.001142507076162855e-02 1.999550186889170744e-02 2.000152871118708250e-02 1.998909180686324338e-02 1.999115147539719597e-02 1.998431443075536842e-02 2.000866890524655856e-02 2.000177034924172093e-02 1.998691023978038661e-02 2.000349982281149699e-02 1.999778834753320952e-02 2.000298394959933515e-02 2.000996165354086698e-02 2.001690752901164744e-02 1.999734180431013419e-02 1.999699680064413385e-02 1.998060616914090065e-02 1.999059917611981443e-02 1.999907061292009042e-02 1.998936048492895926e-02 2.000036904928761960e-02 1.999226475343679477e-02 1.998840693724713083e-02 2.001110224329578913e-02 1.999515736523889420e-02 1.999344890803763514e-02 2.000998341700175112e-02 1.999690195513680394e-02 2.000453202528025554e-02 1.999674503808564555e-02 2.000086657453851655e-02 1.999517565779101655e-02 1.999065599828293502e-02 1.999533827017402690e-02 2.001192794715058940e-02 2.000731821068244681e-02 2.000879464257308837e-02 2.001806851944960830e-02 2.000851075385806643e-02 2.000654664749757991e-02 2.000749010985831272e-02 2.001481729867289269e-02 2.000496508014967464e-02 2.000254015062849847e-02 2.000645228394878558e-02 1.999782228290662364e-02 1.999241793702291950e-02 2.000391888016840591e-02 2.001171868877889976e-02 2.000352665901070429e-02 2.000096310474006392e-02 2.000844469529779873e-02 1.999716633795312060e-02 1.998598951917759936e-02 2.000666420188871794e-02 2.001259601990733328e-02 2.001165915737235582e-02 1.999713659075273708e-02 1.999382677271968958e-02 1.999751451621787149e-02 1.999359298912820396e-02 1.998530181560289817e-02 2.001221688075858346e-02 2.001307940412720351e-02 2.000830984037903215e-02 1.999438986613232341e-02 1.999078586007394312e-02 1.999414429831687656e-02 2.000422325592059528e-02 2.002111572130576070e-02 2.001777209143076192e-02 1.999472989960521599e-02 1.997290554669747809e-02 1.999477785463359830e-02 1.999297873527660155e-02 2.000352171645785465e-02 1.999487473155719952e-02 1.999054194198334605e-02 2.000361050981684305e-02 2.000290971587049757e-02 2.001083016761106073e-02 1.999457832874293808e-02 1.999605156097677972e-02
2.000000000000000000e+00 9.799999933960347465e-02 7.830380987915290004e-04 9.800000000000000377e-02 9.798724454162857644e-02 9.796078932340100687e-02 9.803263886866471488e-02 9.798470030547257181e-02 9.806793138993318004e-02 9.798070127491938230e-02 9.809460776026261708e-02 9.795006325725348628e-02 9.801668562928791961e-02 9.802779177195693194e-02 9.803588247290587199e-02 9.803703123962186072e-02 9.801716825256324983e-02 9.812059735791794912e-02 9.799043854663268271e-02 9.796239447952853618e-02 9.802174623196235892e-02 9.793881097136518388e-02 9.798983550054313207e-02 9.796372156192478808e-02 9.795062022245143440e-02 9.801217451252323964e-02 9.795942193663000064e-02 9.800963796460876454e-02 9.806721978911783766e-02 9.804380135950102604e-02 9.802837597546099069e-02 9.799907657754755586e-02 9.806752864314810525e-02 9.795842533046177081e-02 9.788702016577571774e-02 9.786059461429900963e-02 9.800818971013995629e-02 9.796775148854372506e-02 9.790619040833237197e-02 9.795988744564324002e-02 9.795203792512247043e-02 9.794555954404464415e-02 9.798006324971210435e-02 9.795382982509356906e-02 9.793996106822343284e-02 9.807006174680268917e-02 9.807937213392770026e-02 9.806330050600631232e-02 9.793303598233815688e-02 9.797837649436201557e-02 9.792734614078864308e-02 9.804301786711874800e-02 9.803604599120853413e-02 9.798349415139075147e-02 9.796924925756703151e-02 9.799501366672394576e-02 9.793742818968009800e-02 9.796313870077248687e-02 9.791955274487440519e-02 9.792123169376683312e-02 9.803236438372477102e-02 9.804122418554658824e-02 9.796503735535939950e-02 9.796076644856967219e-02 9.799742209063679044e-02 9.798067147350839057e-02 9.801202880258264027e-02 9.800486838570007797e-02 9.793772980507614578e-02 9.781304731604950620e-02 9.799764295327502428e-02 9.801191625864612289e-02 9.798869492955722404e-02 9.801373910946233059e-02 9.797915542580340476e-02 9.797352612954909890e-02 9.794195929075071028e-02 9.806154183997914386e-02 9.803103925690456744e-02 9.803266816758175739e-02 9.794872930646381093e-02 9.796607967634715641e-02 9.794772207585329682e-02 9.791923781479275335e-02 9.787459069470290374e-02 9.799763455611759655e-02 9.806041195990766735e-02 9.801227747528505618e-02 9.805814084768429972e-02 9.812031731470115259e-02 9.803764808901306582e-02 9.805916235673746428e-02 9.797163881228120041e-02 9.790773480971537435e-02 9.800248637610814439e-02 9.796138499413305223e-02 9.802478495782099288e-02 9.810262177853323884e-02 9.797105161823828345e-02 9.805724026007842098e-02 9.806337698212093390e-02 9.805255014602708152e-02 9.809545936401289912e-02 9.805980358885246773e-02 9.802211722045998943e-02 9.795228760173232962e-02 9.802311087965355496e-02 9.800625324925975324e-02 9.796713911900713223e-02 9.800353687606314090e-02 9.799490376555831939e-02 9.804805819151748980e-02 9.803158550231855228e-02 9.805032241474451182e-02 9.801751421294299660e-02 9.802894419656596470e-02 9.796661126418157450e-02 9.789808966709349913e-02 9.804163394681661425e-02 9.806644316456500365e-02 9.800041026371242303e-02 9.801681145581801757e-02 9.794442567557085089e-02 9.794213579148605686e-02 9.795157381119469486e-02 9.800241684922406105e-02 9.805387511460642025e-02 9.809385715054308452e-02 9.813415906493479224e-02 9.807587231843691022e-02 9.804508568156143633e-02 9.801254801870186439e-02 9.789319798793827410e-02 9.801926988987844092e-02 9.798159104557423171e-02 9.790165302240648459e-02 9.799167767824157327e-02 9.808402102982965998e-02 9.798025205569135809e-02 9.797848135229270117e-02 9.802121478659474307e-02 9.796638472489992144e-02 9.794912433370876748e-02 9.804036226012684263e-02 9.805706382610891725e-02 9.807780272665318766e-02 9.805598284673197607e-02 9.797795915756936369e-02 9.800749068481669213e-02 9.794654985362988286e-02 9.795664222944626409e-02 9.792314071070130910e-02 9.804247763570812790e-02 9.800867471128443809e-02 9.793586017492389439e-02 9.801714913177633770e-02 9.798916290291273534e-02 9.801462135303674883e-02 9.804881210235025235e-02 9.808284689215707175e-02 9.798697484111966449e-02 9.798528432315625758e-02 9.790497022879041111e-02 9.795393596298708483e-02 9.799544600330843680e-02 9.794786637615190972e-02 9.800180834150934439e-02 9.796209729184028603e-02 9.794319399251094627e-02 9.805440099214937644e-02 9.797627108967059406e-02 9.796789964938441841e-02 9.804891874330858015e-02 9.798481958017034310e-02 9.802220692387324241e-02 9.798405068661966699e-02 9.800424621523873281e-02 9.797636072317597589e-02 9.795421439158637222e-02 9.797715752385273424e-02 9.805844694103788006e-02 9.803585923234398036e-02 9.804309374860814552e-02 9.808853574530307373e-02 9.804170269390452552e-02 9.803207857273814330e-02 9.803670153830572331e-02 9.807260476349717593e-02 9.802432889273339500e-02 9.801244673807962826e-02 9.803161619134904969e-02 9.798932918624245203e-02 9.796284789141229687e-02 9.801920251282518481e-02 9.805742157501660949e-02 9.801728062915245066e-02 9.800471921322630175e-02 9.804137900695920893e-02 9.798611505597029647e-02 9.793134864397022576e-02 9.803265458925472520e-02 9.806172049754592612e-02 9.805712987112455425e-02 9.798596929468841865e-02 9.796975118632648971e-02 9.798782112946756440e-02 9.796860564672819904e-02 9.792797889645420140e-02 9.805986271571705271e-02 9.806408908022329340e-02 9.804071821785725893e-02 9.797251034404837189e-02 9.795485071436231539e-02 9.797130706175269377e-02 9.802069395401090401e-02 9.810346703439822014e-02 9.808708324801072853e-02 9.797417650806555800e-02 9.786723717881763707e-02 9.797441148770462405e-02 9.796559580285534030e-02 9.801725641064348848e-02 9.797488618463028043e-02 9.795365551571839913e-02 9.801769149810253545e-02 9.801425760776544260e-02 9.805306782129420695e-02 9.797343381084039349e-02 9.798065264878622060e-02
3.000000000000000000e+00 4.704619118160487390e-01 1.041498093843726616e-02 4.699999999999999734e-01 4.699388258629125792e-01 4.718111485780129843e-01 4.701565333497185195e-01 4.699266239140010848e-01 4.703257934006999652e-01 4.699074448899194789e-01 4.704537310951370510e-01 4.717594883410575757e-01 4.700800229159726729e-01 4.701332870695893451e-01 4.701720894108750715e-01 4.701775988022681152e-01 4.700823375378033742e-01 4.705783750838921642e-01 4.699541440501771583e-01 4.698196469936572472e-01 4.701042931532888325e-01 4.717052936580037326e-01 4.699512518903599112e-01 4.698260115724964270e-01 4.717621708673171432e-01 4.700583879682237454e-01 4.718045627968302513e-01 4.700462228914910057e-01 4.703223806212794011e-01 4.702100677445457122e-01 4.701360888619047218e-01 4.699955713412994895e-01 4.703238618599960286e-01 4.717997628161015866e-01 4.714558522270014262e-01 4.713285781423380838e-01 4.700392771812834658e-01 4.698453387715872398e-01 4.715481823748252643e-01 4.718068048402409564e-01 4.697699778041588003e-01 4.717377969876436206e-01 4.699043849731090461e-01 4.697785716101425812e-01 4.717108329000149203e-01 4.703360104183394452e-01 4.703806622749593380e-01 4.703035840594180228e-01 4.716774794251388792e-01 4.698962954321443952e-01 4.716500752903289295e-01 4.702063101790388555e-01 4.701728736313062207e-01 4.699208392974862925e-01 4.718518943833840407e-01 4.699760859526556644e-01 4.716986337298877952e-01 4.698232162179905025e-01 4.716125397508236783e-01 4.716206261169177960e-01 4.701552169423535155e-01 4.701977078286417866e-01 4.698323220103971520e-01 4.718110384053559314e-01 4.699876365571356573e-01 4.699073019647851401e-01 4.700576891552432635e-01 4.700233483803983314e-01 4.717000864081218880e-01 4.710995748283201001e-01 4.699886957963190226e-01 4.700571494037109610e-01 4.699457818050193358e-01 4.700658916474214077e-01 4.699000311237510052e-01 4.698730334784497753e-01 4.717204569921870649e-01 4.702951496407163368e-01 4.701488617422974192e-01 4.701566738649329280e-01 4.717530635984787390e-01 4.718366286452638780e-01 4.697492793433780678e-01 4.716110229447161295e-01 4.713959878357119604e-01 4.699886555242374642e-01 4.702897308281285826e-01 4.700588817692242238e-01 4.702788387593022090e-01 4.705770320194851419e-01 4.701805571615932933e-01 4.702837378333327711e-01 4.698639820588996208e-01 4.715556207161801794e-01 4.700119244568451982e-01 4.698148055841074866e-01 4.701188666344476297e-01 4.704921656725573609e-01 4.718605751409027382e-01 4.702745196146618234e-01 4.703039508326207763e-01 4.702520262105380211e-01 4.704578153172047639e-01 4.702868131302108123e-01 4.701060723838387245e-01 4.717702015103842905e-01 4.701108378922160269e-01 4.700299900729804636e-01 4.698424018972791050e-01 4.700169625688742636e-01 4.699755588756368563e-01 4.702304831634002147e-01 4.701514814907114537e-01 4.702413421931624926e-01 4.700839967355429638e-01 4.701388140039388652e-01 4.698398703486258987e-01 4.715091665598789006e-01 4.701996730102429578e-01 4.703186559933219546e-01 4.700019675912738282e-01 4.700806263697395182e-01 4.717323359068310573e-01 4.717213070773614292e-01 4.717667636620805349e-01 4.700115910115847950e-01 4.702583806516837939e-01 4.704501312321964224e-01 4.706434159236668191e-01 4.703638774455647931e-01 4.702162272483048078e-01 4.700601792733660744e-01 4.714856066357843711e-01 4.700924168188047592e-01 4.699117121573458400e-01 4.715263288426108090e-01 4.699600868242197471e-01 4.704029580002034305e-01 4.699052904711727985e-01 4.698967983222201439e-01 4.701017443846890465e-01 4.718380978587016217e-01 4.717549661786789583e-01 4.701935741046899819e-01 4.702736734517468653e-01 4.703731355257856905e-01 4.702684891628982067e-01 4.698942939189550971e-01 4.700359247128964024e-01 4.717425666419725050e-01 4.717911748193738819e-01 4.716298205658266962e-01 4.702037192732941295e-01 4.700416032071804695e-01 4.716910816588171240e-01 4.700822458360701672e-01 4.719478050017837933e-01 4.700701228155844125e-01 4.702340988582103809e-01 4.703973269317736627e-01 4.699375324012881605e-01 4.699294248151371090e-01 4.715423055917252748e-01 4.697790806388156271e-01 4.699781594036220866e-01 4.697499713958305789e-01 4.700086726582590746e-01 4.698182217057646493e-01 4.717264037190322945e-01 4.702609027174510792e-01 4.718857138196379530e-01 4.698460493388844639e-01 4.702346102995411670e-01 4.699271959457149150e-01 4.701065025940859843e-01 4.699235083950126790e-01 4.700203645016551857e-01 4.698866279580888872e-01 4.717794815594772428e-01 4.698904493490896894e-01 4.702803067580388352e-01 4.701719779510374897e-01 4.702066741004676254e-01 4.704246102070657742e-01 4.702000027156645334e-01 4.701538462161931053e-01 4.701760175816703247e-01 4.703482065188130390e-01 4.701166793835173108e-01 4.700596935397696741e-01 4.701516286727964178e-01 4.699488236483056469e-01 4.718210633137408516e-01 4.700920936839574904e-01 4.702753891863041824e-01 4.700828764867515108e-01 4.700226329613914622e-01 4.701984503394982529e-01 4.699334089418983895e-01 4.716693526525913005e-01 4.701566087443849185e-01 4.702960064678223251e-01 4.702739901982503912e-01 4.699327098826893145e-01 4.698549291589127486e-01 4.699415911311199401e-01 4.698494352445127809e-01 4.716531228482284122e-01 4.702870966978267009e-01 4.703073659969892462e-01 4.701952812489073041e-01 4.698681618541095673e-01 4.717825462977450202e-01 4.698623910104465784e-01 4.700992465141339283e-01 4.704962194506853712e-01 4.704176441486229154e-01 4.698761526407225775e-01 4.713605709020604606e-01 4.698772795838895289e-01 4.698350002790001034e-01 4.700827603367595531e-01 4.698795561915942165e-01 4.697777356366086288e-01 4.700848469806958030e-01 4.700683783229567259e-01 4.702545089388599497e-01 4.718720485583333124e-01 4.699072116829542956e-01
4.000000000000000000e+00 1.843320280649764831e+00 8.992696711207611576e-03 1.844000000000000083e+00 1.843759989130235644e+00 1.843262199105627053e+00 1.842613477511024556e+00 1.843712115951953168e+00 1.843276832859764625e+00 1.843636868887258640e+00 1.843778239738813829e+00 1.843060373942606356e+00 1.844313962249050087e+00 1.842522371876986309e+00 1.842674444031557224e+00 1.842696036156974193e+00 1.842322693073688900e+00 1.842264276924173716e+00 1.843820088571333393e+00 1.843292402247455275e+00 1.842408740400761857e+00 1.842848647257116390e+00 1.843808741459199263e+00 1.843317373063156239e+00 1.843070853981637169e+00 1.844229079602988319e+00 1.843236469909650399e+00 1.842181154396013820e+00 1.843263457668929073e+00 1.842823286777560021e+00 1.842533352518358480e+00 1.843982624581609109e+00 1.843269262864069447e+00 1.843217717442566350e+00 1.843871828836958882e+00 1.843374057734652904e+00 1.844154100260184448e+00 1.843393201478312537e+00 1.844232933610015834e+00 1.843245229079246483e+00 1.843097529938018786e+00 1.842975630604268611e+00 1.843624863596623475e+00 1.843131246912985022e+00 1.842870287855143063e+00 1.843316874873577094e+00 1.843491872149947142e+00 1.843189791143506451e+00 1.842739983177873020e+00 1.843593125057179316e+00 1.842632921261369905e+00 1.842808560318701216e+00 1.842677517508225726e+00 1.843689420562903525e+00 1.843421383989322537e+00 1.843906175524887336e+00 1.844821351409688281e+00 1.843306405757392463e+00 1.844484636398348476e+00 1.844516262313199650e+00 1.842608318314500337e+00 1.842774846426293855e+00 1.843342131462068823e+00 1.843261768685331203e+00 1.843951493215655546e+00 1.843636308134178226e+00 1.844226337877167055e+00 1.844091605135009582e+00 1.842828303679187929e+00 1.842478421892116192e+00 1.841955697142169557e+00 1.844224220213708687e+00 1.843787280103097004e+00 1.842258239179894064e+00 1.843607781685525193e+00 1.843501859009066823e+00 1.842907887062696926e+00 1.843156735400424351e+00 1.844584044793183830e+00 1.842614028211077448e+00 1.843035273888972148e+00 1.843361744114124123e+00 1.843016321508913036e+00 1.844478704143953207e+00 1.843637698187975182e+00 1.843955491035518923e+00 1.843135498266835759e+00 1.842230766423215149e+00 1.843092810626882461e+00 1.842259018969899298e+00 1.842707630407776298e+00 1.843112010827657299e+00 1.843466346631086994e+00 1.844262025089128398e+00 1.844046784464728805e+00 1.843273407440625844e+00 1.842465856043941752e+00 1.843928870572022705e+00 1.843455297796238623e+00 1.843075883255759662e+00 1.843191228582313768e+00 1.842987728254917190e+00 1.843794246413385407e+00 1.843124063374145249e+00 1.842415713470278549e+00 1.843102227934636961e+00 1.842434390207365880e+00 1.844117663179948963e+00 1.843381678933154744e+00 1.844066551014902577e+00 1.843904107588668850e+00 1.842903297844645127e+00 1.842593678523171352e+00 1.842945855999585714e+00 1.842329195716744916e+00 1.842544032755862426e+00 1.843371746644395959e+00 1.844080342096475533e+00 1.842782548265675446e+00 1.843248860297231895e+00 1.844007719655976540e+00 1.844316329842126789e+00 1.842954295364823025e+00 1.842911208158166225e+00 1.843088797018806124e+00 1.844045476224175362e+00 1.843012632256173511e+00 1.843764131339799439e+00 1.842518904892653131e+00 1.843426089903681619e+00 1.842847426790164889e+00 1.842235851535192204e+00 1.843988198834020986e+00 1.844362588540161552e+00 1.843653611102437750e+00 1.844147464075126308e+00 1.843843404476300574e+00 1.843579252417818726e+00 1.843628416231580136e+00 1.843595098098242291e+00 1.842398751397015477e+00 1.843367484007300439e+00 1.843042706850601675e+00 1.844759469466060287e+00 1.843072567017271846e+00 1.843462373698930179e+00 1.843052249017145927e+00 1.843585272311815348e+00 1.844140947171448941e+00 1.842994264592791032e+00 1.843184166031621718e+00 1.842553790515645051e+00 1.842798406173207892e+00 1.844163226200086658e+00 1.842793124107751535e+00 1.844322683663220053e+00 1.843796085642562144e+00 1.844275120153058944e+00 1.842917468291113803e+00 1.843557183421972612e+00 1.843754914357394581e+00 1.843723105019388964e+00 1.844209949411705241e+00 1.843133244038246854e+00 1.843914310511232335e+00 1.843019036710450198e+00 1.844034026344318677e+00 1.843286810266872244e+00 1.842931119614185542e+00 1.843022516607542238e+00 1.843553509075026131e+00 1.843395989321070072e+00 1.842919472705861317e+00 1.843714360263613461e+00 1.842417399528311517e+00 1.843699892511496685e+00 1.844079898172451326e+00 1.843555195648331591e+00 1.843138483041686593e+00 1.843570188510045504e+00 1.843098563932569212e+00 1.842674007203853215e+00 1.842809986580981496e+00 1.843664110641308751e+00 1.842783840430327835e+00 1.842602946234527028e+00 1.842689839117950479e+00 1.843364673207773530e+00 1.842457283881784980e+00 1.842233947872884636e+00 1.842594255351682975e+00 1.843799214483990756e+00 1.843300933793513119e+00 1.844361320751526812e+00 1.843079291236536799e+00 1.842324805294885737e+00 1.844088798257033757e+00 1.842777756436927206e+00 1.843738736359277874e+00 1.844626888661941022e+00 1.842613772993951127e+00 1.843160093433465319e+00 1.843073808393994151e+00 1.843735993667402484e+00 1.843430828444755587e+00 1.843770838395287548e+00 1.843409273597620190e+00 1.843923886714813776e+00 1.843125174717865411e+00 1.843204613120115409e+00 1.842765336298908929e+00 1.843482745657400113e+00 1.843150456298817463e+00 1.843460104304815994e+00 1.842388961870286668e+00 1.843944757932260536e+00 1.843636809620773143e+00 1.843514096743600783e+00 1.843499181960177147e+00 1.843518518197217793e+00 1.843352639392502601e+00 1.844324702257414073e+00 1.843527450249573985e+00 1.843127967050864457e+00 1.842332527954131383e+00 1.842267984831672978e+00 1.842997458436978819e+00 1.843500121910098821e+00 1.843635953922059034e+00
5.000000000000000000e+00 5.071278075068197388e+00 1.973776185836794220e-02 5.072000000000000064e+00 5.073339579634932761e+00 5.069970647431529365e+00 5.071688561878878510e+00 5.071208162748539472e+00 5.073514409662870150e+00 5.071001192514194678e+00 5.070890641974392210e+00 5.069415518783568331e+00 5.070863225923364581e+00 5.069437231635487429e+00 5.071856368751355149e+00 5.071915799845743145e+00 5.070888194290772866e+00 5.072234145053187149e+00 5.071505146005316433e+00 5.070053722450701628e+00 5.073125478454215020e+00 5.070831906823539903e+00 5.073473727854651116e+00 5.072121665359248688e+00 5.071443336823659109e+00 5.072630093137937557e+00 5.071899050065924897e+00 5.070498617148637699e+00 5.071476223380093629e+00 5.072266049925206133e+00 5.073468601505490838e+00 5.069952227022103131e+00 5.073493573681233215e+00 5.071847450273091695e+00 5.070148105729362698e+00 5.068779370022262754e+00 5.070423692147036476e+00 5.072330316866029420e+00 5.069142960529371855e+00 5.067924789279707021e+00 5.073515760284914577e+00 5.071181317617169171e+00 5.070968171454487639e+00 5.073608573389540410e+00 5.072890228390838807e+00 5.071623193191796553e+00 5.072104673211689452e+00 5.071273540453469231e+00 5.070532903820242687e+00 5.072880431963192827e+00 5.070238309371036145e+00 5.070224638270998341e+00 5.071864828320686414e+00 5.071145738120958590e+00 5.070408492187550742e+00 5.071741931812488779e+00 5.070760312596293673e+00 5.072091487425710810e+00 5.069834802321354417e+00 5.069921730756866474e+00 5.069673700986909282e+00 5.072132720619603852e+00 5.072189791235649281e+00 5.071968662857576859e+00 5.071866580037855066e+00 5.070999650139127901e+00 5.072622551905093147e+00 5.070251864443870993e+00 5.072774658067005227e+00 5.068312798682646836e+00 5.073877962703240208e+00 5.072616727182174934e+00 5.071414904925655165e+00 5.072361019943831373e+00 5.072920761535984369e+00 5.074628761567257840e+00 5.070994912666010990e+00 5.071182592296064051e+00 5.071605806454144272e+00 5.071690077649383177e+00 5.071345433683646320e+00 5.070244450188090113e+00 5.072342723684324817e+00 5.069818496655698503e+00 5.069504309860326074e+00 5.071877576210494176e+00 5.069122928458083877e+00 5.073085478362297174e+00 5.071006712408816064e+00 5.072219668533429093e+00 5.071947712360166172e+00 5.073060746414887134e+00 5.070532163835614448e+00 5.071221039735870129e+00 5.070128631906819727e+00 5.072000688369705301e+00 5.069731850198605727e+00 5.071304917653565170e+00 5.070501773548005353e+00 5.068958970995482538e+00 5.073278788768909031e+00 5.072718665717931508e+00 5.071685395230738358e+00 5.069091479399251199e+00 5.071144227629919676e+00 5.069530639959044294e+00 5.071195634284117126e+00 5.070323509936193851e+00 5.072298611120838352e+00 5.070182979200409612e+00 5.071736243866447502e+00 5.072486275826466162e+00 5.070133582841853226e+00 5.068751437769885015e+00 5.070906092445112812e+00 5.071497419148871977e+00 5.072271281167931356e+00 5.068723540518697668e+00 5.072153919493471719e+00 5.071436060796076006e+00 5.072021233240299409e+00 5.070869735520381560e+00 5.069123745168320205e+00 5.071004051081635211e+00 5.069493697656933584e+00 5.070125034954755527e+00 5.072537075125263861e+00 5.068849924595410172e+00 5.072935202275098199e+00 5.071923682753451956e+00 5.073282930988871620e+00 5.070649167906310595e+00 5.070468091701783031e+00 5.070996921853915040e+00 5.071047242685230216e+00 5.070906027976890940e+00 5.071569277388175756e+00 5.070343372827724515e+00 5.072977540107937777e+00 5.072885861036053434e+00 5.073097973444984810e+00 5.070260238007064935e+00 5.069366924699703070e+00 5.072088129171868687e+00 5.070951015007347351e+00 5.073324544512526124e+00 5.070895112930996262e+00 5.070859273950937052e+00 5.070387528285925427e+00 5.069233682220517956e+00 5.071755129308269439e+00 5.072019002525712139e+00 5.070196700589478134e+00 5.070448783532776282e+00 5.068680436808305600e+00 5.072887555064995446e+00 5.068639434565721302e+00 5.070756431223431449e+00 5.068523286841901232e+00 5.074286058604452698e+00 5.071325881573049976e+00 5.071238388643352302e+00 5.069079785111046732e+00 5.071615010981596505e+00 5.071764307436534835e+00 5.071300755026477702e+00 5.070093553994412083e+00 5.070038341471570398e+00 5.071058839979596833e+00 5.070813308451152857e+00 5.068772392088059853e+00 5.070338643078344809e+00 5.070529797868243982e+00 5.071214335822693542e+00 5.073149321611072793e+00 5.071174541658519885e+00 5.072219763302967976e+00 5.070776546815801922e+00 5.069630361164551680e+00 5.072817319143150705e+00 5.073023734602674750e+00 5.071855166408000493e+00 5.070228562428020780e+00 5.071927975601508543e+00 5.072157476103019924e+00 5.071659575140636811e+00 5.071898742849081820e+00 5.073756185213579073e+00 5.071258647817942666e+00 5.070643928184323634e+00 5.071635653981016567e+00 5.071447730945119581e+00 5.070077188829012371e+00 5.072993828010707418e+00 5.070969515736573285e+00 5.072894360725114460e+00 5.072244243362080240e+00 5.070139885788462308e+00 5.071281383304912183e+00 5.072444139967274168e+00 5.073690041598979406e+00 5.073193091046508840e+00 5.070954430478155750e+00 5.071273839414894624e+00 5.072433852238985352e+00 5.071369681312852151e+00 5.070375182042912598e+00 5.070271070618455056e+00 5.072446582223536282e+00 5.071314321005833570e+00 5.070105713552046645e+00 5.070577270051156660e+00 5.071012672160167156e+00 5.070514994053159974e+00 5.073071017701462182e+00 5.071348612206748818e+00 5.070501670759411716e+00 5.070663502539882295e+00 5.069123427751820010e+00 5.070675663935080735e+00 5.072218705139673212e+00 5.070892755122065942e+00 5.070700231922906198e+00 5.071600490681174911e+00 5.074915986340533536e+00 5.072337845750301000e+00 5.070744364472642651e+00 5.068625606336334855e+00 5.070998675863711114e+00
6.000000000000000000e+00 2.125000000000000153e-03 1.753043133136647744e-05 2.125000000000000153e-03 2.124639709580301850e-03 2.124144539000495831e-03 2.125877636029816897e-03 2.124392124290398840e-03 2.126466996665564348e-03 2.124583195546737423e-03 2.127279722291115522e-03 2.123805454799107106e-03 2.125471273217041310e-03 2.125546625261794456e-03 2.125718858506944319e-03 2.126001428674768618e-03 2.125191394193672728e-03 2.127678011670524824e-03 2.124830780836639999e-03 2.124287169656635839e-03 2.125441670628031455e-03 2.123606310109402671e-03 2.124841545414462001e-03 2.124311389956735126e-03 2.123953467744157681e-03 2.124849618847828286e-03 2.124117627555941260e-03 2.125124115582286300e-03 2.126426629498732492e-03 2.125794210551697466e-03 2.125772681396053895e-03 2.124865765714561289e-03 2.126571951299327783e-03 2.123867351121582966e-03 2.122443735704640771e-03 2.122080431203152758e-03 2.125116042148919582e-03 2.124319463390101411e-03 2.122901230262070216e-03 2.124211817611882692e-03 2.123759705343364248e-03 2.123802763654651822e-03 2.124981484926146292e-03 2.123757014198908531e-03 2.123730102754353959e-03 2.126343204020613060e-03 2.126819536589230793e-03 2.126453540943287063e-03 2.123630530409501959e-03 2.124755428791887286e-03 2.123372180541776948e-03 2.125939532352292757e-03 2.125769990251598178e-03 2.124602033557925276e-03 2.124405580012676559e-03 2.124946500048225436e-03 2.123840439677028395e-03 2.124123009844852260e-03 2.123337195663855658e-03 2.123455606019896379e-03 2.125804975129519468e-03 2.125993355241401900e-03 2.124026128644455544e-03 2.124222582189704694e-03 2.124607415846836277e-03 2.124553592957727135e-03 2.125237143649415586e-03 2.125180629615851160e-03 2.123781234499007818e-03 2.120907092220568856e-03 2.124981484926146292e-03 2.124986867215057293e-03 2.124809251680996429e-03 2.125379774305555594e-03 2.124327536823467696e-03 2.124375977423666271e-03 2.123695117876433103e-03 2.126273234264770915e-03 2.125552007550705457e-03 2.126265160831404197e-03 2.123603618964946954e-03 2.124262949356536551e-03 2.123689735587522102e-03 2.123194565007716084e-03 2.122101960358796328e-03 2.125019160948522865e-03 2.126448158654376062e-03 2.125121424437830583e-03 2.126510054976851923e-03 2.127567674747850388e-03 2.125996046385857617e-03 2.126087545297343333e-03 2.124515916935350562e-03 2.123030405195932505e-03 2.125078366126543009e-03 2.124400197723765558e-03 2.125444361772486739e-03 2.127357765480323952e-03 2.124252184778714549e-03 2.126671523644179784e-03 2.126254396253582628e-03 2.126117147886353621e-03 2.127258193135471952e-03 2.126074089575066047e-03 2.125578918995260028e-03 2.123751631909997963e-03 2.125638124173280605e-03 2.125091821848820728e-03 2.124128392133763261e-03 2.125070292693176724e-03 2.124760811080797854e-03 2.126135985897541908e-03 2.125872253740905896e-03 2.125783445973875464e-03 2.125420141472387451e-03 2.125705402784667034e-03 2.124268331645447552e-03 2.122769364183752210e-03 2.125952988074570043e-03 2.126407791487544205e-03 2.125223687927138300e-03 2.125444361772486739e-03 2.123816219376929108e-03 2.123826983954750676e-03 2.124026128644455544e-03 2.124881912581294292e-03 2.126343204020613060e-03 2.126978314112103370e-03 2.127823333471120116e-03 2.126843756889329647e-03 2.125848033440807042e-03 2.125385156594466595e-03 2.122653644972167207e-03 2.125506258094962599e-03 2.124448638323963700e-03 2.122769364183752210e-03 2.124933044325948150e-03 2.126946020378637364e-03 2.124445947179508416e-03 2.124475549768518705e-03 2.125554698695160741e-03 2.124284478512180122e-03 2.123759705343364248e-03 2.125799592840608467e-03 2.126066016141699763e-03 2.126690361655368070e-03 2.126378188898533916e-03 2.124327536823467696e-03 2.125247908227237588e-03 2.123722029320987675e-03 2.124171450445050836e-03 2.123205329585538086e-03 2.126020266685956905e-03 2.125255981660603873e-03 2.123595545531580669e-03 2.125253290516148589e-03 2.125081057270998726e-03 2.125274819671792159e-03 2.125909929763282469e-03 2.127083268745866371e-03 2.124370595134755270e-03 2.124674694458223139e-03 2.122694012138999064e-03 2.123983070333167970e-03 2.124933044325948150e-03 2.123999217199900973e-03 2.124957264626047004e-03 2.124206435322971692e-03 2.123713955887621390e-03 2.126308219142691771e-03 2.124332919112378697e-03 2.123910409432870541e-03 2.126563877865961065e-03 2.124758119936342570e-03 2.125452435205853023e-03 2.124914206314759864e-03 2.125121424437830583e-03 2.124537446090994132e-03 2.123905027143959540e-03 2.124489005490795990e-03 2.126197882220017769e-03 2.126066016141699763e-03 2.125834577718529756e-03 2.127118253623787661e-03 2.125942223496748041e-03 2.125691947062389748e-03 2.125813048562885752e-03 2.126491216965663636e-03 2.125245217082782304e-03 2.125385156594466595e-03 2.125511640383873600e-03 2.124887294870204859e-03 2.124534754946538848e-03 2.125242525938326587e-03 2.126329748298335341e-03 2.125081057270998726e-03 2.125064910404265723e-03 2.125872253740905896e-03 2.124532063802083131e-03 2.123501355475639236e-03 2.125517022672784601e-03 2.126458923232198064e-03 2.126251705109126911e-03 2.124822707403273715e-03 2.124262949356536551e-03 2.124817325114362714e-03 2.124408271157131843e-03 2.123372180541776948e-03 2.126364733176256631e-03 2.126445467509920778e-03 2.126079471863977048e-03 2.124599342413469993e-03 2.123888880277226537e-03 2.124515916935350562e-03 2.125425523761298452e-03 2.127317398313492095e-03 2.126924491222993794e-03 2.124698914758322427e-03 2.121824772479883030e-03 2.124410962301587127e-03 2.124292551945546840e-03 2.125342098283179021e-03 2.124198361889605407e-03 2.124206435322971692e-03 2.125148335882385154e-03 2.125059528115354722e-03 2.126063324997244479e-03 2.124435182601686414e-03 2.124666621024856854e-03
