# vvf statistics with RF=500
# gcat file: /disk11/salam/Abacus/AbacusCosmos_720box_products/GCAT_v9July2021/AbacusCosmos_720box_25_rockstar_halos_z0.100_Mr21_hod-default_real-0.gcat.rsd_zz.1pz0.100by100
# stats order in row: stdvvf,p2.5,p16,p50,p84,p97.5,rho
# columns: numbers, mean, sigma,All, jnrealizations
0.000000000000000000e+00 1.441811457566021470e+00 4.906949433684979281e-03 1.441811685125890419e+00 1.442261144512534177e+00 1.441543046764178548e+00 1.441492363041223745e+00 1.441755957283374245e+00 1.442333208535438560e+00 1.441880582116904952e+00 1.441919410083340125e+00 1.440941070403942703e+00 1.440381892392282648e+00 1.441783412773960160e+00 1.442451389163722730e+00 1.442111494114668879e+00 1.441867574547843978e+00 1.441795447875952041e+00 1.442349080956536689e+00 1.442057765659625845e+00 1.442066623813409221e+00 1.441730247985599123e+00 1.442082502690062773e+00 1.441957047427543603e+00 1.441849047607452805e+00 1.442434320622397292e+00 1.441930842579937755e+00 1.441775553562163470e+00 1.441692084452879108e+00 1.441992989735938702e+00 1.442265300212372869e+00 1.441706687630341932e+00 1.442207053043208731e+00 1.441795783941672626e+00 1.441687292661926856e+00 1.441246225295082395e+00 1.441950075667032483e+00 1.441869702143329102e+00 1.441422510864456275e+00 1.441343525799350767e+00 1.441794529482118392e+00 1.441647907404449480e+00 1.441633857103659322e+00 1.442041461316285966e+00 1.441702346197729634e+00 1.441716363629308884e+00 1.442227574123848388e+00 1.441511260049905818e+00 1.441398672896815336e+00 1.441889481098810766e+00 1.441532172668583911e+00 1.442092047984318004e+00 1.441866000143051663e+00 1.441787170018852038e+00 1.441108934380600726e+00 1.441894605269925966e+00 1.441626425731815875e+00 1.441887595107026687e+00 1.441362660600460588e+00 1.441355245219377412e+00 1.441664013920286980e+00 1.441855937263672782e+00 1.441967201096266971e+00 1.441243246837470071e+00 1.442029494149758673e+00 1.442098999545227356e+00 1.442119492972349315e+00 1.441974696096224973e+00 1.441783861713574977e+00 1.441313315726310940e+00 1.442449234997416951e+00 1.442287077421985586e+00 1.442280137759292202e+00 1.441556270703443055e+00 1.441788884439241913e+00 1.442391442762074538e+00 1.441220642835138399e+00 1.441982431583016977e+00 1.441656410302907476e+00 1.441835206979132922e+00 1.441852467598164544e+00 1.441663353082935917e+00 1.441767491510547838e+00 1.441547874069365021e+00 1.441331292644053574e+00 1.442043228844000158e+00 1.441094526004198517e+00 1.441884154723420686e+00 1.441565671327894371e+00 1.442258238976753759e+00 1.441732443446066103e+00 1.442056594388649193e+00 1.441791492069242064e+00 1.441637372041230769e+00 1.441902724335692776e+00 1.441910829096915370e+00 1.441843659548861734e+00 1.442205323055210764e+00 1.441509348612497687e+00 1.441658538252295285e+00 1.442222588925485383e+00 1.441968981121039217e+00 1.441996921777751739e+00 1.441267014681913317e+00 1.441686600124987283e+00 1.441587410773286004e+00 1.441686459862979719e+00 1.441575278413052885e+00 1.441873697256023323e+00 1.441827315321401404e+00 1.441908370525537109e+00 1.441952046470043491e+00 1.441421719814744984e+00 1.441789655065901510e+00 1.442209967327175324e+00 1.442003677917746307e+00 1.441861187602284433e+00 1.441078630959924167e+00 1.442220450980947533e+00 1.442111655093036626e+00 1.441952931517027192e+00 1.441859759006127728e+00 1.441291560481653633e+00 1.441834497217208577e+00 1.441602701443406964e+00 1.441687194430648855e+00 1.441733994986728717e+00 1.441441781074989770e+00 1.441792397284868299e+00 1.442063737625721265e+00 1.442331702137061855e+00 1.442194422377365948e+00 1.441781433780202626e+00 1.441938203806037766e+00 1.442058662693899596e+00 1.441592531643051567e+00 1.441938540254411816e+00 1.441833172841580746e+00 1.441788664296001832e+00 1.441973047629317772e+00 1.441985512928983804e+00 1.441430529236978453e+00 1.441097548551006913e+00 1.441105558850099166e+00 1.441576398992920671e+00 1.442290840786389250e+00 1.441964605546377287e+00 1.442060122283324253e+00 1.441992091420259969e+00 1.441857769723984495e+00 1.441670640690872141e+00 1.441993671304591107e+00 1.441552239638772548e+00 1.441749465445914202e+00 1.441333055751784498e+00 1.441715134545681787e+00 1.440873473968960816e+00 1.442146975789053487e+00 1.442237899892352182e+00 1.442287130276553864e+00 1.442178225388776713e+00 1.441940076813216454e+00 1.441242968247156142e+00 1.441967247713124234e+00 1.442357394788931213e+00 1.442058554503749424e+00 1.442015177351383182e+00 1.441968083312097360e+00 1.441566003269949992e+00 1.441571706356070903e+00 1.441171742532682432e+00 1.441734534264900836e+00 1.441852460332699648e+00 1.441611906139010468e+00 1.441843162767089126e+00 1.441486770115455007e+00 1.442276455614718067e+00 1.441792746449698681e+00 1.441895582135835907e+00 1.442062047849108186e+00 1.442380028199419240e+00 1.441763530347581534e+00 1.441735036593642327e+00 1.441974997224104271e+00 1.442001882735360674e+00 1.441809352080359208e+00 1.441872170634971528e+00 1.442290448055949970e+00 1.442275944513978336e+00 1.442193817090923647e+00 1.442247449055671371e+00 1.441878930850165608e+00 1.441045403134953551e+00 1.442179594811642929e+00 1.441621526965053857e+00 1.441939596766895981e+00 1.442101766042050759e+00 1.441868330569069379e+00 1.441360229748181565e+00 1.441701857485021110e+00 1.442140962888123212e+00 1.441947333211651472e+00 1.442059065032313736e+00 1.441603295977720522e+00 1.441797918094993802e+00 1.441653373297871799e+00 1.441882126408794429e+00 1.441565046740399092e+00 1.441845516790242421e+00 1.441856718261192327e+00 1.441757794639206613e+00 1.441730458355742650e+00 1.441739272138291561e+00 1.441546297234426399e+00 1.441782374793967092e+00 1.441806938914557579e+00 1.441724244484102080e+00 1.441458030136394175e+00 1.441339872784047849e+00 1.441766262856107650e+00 1.442206897642281493e+00 1.441628362753901493e+00 1.442051798076008806e+00 1.441772949256660441e+00 1.442343183735585121e+00 1.442200939588798470e+00 1.441945130790478258e+00 1.441157852049092858e+00 1.441810773282392155e+00
1.000000000000000000e+00 2.399999986830031462e-02 1.729683835864775107e-04 2.400000000000000050e-02 2.399725877983430178e-02 2.399264217728013307e-02 2.400942925647914575e-02 2.399542869803730424e-02 2.401634086190273729e-02 2.399434730891946560e-02 2.402115814016739237e-02 2.398710113055052204e-02 2.400811988944705211e-02 2.400644975727349653e-02 2.400397078662176720e-02 2.400848876132510509e-02 2.400682632202908937e-02 2.402686112474819793e-02 2.399978732741491622e-02 2.399482759072994395e-02 2.400503125908810820e-02 2.398438660908083775e-02 2.399603882872146030e-02 2.399148627115401528e-02 2.398981602476353905e-02 2.399992483782270938e-02 2.399097632573114758e-02 2.400131919719234591e-02 2.401384949193152707e-02 2.400907806529608765e-02 2.400781619459314842e-02 2.399771979642990188e-02 2.401330909492183779e-02 2.399508532906172165e-02 2.397511328101051276e-02 2.397205616562349956e-02 2.399892290422110316e-02 2.399389085782358336e-02 2.397941058917157572e-02 2.399240900632896786e-02 2.398805309394367452e-02 2.398695908571000027e-02 2.399865948475678190e-02 2.398888971184858637e-02 2.398302147595961914e-02 2.401520056253877294e-02 2.402053242627659804e-02 2.401316473834486445e-02 2.398605745613445125e-02 2.399459588665674159e-02 2.398629545707789759e-02 2.401058083451031513e-02 2.400749391387543147e-02 2.399612450790326520e-02 2.399260380084492980e-02 2.399554145366310579e-02 2.398894659990934500e-02 2.399170743980397549e-02 2.398284163099905983e-02 2.398241830011015735e-02 2.400803533383506078e-02 2.400825365051113477e-02 2.399071680542625221e-02 2.399425865529564508e-02 2.399804792169243917e-02 2.399640513883133722e-02 2.400266564171983294e-02 2.400441625444715496e-02 2.398895013622406522e-02 2.396054841690399909e-02 2.399988095642622069e-02 2.399944842338995118e-02 2.399783537948249959e-02 2.400327054258487303e-02 2.399380067023832580e-02 2.399472514342895421e-02 2.398481394970760142e-02 2.401449240629235579e-02 2.400662528730558923e-02 2.401079897130903654e-02 2.398797044260756947e-02 2.399326305835789569e-02 2.398716744704525866e-02 2.398334755158107803e-02 2.396848224677535985e-02 2.400411599423555101e-02 2.401333487374089637e-02 2.400153975902942147e-02 2.401211842723531553e-02 2.402268148956869520e-02 2.400858761714196737e-02 2.401048752953264739e-02 2.399192937714337420e-02 2.398111958051903428e-02 2.399863926292369540e-02 2.399224746786450882e-02 2.400706281742742698e-02 2.402167025577078494e-02 2.399374485089327685e-02 2.401351701399760327e-02 2.401375939191129419e-02 2.401122343668982487e-02 2.402364115053315374e-02 2.400827963834446799e-02 2.400565379639046926e-02 2.398997780185092854e-02 2.400702705270030615e-02 2.400111400118237759e-02 2.399393297477285178e-02 2.400334860324906949e-02 2.399729184152941258e-02 2.400896907737952099e-02 2.400495338344138530e-02 2.401069063742938478e-02 2.400377379437568237e-02 2.400128432866797251e-02 2.399521069594436062e-02 2.397742715520395640e-02 2.400991236280301810e-02 2.401471121998373717e-02 2.400140532485480621e-02 2.400314439486921081e-02 2.398603583371396869e-02 2.399166390115809594e-02 2.398799910406605035e-02 2.399859481951103352e-02 2.401484488223008112e-02 2.402177696199768453e-02 2.402994975784873699e-02 2.401584880286845858e-02 2.400949786407462205e-02 2.400319004220270377e-02 2.397733533156489599e-02 2.400697957934135734e-02 2.399582641830106874e-02 2.397726355361470135e-02 2.399789160541394156e-02 2.401877517424270622e-02 2.399635880655735104e-02 2.399432294464835108e-02 2.400390385688931302e-02 2.399413748325782483e-02 2.398913723222803607e-02 2.400837941745298867e-02 2.400905483803980611e-02 2.401592512149468284e-02 2.401275500921509418e-02 2.399565983191823126e-02 2.400461226312152266e-02 2.398656584403542277e-02 2.399251470987435672e-02 2.397953838800368984e-02 2.401114719963694938e-02 2.400183830667762183e-02 2.398462145618627389e-02 2.400811552324903439e-02 2.399770473192095258e-02 2.400177326933933611e-02 2.401058260464589145e-02 2.401851293206242605e-02 2.399840573396833793e-02 2.399705808530492104e-02 2.397909160917514187e-02 2.399218792183612295e-02 2.399681760383975265e-02 2.399174983681580386e-02 2.399975615992949035e-02 2.399126428173364856e-02 2.398821509659781678e-02 2.401185821574453039e-02 2.399313546353380386e-02 2.399237842435162499e-02 2.401029661626767620e-02 2.399666394084773793e-02 2.400398811329014503e-02 2.400125911354344596e-02 2.400156206264742950e-02 2.399569389075103740e-02 2.399101095184823576e-02 2.399489392539440324e-02 2.401208529884957601e-02 2.401065914504627030e-02 2.400863838602382977e-02 2.402066603662183358e-02 2.400652646286895869e-02 2.400714172847557767e-02 2.400583952268062898e-02 2.401704513513096273e-02 2.400712675234850310e-02 2.400766629242737787e-02 2.400646484855836066e-02 2.399578903400017421e-02 2.399081821626792080e-02 2.400404517734916823e-02 2.401237876140670247e-02 2.400145004096866652e-02 2.400075838657265981e-02 2.400507676555084860e-02 2.399654859308517768e-02 2.398186643041294933e-02 2.400478996921936309e-02 2.401398833200957608e-02 2.401187340891089775e-02 2.399933226237931788e-02 2.399199064868466624e-02 2.399799543010209743e-02 2.399451551574409078e-02 2.398522394014160689e-02 2.401021205278293727e-02 2.401468704602627638e-02 2.400891203761821788e-02 2.399157946861601651e-02 2.399400743850457068e-02 2.399196797371456677e-02 2.400624342966091104e-02 2.402296403806428865e-02 2.401919413123233121e-02 2.399637955108944662e-02 2.397033299872430856e-02 2.399267580304607558e-02 2.398881400095854641e-02 2.400213707600101776e-02 2.399446620313839748e-02 2.398940336911139018e-02 2.400263865220688200e-02 2.400315679421695381e-02 2.401284346200462105e-02 2.399248027081753512e-02 2.399453688202413809e-02
2.000000000000000000e+00 1.079999994073514019e-01 7.783577261391413579e-04 1.079999999999999988e-01 1.079876645092543580e-01 1.079668897977605901e-01 1.080424316541561541e-01 1.079794291411678708e-01 1.080735338785623056e-01 1.079745628901375848e-01 1.080952116307532657e-01 1.079419550874773509e-01 1.080365395025117414e-01 1.080290239077307396e-01 1.080178685397979454e-01 1.080381994259629747e-01 1.080307184491308969e-01 1.081208750613668890e-01 1.079990429733671264e-01 1.079767241582847426e-01 1.080226406658964800e-01 1.079297397408637699e-01 1.079821747292465661e-01 1.079616882201930722e-01 1.079541721114359309e-01 1.079996617702021905e-01 1.079593934657901710e-01 1.080059363873655670e-01 1.080623227136918718e-01 1.080408512938323962e-01 1.080351728756691609e-01 1.079897390839345550e-01 1.080598909271482666e-01 1.079778839807777474e-01 1.078880097645473074e-01 1.078742527453057515e-01 1.079951530689949590e-01 1.079725088602061372e-01 1.079073476512720925e-01 1.079658405284803502e-01 1.079462389227465319e-01 1.079413158856949995e-01 1.079939676814055116e-01 1.079500037033186421e-01 1.079235966418182896e-01 1.080684025314244678e-01 1.080923959182446825e-01 1.080592413225518883e-01 1.079372585526050254e-01 1.079756814899553302e-01 1.079383295568505374e-01 1.080476137552964233e-01 1.080337226124394451e-01 1.079825602855646882e-01 1.079667171038021928e-01 1.079799365414839812e-01 1.079502596995920577e-01 1.079626834791178880e-01 1.079227873394957710e-01 1.079208823504957115e-01 1.080361590022577700e-01 1.080371414273001013e-01 1.079582256244181471e-01 1.079741639488304011e-01 1.079912156476159762e-01 1.079838231247410157e-01 1.080119953877392569e-01 1.080198731450121991e-01 1.079502756130082952e-01 1.078224678760679872e-01 1.079994643039179913e-01 1.079975179052547751e-01 1.079902592076712464e-01 1.080147174416319356e-01 1.079721030160724626e-01 1.079762631454302957e-01 1.079316627736841977e-01 1.080652158283156028e-01 1.080298137928751567e-01 1.080485953708906627e-01 1.079458669917340713e-01 1.079696837626105271e-01 1.079422535117036674e-01 1.079250639821148494e-01 1.078581701104891211e-01 1.080185219740599778e-01 1.080600069318340406e-01 1.080069289156324053e-01 1.080545329225589130e-01 1.081020667030591215e-01 1.080386442771388567e-01 1.080471938828969081e-01 1.079636821971451804e-01 1.079150381123356456e-01 1.079938766831566310e-01 1.079651136053902949e-01 1.080317826784234214e-01 1.080975161509685201e-01 1.079718518290197354e-01 1.080608265629892234e-01 1.080619172636008291e-01 1.080505054651042102e-01 1.081063851773991918e-01 1.080372583725501129e-01 1.080254420837571117e-01 1.079549001083291854e-01 1.080316217371513898e-01 1.080050130053206991e-01 1.079726983864778278e-01 1.080150687146208127e-01 1.079878132868823531e-01 1.080403608482078393e-01 1.080222902254862338e-01 1.080481078684322194e-01 1.080169820746905707e-01 1.080057794790058728e-01 1.079784481317496159e-01 1.078984221984178038e-01 1.080446056326135745e-01 1.080662004899268225e-01 1.080063239618466175e-01 1.080141497769114417e-01 1.079371612517128626e-01 1.079624875552114283e-01 1.079459959682972370e-01 1.079936766877996474e-01 1.080668019700353755e-01 1.080979963289895734e-01 1.081347739103193095e-01 1.080713196129080567e-01 1.080427403883357923e-01 1.080143551899121618e-01 1.078980089920420354e-01 1.080314081070360976e-01 1.079812188823548180e-01 1.078976859912661596e-01 1.079905122243627474e-01 1.080844882840921728e-01 1.079836146295080762e-01 1.079744532509175764e-01 1.080175673560019034e-01 1.079736186746602100e-01 1.079511175450261623e-01 1.080377073785384473e-01 1.080407467711791275e-01 1.080716630467260658e-01 1.080573975414679255e-01 1.079804692436320407e-01 1.080207551840468433e-01 1.079395462981593973e-01 1.079663161944346000e-01 1.079079227460166129e-01 1.080501623983662757e-01 1.080082723800492861e-01 1.079307965528382429e-01 1.080365198546206496e-01 1.079896712936442849e-01 1.080079797120270108e-01 1.080476217209065115e-01 1.080833081942809276e-01 1.079928258028575172e-01 1.079867613838721430e-01 1.079059122412881350e-01 1.079648456482625585e-01 1.079856792172788765e-01 1.079628742656711105e-01 1.079989027196827100e-01 1.079606892678014185e-01 1.079469679346901773e-01 1.080533619708503867e-01 1.079691095859021122e-01 1.079657029095823090e-01 1.080463347732045498e-01 1.079849877338148190e-01 1.080179465098056596e-01 1.080056660109455086e-01 1.080070292819134276e-01 1.079806225083796700e-01 1.079595492833170661e-01 1.079770226642748215e-01 1.080543838448230903e-01 1.080479661527082164e-01 1.080388727371072305e-01 1.080929971647982546e-01 1.080293690829103176e-01 1.080321377781400943e-01 1.080262778520628270e-01 1.080767031080893392e-01 1.080320703855682657e-01 1.080344983159232108e-01 1.080290918185126264e-01 1.079810506530007874e-01 1.079586819732056419e-01 1.080182032980712553e-01 1.080557044263301680e-01 1.080065251843590063e-01 1.080034127395769761e-01 1.080228454449788239e-01 1.079844686688832961e-01 1.079183989368582702e-01 1.080215548614871374e-01 1.080629474940430906e-01 1.080534303400990381e-01 1.079969951807069339e-01 1.079639579190809912e-01 1.079909794354594332e-01 1.079753198208484033e-01 1.079335077306372292e-01 1.080459542375232229e-01 1.080660917071182420e-01 1.080401041692819752e-01 1.079621076087720760e-01 1.079730334732705715e-01 1.079638558817155591e-01 1.080280954334741084e-01 1.081033381712893093e-01 1.080863735905454870e-01 1.079837079799025046e-01 1.078664984942593885e-01 1.079670411137073488e-01 1.079496630043134536e-01 1.080096168420045799e-01 1.079750979141227973e-01 1.079523151610012610e-01 1.080118739349309742e-01 1.080142055739762852e-01 1.080577955790207878e-01 1.079661612186789132e-01 1.079754159691086179e-01
3.000000000000000000e+00 4.779999973769811783e-01 3.444953639763991948e-03 4.779999999999999805e-01 4.779454040316998831e-01 4.778534566974959596e-01 4.781877993582095976e-01 4.779089549025763439e-01 4.783254554995628460e-01 4.778874172359793282e-01 4.784213996250005208e-01 4.777430975167979432e-01 4.781617211314871385e-01 4.781284576656971708e-01 4.780790848335501608e-01 4.781690678297250141e-01 4.781359575804127182e-01 4.785349840679016253e-01 4.779957642710137566e-01 4.778969828487046878e-01 4.781002059101714385e-01 4.776890332975267106e-01 4.779211066720357448e-01 4.778304349004841578e-01 4.777971691598738579e-01 4.779985030199689344e-01 4.778202784874787112e-01 4.780262740107475983e-01 4.782758357143029326e-01 4.781808048004804190e-01 4.781556725423135035e-01 4.779545859455622270e-01 4.782650728071932700e-01 4.779021161371460047e-01 4.775043395134593860e-01 4.774434519653347198e-01 4.779785478424036227e-01 4.778783262516530517e-01 4.775899275676672162e-01 4.778488127093852844e-01 4.777620574543781640e-01 4.777402684570575264e-01 4.779733014047392037e-01 4.777787200943177104e-01 4.776618443961957450e-01 4.783027445372305397e-01 4.784089374900089009e-01 4.782621977053685969e-01 4.777223110013444352e-01 4.778923680759133985e-01 4.777270511868014213e-01 4.782107349539971297e-01 4.781492537846857016e-01 4.779228131157400306e-01 4.778526923668282023e-01 4.779112006187902217e-01 4.777798531148611527e-01 4.778348398427625376e-01 4.776582624840645663e-01 4.776498311438606148e-01 4.781600370655482712e-01 4.781643852060133981e-01 4.778151097080728937e-01 4.778856515513049685e-01 4.779611211070410870e-01 4.779284023483907906e-01 4.780530906975866690e-01 4.780879570677391555e-01 4.777799235464626482e-01 4.772142559700046083e-01 4.779976290488222590e-01 4.779890144325165124e-01 4.779568879746931009e-01 4.780651383064820625e-01 4.778765300155799478e-01 4.778949424399600576e-01 4.776975444983430075e-01 4.782886404253227641e-01 4.781319536388363156e-01 4.782150795119049502e-01 4.777604113152674747e-01 4.778658225789614300e-01 4.777444183203180539e-01 4.776683387356564503e-01 4.773722714149425950e-01 4.780819768851913842e-01 4.782655862353395460e-01 4.780306668673360293e-01 4.782413586757700008e-01 4.784517396672431366e-01 4.781710367080775348e-01 4.782088766298585591e-01 4.778392600947721780e-01 4.776239649786707675e-01 4.779728986532302826e-01 4.778455954016348484e-01 4.781406677804295735e-01 4.784315992607681145e-01 4.778754182802910644e-01 4.782692138621189581e-01 4.782740412222332704e-01 4.782235334474056465e-01 4.784708529147853051e-01 4.781649027970273358e-01 4.781126047781101840e-01 4.778003912201976844e-01 4.781399554662811302e-01 4.780221871902157194e-01 4.778791650808926206e-01 4.780666930147106641e-01 4.779460625104607896e-01 4.781786341244754213e-01 4.780986548868742525e-01 4.782129218621352096e-01 4.780751614046490072e-01 4.780255795459704693e-01 4.779046130275584892e-01 4.775504241744787937e-01 4.781974212258267576e-01 4.782929984646761556e-01 4.780279893866915542e-01 4.780626258644784521e-01 4.777218803548032300e-01 4.778339726980654345e-01 4.777609821559821723e-01 4.779720134885947491e-01 4.782956605710824705e-01 4.784337244931205491e-01 4.785964993438206472e-01 4.783156553237967734e-01 4.781891657928195594e-01 4.780635350072038325e-01 4.775485953536675043e-01 4.781390099552153550e-01 4.779168761644962959e-01 4.775471657761595212e-01 4.779580078078277117e-01 4.783739388870005271e-01 4.779274795639339435e-01 4.778869319809129768e-01 4.780777518163787931e-01 4.778832382082183750e-01 4.777836498752083827e-01 4.781668900642720432e-01 4.781803421909594509e-01 4.783171753364357515e-01 4.782540372668673267e-01 4.779135583190380898e-01 4.780918609071703185e-01 4.777324363937054952e-01 4.778509179716642352e-01 4.775924728944068165e-01 4.782220150594359565e-01 4.780366129413292642e-01 4.776937106690433144e-01 4.781616341713765816e-01 4.779542859107589470e-01 4.780353176143418148e-01 4.782107702091973334e-01 4.783687158969099906e-01 4.779682475348693838e-01 4.779414068656563375e-01 4.775835745494048656e-01 4.778444094432360845e-01 4.779366172764750176e-01 4.778356842499147383e-01 4.779951435185957331e-01 4.778260136111951994e-01 4.777652840072398877e-01 4.782361761302452163e-01 4.778632813153815828e-01 4.778482036183365200e-01 4.782050742739978877e-01 4.779335568218840979e-01 4.780794299230287647e-01 4.780250773447403123e-01 4.780311110810612774e-01 4.779142366574581358e-01 4.778209681243106854e-01 4.778983040141052130e-01 4.782406988687540328e-01 4.782122946388382423e-01 4.781720478549746356e-01 4.784115985627181988e-01 4.781299853854734661e-01 4.781422394254719044e-01 4.781163038267224885e-01 4.783394822746916963e-01 4.781419411509410522e-01 4.781526869908452881e-01 4.781287582337873654e-01 4.779161315938367793e-01 4.778171294740027331e-01 4.780805664488709250e-01 4.782465436646834989e-01 4.780288799826259427e-01 4.780151045325721770e-01 4.781011122472210717e-01 4.779312594789464352e-01 4.776388397390579077e-01 4.780954002202856823e-01 4.782786009458573906e-01 4.782364787274753781e-01 4.779867008923880944e-01 4.778404804196362266e-01 4.779600756495334668e-01 4.778907673552364455e-01 4.777057101411536499e-01 4.782033900512601687e-01 4.782925170000232873e-01 4.781774980825628241e-01 4.778322910832690229e-01 4.778806481502160253e-01 4.778400288098151316e-01 4.781243483074131828e-01 4.784573670914470944e-01 4.783822831137106157e-01 4.779278927258647780e-01 4.774091322245925251e-01 4.778541264106676567e-01 4.777772121857576937e-01 4.780425634303536175e-01 4.778897852125064682e-01 4.777889504348018512e-01 4.780525531564537300e-01 4.780628728181542941e-01 4.782557989515920371e-01 4.778502320604492426e-01 4.778911929003141212e-01
4.000000000000000000e+00 1.821075057084679205e+00 8.722081840117983445e-03 1.822000000000000064e+00 1.821791895702420838e+00 1.821441418625183273e+00 1.820715051949668428e+00 1.821652961992665354e+00 1.821239182027624137e+00 1.821570866535469291e+00 1.821604492296027056e+00 1.821020760827627205e+00 1.820615758283068208e+00 1.820489106593240258e+00 1.820301117985483996e+00 1.820643731067153714e+00 1.820517662753872612e+00 1.820034730199675987e+00 1.821983854606249009e+00 1.821607327929581466e+00 1.820381537147514717e+00 1.820814683406053680e+00 1.821699281080437549e+00 1.821353666085109069e+00 1.821226866546632017e+00 1.821994293938040688e+00 1.821314952728422920e+00 1.820100039120419622e+00 1.821050253138140729e+00 1.820688419951620007e+00 1.820592728089980294e+00 1.821826894545636621e+00 1.821009273031572562e+00 1.821626894564602583e+00 1.822108609356798858e+00 1.821876268587385939e+00 1.819918320236767029e+00 1.821536214289773747e+00 1.820436920561275373e+00 1.821423717063807457e+00 1.821093030715223993e+00 1.821009977256817569e+00 1.821898232551119046e+00 1.821156543957838547e+00 1.820711047049934361e+00 1.821152709325856822e+00 1.821557042325975262e+00 1.820998325991152189e+00 1.820941528544873567e+00 1.821589737728690928e+00 1.820959596783163548e+00 1.820802379950365646e+00 1.820568288468886964e+00 1.821705785558322743e+00 1.821438505214144410e+00 1.821661522023924284e+00 1.821160862709784611e+00 1.821370456471785193e+00 1.820697393820011944e+00 1.820665255950029371e+00 1.820609346149158592e+00 1.820625901830427606e+00 1.821295250811943101e+00 1.821564136247861176e+00 1.821851804721817514e+00 1.821727090122945647e+00 1.820202144497087282e+00 1.820334899295575903e+00 1.821161131175010439e+00 1.821001679684703722e+00 1.819990972528988449e+00 1.821958126142353640e+00 1.819835849610756284e+00 1.820248016146019499e+00 1.821529367548926137e+00 1.821599550471981521e+00 1.820847125681968715e+00 1.821099007477170240e+00 1.820502417620673885e+00 1.820818921990935202e+00 1.821086756101291337e+00 1.821488553847003589e+00 1.821025795354852539e+00 1.820735801624196792e+00 1.821604650754927501e+00 1.820312129562862591e+00 1.821011227925351417e+00 1.820116765059731190e+00 1.820918980732011416e+00 1.821720012958959245e+00 1.820651227633265812e+00 1.820795304322892383e+00 1.821387305214801078e+00 1.820566661487736715e+00 1.821896697376957253e+00 1.821411453602047370e+00 1.820535596988246407e+00 1.821643327729284501e+00 1.821525129930314568e+00 1.821025040228151592e+00 1.821043420553273062e+00 1.820851110615644863e+00 1.821792787248764034e+00 1.820627872574455575e+00 1.820428746226277372e+00 1.821239148123849683e+00 1.820532884829773268e+00 1.820084478422997032e+00 1.821539411668172237e+00 1.820253935746387830e+00 1.819794631315980293e+00 1.820680155034613668e+00 1.820375631577638487e+00 1.820810706671728285e+00 1.820286179406822580e+00 1.820097394923988032e+00 1.821636412000442684e+00 1.822284463795500686e+00 1.820751687512562222e+00 1.821115600848766780e+00 1.820106570468156049e+00 1.822238711977154146e+00 1.820939887042785532e+00 1.821367151162918807e+00 1.821088931983681158e+00 1.821893323381212459e+00 1.821125736902447834e+00 1.821651419618157686e+00 1.820268694157041844e+00 1.821201867550858111e+00 1.820720254692325568e+00 1.820241911533704959e+00 1.822277485198932068e+00 1.820529284766719380e+00 1.821683155589356229e+00 1.822272030074717497e+00 1.821839937711008384e+00 1.821423784046738437e+00 1.821723572731145602e+00 1.821569016881220637e+00 1.820296042480772813e+00 1.821554937270656538e+00 1.821175334879978402e+00 1.820635439156851776e+00 1.820686658551351922e+00 1.821207655046680030e+00 1.820967254865478058e+00 1.821670508906459096e+00 1.820349763286715383e+00 1.820980123659689198e+00 1.821431741724628184e+00 1.820446622622613475e+00 1.820845329305802007e+00 1.820139404923052817e+00 1.820832512215474708e+00 1.820615427179718360e+00 1.821825750898332208e+00 1.822134620697344554e+00 1.820802514185646759e+00 1.821403897348067291e+00 1.819879101492598794e+00 1.821776659642732055e+00 1.820412704663212811e+00 1.821406933066058942e+00 1.821758403091501055e+00 1.821373675111599644e+00 1.821981488474647248e+00 1.821336813388279463e+00 1.821105329416717655e+00 1.820899248027293416e+00 1.821478867273274460e+00 1.821421395382027519e+00 1.820780826733632285e+00 1.821746737509357450e+00 1.820302431924502695e+00 1.822095587703173258e+00 1.820118456417429975e+00 1.821673094539516313e+00 1.821317581427811971e+00 1.821612363836191850e+00 1.820916468496092788e+00 1.820808318499342215e+00 1.820655077606807115e+00 1.821567174443822434e+00 1.820494923434229362e+00 1.820541581076064563e+00 1.820442830469947593e+00 1.821292589414098106e+00 1.820540445386428230e+00 1.820581360509076152e+00 1.820490251015675742e+00 1.821680317497846424e+00 1.821302949585006381e+00 1.820306759282311893e+00 1.820938722740008453e+00 1.820109961440123936e+00 1.822057574180641293e+00 1.820384988054272846e+00 1.821737980691716441e+00 1.820623359842183042e+00 1.820363239332468464e+00 1.821060781844059617e+00 1.820900400175743172e+00 1.821949307585629896e+00 1.821391956745977536e+00 1.821847819735251006e+00 1.821583636236905335e+00 1.820878250789083497e+00 1.820774414002706010e+00 1.821113767656992621e+00 1.820675829519381450e+00 1.821360741325765975e+00 1.821545064706471928e+00 1.821390235337831065e+00 1.820473460082619122e+00 1.821741439553208552e+00 1.821455554951785016e+00 1.821725147586873872e+00 1.821745307903047451e+00 1.821443971381248028e+00 1.821150796239436209e+00 1.820162061596743985e+00 1.821579892588256699e+00 1.821195539105039840e+00 1.820200097792355143e+00 1.820239390228118870e+00 1.820973962535350488e+00 1.821429127226231293e+00 1.821585258293665799e+00
5.000000000000000000e+00 5.058765376123603552e+00 1.606770346872319136e-02 5.057999999999999829e+00 5.059422059415065398e+00 5.058448725709894234e+00 5.057986430031606417e+00 5.059036217169532001e+00 5.061443836646001948e+00 5.058808224297187017e+00 5.058455551683582740e+00 5.057280488357735138e+00 5.057710590043512866e+00 5.057358748865616427e+00 5.060837174179422249e+00 5.059789006449265436e+00 5.059438647367630715e+00 5.059656505186557851e+00 5.059955161529978263e+00 5.058909483712230148e+00 5.059060337852818279e+00 5.058706875631966859e+00 5.059164853055441391e+00 5.060204312690901318e+00 5.059252284488997553e+00 5.059984153307620858e+00 5.058097508674983978e+00 5.057777993325012211e+00 5.056916472175913668e+00 5.057912445755709641e+00 5.059647263010505824e+00 5.057519447097601706e+00 5.060804891754776769e+00 5.058963823543846772e+00 5.058748902293218386e+00 5.058103850946558566e+00 5.059772912306615744e+00 5.058711989191139402e+00 5.056708165096996943e+00 5.058399565501024320e+00 5.059480198397619866e+00 5.059249453827667331e+00 5.057717486412491859e+00 5.059656655057398034e+00 5.058418946304483299e+00 5.059202251841501408e+00 5.060325497802269368e+00 5.056772274483122942e+00 5.057060447001680004e+00 5.058860632770129762e+00 5.057110625533923098e+00 5.060229910873048631e+00 5.059579342349247000e+00 5.059182917082938324e+00 5.058440634678139425e+00 5.059059989813971647e+00 5.059668653697546148e+00 5.058251651892004652e+00 5.058381014004885046e+00 5.058291726464900329e+00 5.057692776994585415e+00 5.059739456845221639e+00 5.058042793144035265e+00 5.058789533158165597e+00 5.059588436823489133e+00 5.059242083436940263e+00 5.060562006129265100e+00 5.058930725624738223e+00 5.057670320387240182e+00 5.057672428334818449e+00 5.061974891726230830e+00 5.059883709264714646e+00 5.060143571725240541e+00 5.058689266849762056e+00 5.058692974641913587e+00 5.058887884406271240e+00 5.056798274396685500e+00 5.059053066925589093e+00 5.057395727192377066e+00 5.058274983289103410e+00 5.059462765853313115e+00 5.058579628137122697e+00 5.059293400705962895e+00 5.056489108791677012e+00 5.057349754069600856e+00 5.058867445785142358e+00 5.058809213401415761e+00 5.060324632528703681e+00 5.056551938801970181e+00 5.058776343678340837e+00 5.059809840312669671e+00 5.060210246849005777e+00 5.058298443681061407e+00 5.058017804857805721e+00 5.058413184972957666e+00 5.058365507808100681e+00 5.057487900204710840e+00 5.058563394694397530e+00 5.056681727325758047e+00 5.056846457864328848e+00 5.058898645229312763e+00 5.058364403995989633e+00 5.058978432283106841e+00 5.057744243811234774e+00 5.059191537589291521e+00 5.057886986556904496e+00 5.057480365768864949e+00 5.058234775749186340e+00 5.060720363262507071e+00 5.058705718134741680e+00 5.059429029922450916e+00 5.059890233057733333e+00 5.057043512778318650e+00 5.057251715508563450e+00 5.058795327164674838e+00 5.058270672266774959e+00 5.058990255061602603e+00 5.057239010818434188e+00 5.060089030460735771e+00 5.059099163676574307e+00 5.058296172213149866e+00 5.058662681218685897e+00 5.057055888274694766e+00 5.058242472494165476e+00 5.057469811107258906e+00 5.057703858211950454e+00 5.059127321856470516e+00 5.058585865247345659e+00 5.060306919840313000e+00 5.059338814470955015e+00 5.060001674853726428e+00 5.060672567231069507e+00 5.059217754960193325e+00 5.057620408336856777e+00 5.059120069858475510e+00 5.057204504516567667e+00 5.059555480141439965e+00 5.057953738775943009e+00 5.059232315049174922e+00 5.058803087496693607e+00 5.058822737839422601e+00 5.058763986053524953e+00 5.057709766461410794e+00 5.057765263943429623e+00 5.057907552547052710e+00 5.061356219355004349e+00 5.058687055274647015e+00 5.059084947896093531e+00 5.058972034452860811e+00 5.059166512604471144e+00 5.058421851331843300e+00 5.059682599868779107e+00 5.058348343390184354e+00 5.058387423132308491e+00 5.056757690345939693e+00 5.057709670231129273e+00 5.057516272252340350e+00 5.058373716513265173e+00 5.058229402045401280e+00 5.059900057687817920e+00 5.059663875578324088e+00 5.059379746318453996e+00 5.057590071901856277e+00 5.058402937245332964e+00 5.059329044809547149e+00 5.060259903081733235e+00 5.059948590385134892e+00 5.058158219398844579e+00 5.057515349532706317e+00 5.058498130783513957e+00 5.056553298939748586e+00 5.058393117800800809e+00 5.058169153827057229e+00 5.057296925533660392e+00 5.060840827218672899e+00 5.058265358179281357e+00 5.060329334874833052e+00 5.059092128633343677e+00 5.058104809014669634e+00 5.058923469270653506e+00 5.060546976732547719e+00 5.058245526556414795e+00 5.059820539854522181e+00 5.058351922878614459e+00 5.059375452049633459e+00 5.059505119276227703e+00 5.059230679404942421e+00 5.059590841800923222e+00 5.061502556953476173e+00 5.059615671129070513e+00 5.059362466833674965e+00 5.057112538915536248e+00 5.058064173929819773e+00 5.060852858224449413e+00 5.058607792403011949e+00 5.060305716970893819e+00 5.060159893169069001e+00 5.059069928339841482e+00 5.057272615992700615e+00 5.060173816817131964e+00 5.059009486012980616e+00 5.058946875276684629e+00 5.058501331477229357e+00 5.059859218651639345e+00 5.058311361764349812e+00 5.059577369846525841e+00 5.058843687902712105e+00 5.058883482708200319e+00 5.060152190124004079e+00 5.059094071029535122e+00 5.057877469258238001e+00 5.058224671299877073e+00 5.058736568284713186e+00 5.058306581124821122e+00 5.059315802801036988e+00 5.058835843682372158e+00 5.058041964135341573e+00 5.057236990392100395e+00 5.057740262730828995e+00 5.058455815142214540e+00 5.059640686368839901e+00 5.056450210677548185e+00 5.058833291161678680e+00 5.057765876987651232e+00 5.060556315840284647e+00 5.060665557447407537e+00 5.058705689328973243e+00 5.058414590430697189e+00 5.058848192626755669e+00
6.000000000000000000e+00 2.818980945644718791e-03 2.093850973195335779e-05 2.818980945644718791e-03 2.818537851700286551e-03 2.818212223221175112e-03 2.820206361262676473e-03 2.818319868999393830e-03 2.820946425987929784e-03 2.818373691888502973e-03 2.821689181857638812e-03 2.817359130428792081e-03 2.819996451995150036e-03 2.819781160438712599e-03 2.819598162615740734e-03 2.820206361262676473e-03 2.819695043816137451e-03 2.822224719604276687e-03 2.818866171323853708e-03 2.818389838755235976e-03 2.819571251171186163e-03 2.816985061349482067e-03 2.818400603333057544e-03 2.818058827987213535e-03 2.817878521308696954e-03 2.818521704833553982e-03 2.817972711364638387e-03 2.819057242580191858e-03 2.820569665764164485e-03 2.819700426105048452e-03 2.819988378561783318e-03 2.818780054701278560e-03 2.820631562086640346e-03 2.818279501832561540e-03 2.815994720189870029e-03 2.815714841166501448e-03 2.818922685357418568e-03 2.818249899243551685e-03 2.816605609981261051e-03 2.818190694065531108e-03 2.817415644462356508e-03 2.817493687651565371e-03 2.818917303068507567e-03 2.817577113129684802e-03 2.817162676883542931e-03 2.820566974619709202e-03 2.821231687300209366e-03 2.820677311542383204e-03 2.817345674706514362e-03 2.818637424045138985e-03 2.817165368027998214e-03 2.820122935784557042e-03 2.820077186328813750e-03 2.818400603333057544e-03 2.818163782620976537e-03 2.818580910011574125e-03 2.817612098007605658e-03 2.817924270764440246e-03 2.817073869116512499e-03 2.817063104538690497e-03 2.820039510306437177e-03 2.820104097773368755e-03 2.817725126074735378e-03 2.818279501832561540e-03 2.818543233989197552e-03 2.818502866822365695e-03 2.819525501715443305e-03 2.819417855937224587e-03 2.817754728663745666e-03 2.814301990327380820e-03 2.819092227458112714e-03 2.818672408923059841e-03 2.818998037402171714e-03 2.819366724192570728e-03 2.817986167086915673e-03 2.818360236166225687e-03 2.817165368027998214e-03 2.820653091242283916e-03 2.819711190682870454e-03 2.820828015631889497e-03 2.817421026751267508e-03 2.818034607687114248e-03 2.817388733017801936e-03 2.816901635871362636e-03 2.815090495652832706e-03 2.819331739314649438e-03 2.820580430341986487e-03 2.819068007158013860e-03 2.820744590153769632e-03 2.821664961557539524e-03 2.820044892595348178e-03 2.820039510306437177e-03 2.818193385209986825e-03 2.816689035459380482e-03 2.818885009335041995e-03 2.818198767498897826e-03 2.819651985504849877e-03 2.821726857880015385e-03 2.817937726486717531e-03 2.821080983210703073e-03 2.820410888241291908e-03 2.820359756496638049e-03 2.821899091125165248e-03 2.819886115072475601e-03 2.819584706893463449e-03 2.817711670352458092e-03 2.819821527605544456e-03 2.818901156201774564e-03 2.818193385209986825e-03 2.819355959614748726e-03 2.818707393800981131e-03 2.820136391506834327e-03 2.819678896949404882e-03 2.820375903363370618e-03 2.819307519014550151e-03 2.819245622692074724e-03 2.818233752376818682e-03 2.816360715835813325e-03 2.820246728429508330e-03 2.820572356908619769e-03 2.819388253348214298e-03 2.819307519014550151e-03 2.817418335606812225e-03 2.818072283709490821e-03 2.817579804274140086e-03 2.818796201568011563e-03 2.820494313719411339e-03 2.821479272590112376e-03 2.822426555438436839e-03 2.820989484299217358e-03 2.820074495184358467e-03 2.819468987681878445e-03 2.816339186680169755e-03 2.819668132371582880e-03 2.818368309599591972e-03 2.816277290357693894e-03 2.818890391623952996e-03 2.821261289889219655e-03 2.818529778266920267e-03 2.818559380855930122e-03 2.819447458526234442e-03 2.818236443521274399e-03 2.817647082885526948e-03 2.819829601038910741e-03 2.819880732783564600e-03 2.820709605275848776e-03 2.820760737020502635e-03 2.818371000744047689e-03 2.819654676649305594e-03 2.817189588328097502e-03 2.818131488887510964e-03 2.816683653170469481e-03 2.820324771618716760e-03 2.819385562203759014e-03 2.817044266527502210e-03 2.819713881827325738e-03 2.819016875413360001e-03 2.819334430459104722e-03 2.820042201450892894e-03 2.821363553378527372e-03 2.818500175677909978e-03 2.818621277178405982e-03 2.816196556024030181e-03 2.818166473765432254e-03 2.818796201568011563e-03 2.818104577442956393e-03 2.818785436990189561e-03 2.818023843109292246e-03 2.817469467351466084e-03 2.820553518897431482e-03 2.818050754553846817e-03 2.817604024574239373e-03 2.820795721898423924e-03 2.818599748022762412e-03 2.819530884004353873e-03 2.819272534136629295e-03 2.819011493124449000e-03 2.818352162732859403e-03 2.817900050464340958e-03 2.818362927310681405e-03 2.820227890418320043e-03 2.820521225163965910e-03 2.819797307305445169e-03 2.821543860057043520e-03 2.819869968205743031e-03 2.819896879650297603e-03 2.819606236049107019e-03 2.820819942198522778e-03 2.819493207981977299e-03 2.819910335372574888e-03 2.819536266293264874e-03 2.818707393800981131e-03 2.818284884121472541e-03 2.819143359202766572e-03 2.820650400097828633e-03 2.818954979090884140e-03 2.819027639991181569e-03 2.819676205804949164e-03 2.818427514777612549e-03 2.816691726603835766e-03 2.819452840815145443e-03 2.820661164675650201e-03 2.820472784563767769e-03 2.819092227458112714e-03 2.818010387387014960e-03 2.818766598979001274e-03 2.818295648699294543e-03 2.817205735194830071e-03 2.820378594507826336e-03 2.820943734843474500e-03 2.820069112895447466e-03 2.818144944609788250e-03 2.818029225398203247e-03 2.818026534253747963e-03 2.819689661527226450e-03 2.821872179680610677e-03 2.821403920545359229e-03 2.818664335489693556e-03 2.815117407097387711e-03 2.818072283709490821e-03 2.817808551552854809e-03 2.819331739314649438e-03 2.818123415454144680e-03 2.817846227575231382e-03 2.819132594624945004e-03 2.819162197213954859e-03 2.820303242463073189e-03 2.818169164909887538e-03 2.818446352788800836e-03
