# vvf statistics with RF=500
# gcat file: /disk11/salam/Abacus/AbacusCosmos_720box_products/GCAT_v9July2021/AbacusCosmos_720box_planck_rockstar_halos_z0.100_Mr21_hod-default_real-0.gcat.rsd_zz.1pz0.100by100
# stats order in row: stdvvf,p2.5,p16,p50,p84,p97.5,rho
# columns: numbers, mean, sigma,All, jnrealizations
0.000000000000000000e+00 1.535266358867488634e+00 5.636578907817995851e-03 1.535266642182532504e+00 1.535573688967445616e+00 1.535219898210023803e+00 1.534837968250010842e+00 1.535219834274720307e+00 1.535612028922651584e+00 1.535248974549527246e+00 1.535608840565348965e+00 1.534206844896589539e+00 1.533869871201848811e+00 1.534691853866010813e+00 1.535957941377842584e+00 1.535530491310574952e+00 1.535475143985238988e+00 1.535074579775277170e+00 1.535655299060257439e+00 1.535349295263537694e+00 1.535477023238769556e+00 1.535308544022084609e+00 1.535712652108566445e+00 1.535614275494375125e+00 1.535277528414533910e+00 1.536032119917717154e+00 1.535151324600860567e+00 1.535124104817083834e+00 1.535385864323022265e+00 1.535545705301159192e+00 1.535644729852529977e+00 1.535073243783725783e+00 1.535827669457680011e+00 1.534948637960310558e+00 1.535142317913699150e+00 1.534594424075829799e+00 1.535422722932048289e+00 1.535361347336860804e+00 1.534774296785104353e+00 1.534931433122838307e+00 1.535425968412469810e+00 1.535119042762523200e+00 1.535110739521736267e+00 1.535631036143135564e+00 1.535157566183595224e+00 1.535168369614199113e+00 1.535658795508952457e+00 1.535076823292478077e+00 1.534735627725634766e+00 1.535494365183653453e+00 1.534941079756315885e+00 1.535668703668650714e+00 1.535378528203406701e+00 1.535319406746377346e+00 1.534601910266314873e+00 1.535132242653457268e+00 1.534938327508213352e+00 1.535368035191161828e+00 1.534402731147638477e+00 1.535106636052816942e+00 1.535015054328752848e+00 1.535614847937525562e+00 1.535317894111711823e+00 1.534592271985540712e+00 1.535471426702928799e+00 1.535359228542630072e+00 1.535698660141599392e+00 1.535323117594186826e+00 1.535185613135346294e+00 1.534385318516216179e+00 1.536153835648983446e+00 1.535620900192717020e+00 1.535733100837842091e+00 1.535081426403672067e+00 1.535453038827936600e+00 1.535778793071983284e+00 1.534890949935408644e+00 1.535357535549926045e+00 1.535141773164669488e+00 1.535502213636297686e+00 1.535383978266496863e+00 1.534882364410692812e+00 1.535301334066214496e+00 1.535213538792971510e+00 1.534933985287370684e+00 1.535324253837067721e+00 1.533879863593597070e+00 1.535584862071137202e+00 1.534876484647759831e+00 1.535540193994586078e+00 1.535329067391658864e+00 1.535364377901311084e+00 1.535201945231088994e+00 1.534651581494458350e+00 1.535235522878454884e+00 1.535208499433531770e+00 1.535505430910335978e+00 1.535489893522518301e+00 1.534904462877043185e+00 1.535080477271837385e+00 1.535741538305996023e+00 1.535144818751576601e+00 1.535134261522162147e+00 1.535244781235847400e+00 1.535365746405557008e+00 1.534802478607461218e+00 1.534885173637508649e+00 1.534981615697271096e+00 1.535506066661606717e+00 1.535599824069070252e+00 1.535300703496847108e+00 1.535248129880287804e+00 1.534749712983018766e+00 1.535287192073820250e+00 1.535574836235517271e+00 1.535424679235269707e+00 1.535498320430990660e+00 1.534517538343736609e+00 1.535772746793373278e+00 1.535629889722883501e+00 1.535638235374134242e+00 1.535324103433783005e+00 1.534667277591909462e+00 1.535500984255947055e+00 1.535086726658665857e+00 1.535013195899215255e+00 1.535316468557697656e+00 1.534832259405030097e+00 1.534922870730227595e+00 1.535575530633422892e+00 1.535629851245489341e+00 1.535757253776197651e+00 1.535118171071344628e+00 1.535543762402149737e+00 1.535483037385972027e+00 1.534995815239505346e+00 1.535088629564348883e+00 1.535156126726813897e+00 1.535442193537059463e+00 1.535438388206242788e+00 1.535794710300580901e+00 1.534878074170686224e+00 1.534260163765618135e+00 1.534078775781781090e+00 1.535284594446580275e+00 1.535627166067205840e+00 1.535385455824939127e+00 1.535605639708601311e+00 1.535468983074176341e+00 1.535081628249105545e+00 1.535170936313038359e+00 1.535478487682642390e+00 1.534954996187317011e+00 1.535105184700194414e+00 1.534852529461358861e+00 1.535061101896920244e+00 1.534517926492400264e+00 1.535626817105182340e+00 1.535422766374316295e+00 1.535886499813440054e+00 1.535488321194290906e+00 1.535643302073053773e+00 1.534616934087213780e+00 1.535261327701795242e+00 1.535905164718776028e+00 1.535502635241175362e+00 1.535480668701015183e+00 1.535310757971667828e+00 1.535257698842304341e+00 1.534965315747326864e+00 1.534808609770744292e+00 1.535112396981919369e+00 1.535519995124894121e+00 1.535336623760595209e+00 1.535422677293524441e+00 1.535272269329710282e+00 1.535731827171226138e+00 1.534986155629076254e+00 1.535308158551785152e+00 1.535532286242750732e+00 1.535727466220728088e+00 1.535282204974651288e+00 1.535117363300737559e+00 1.535452656857197784e+00 1.535779837626311428e+00 1.535520068025483464e+00 1.535481526488340354e+00 1.536024307124144839e+00 1.535841195281901550e+00 1.535644528601039616e+00 1.535415805165727177e+00 1.535415541528466932e+00 1.534591061506280996e+00 1.535710393118399741e+00 1.535349920103325827e+00 1.535521395510556664e+00 1.535589490944371027e+00 1.535360011480450204e+00 1.534956866476819837e+00 1.535188912934962735e+00 1.535602383985098518e+00 1.535340136193625193e+00 1.535500155433923819e+00 1.535278563600978252e+00 1.535454040289537359e+00 1.535224821460263955e+00 1.535535841408728119e+00 1.534748715540093844e+00 1.535037680115941328e+00 1.535554626570157177e+00 1.535105950384771933e+00 1.535045377646964582e+00 1.535241923108350726e+00 1.535162690856394008e+00 1.535328998046455728e+00 1.535123321392472651e+00 1.535128843079545780e+00 1.534877623006186464e+00 1.534699915481138044e+00 1.535218590873212996e+00 1.535403064840244136e+00 1.535162597916666094e+00 1.535390392436592588e+00 1.535165672372885481e+00 1.536010569545833926e+00 1.535508893155709487e+00 1.535701239035125454e+00 1.534711536019021549e+00 1.535261955158852665e+00
1.000000000000000000e+00 1.799999983769544690e-02 1.410409836674120828e-04 1.799999999999999864e-02 1.799587120348702593e-02 1.799685158064146667e-02 1.800893569437380173e-02 1.799776593810254940e-02 1.801127000275957318e-02 1.799634730432082136e-02 1.801764037625570511e-02 1.799093282876663979e-02 1.800452115354286842e-02 1.800516490022190108e-02 1.800512135631903224e-02 1.800558964958502706e-02 1.800511127060965347e-02 1.802276868554848407e-02 1.799837587958030144e-02 1.799441783762216127e-02 1.800493579563848881e-02 1.798956305582814774e-02 1.799806741123630149e-02 1.799309607138783670e-02 1.799086710514870985e-02 1.800133313826280876e-02 1.799260761121179025e-02 1.800389116556998931e-02 1.801124804778242439e-02 1.800584170221816716e-02 1.800447190293063410e-02 1.800132502589811903e-02 1.800863583775516932e-02 1.799293399584456915e-02 1.798087138322936387e-02 1.797897636290739232e-02 1.800163601954560266e-02 1.799777929347166905e-02 1.798271883086548575e-02 1.799402631222536686e-02 1.799025399880750317e-02 1.798874642509933411e-02 1.799935327591208403e-02 1.799025220244604428e-02 1.798639347840064878e-02 1.801087388299249525e-02 1.801467350265737247e-02 1.800958871070678161e-02 1.798743956550146947e-02 1.799694776329482937e-02 1.798568803744019298e-02 1.800934731276477088e-02 1.800490620243021950e-02 1.799584769701485440e-02 1.799470649648644144e-02 1.799957795681374553e-02 1.798908967519459792e-02 1.799191013060926631e-02 1.798731339095958892e-02 1.798560781724851954e-02 1.800585681798427123e-02 1.800852097380052294e-02 1.799348954367528675e-02 1.799576888373843539e-02 1.799929257149001857e-02 1.799431374940942824e-02 1.800311901350927155e-02 1.800306207751399545e-02 1.799195061185593705e-02 1.796337259587657206e-02 1.799828435315092845e-02 1.799869798626909517e-02 1.799873047428512257e-02 1.800258620002269383e-02 1.799631124039544755e-02 1.799361309501791920e-02 1.798472055452815521e-02 1.800817007063370764e-02 1.800688626314496735e-02 1.800754059157921166e-02 1.798885006614632520e-02 1.799269745648944541e-02 1.799158083529071167e-02 1.798831445573457685e-02 1.797759978823546684e-02 1.800369440050667708e-02 1.801122874480532224e-02 1.800049292744601917e-02 1.801278362963345051e-02 1.801846312560858795e-02 1.800609268898100551e-02 1.800895350861868305e-02 1.799555284343197850e-02 1.798302402706484365e-02 1.799876993806442255e-02 1.799312012457852245e-02 1.800705906320288971e-02 1.801713995652478098e-02 1.799400219939610926e-02 1.801014915237819994e-02 1.801176247030917416e-02 1.801084007946675627e-02 1.801743060712718975e-02 1.800917771781919419e-02 1.800463165961261811e-02 1.798984484821954111e-02 1.800523066573746570e-02 1.800129853257725204e-02 1.799607580176913399e-02 1.800286053873441025e-02 1.799732541808958183e-02 1.800971847203689316e-02 1.800581782393752966e-02 1.800903538327497042e-02 1.800482789460566141e-02 1.800363689328761743e-02 1.799562147814915899e-02 1.798277862617046058e-02 1.801009094389433712e-02 1.801334022194584980e-02 1.799845687130777888e-02 1.800348455009128171e-02 1.799156248399625194e-02 1.799436151435229031e-02 1.799161841131029574e-02 1.800172441958085290e-02 1.801082138407596525e-02 1.801847371161363967e-02 1.802143116051379418e-02 1.801365563960447003e-02 1.800432947746416143e-02 1.800392888274078215e-02 1.797836278292134701e-02 1.800525633589683538e-02 1.799558068452485754e-02 1.798150595101221522e-02 1.799712825736905775e-02 1.801418845491829096e-02 1.799665462314991790e-02 1.799703375163836522e-02 1.800321346671986816e-02 1.799779834432533795e-02 1.798952339261003161e-02 1.800856283835470389e-02 1.800705372156661752e-02 1.801107416071492592e-02 1.801194542422332456e-02 1.799482448297450021e-02 1.800273283767843749e-02 1.799026534123377222e-02 1.799602957172075079e-02 1.798490214305491566e-02 1.801065759684212023e-02 1.800252291279527336e-02 1.798498818756475576e-02 1.800482168498119748e-02 1.799800108302457638e-02 1.800174888924926941e-02 1.800647702881039841e-02 1.801507358094043415e-02 1.799635850122128025e-02 1.799904579829595189e-02 1.798310324949815853e-02 1.799064571626734013e-02 1.799955936420287797e-02 1.799041728222398884e-02 1.799680188653626084e-02 1.799404254072150058e-02 1.798983703462990816e-02 1.801078581160518027e-02 1.799268945855919677e-02 1.799455215280203191e-02 1.800710226543056000e-02 1.799688021405326452e-02 1.800451984104410250e-02 1.800016164002940164e-02 1.800174808766173348e-02 1.799672737160014011e-02 1.799365075717832343e-02 1.799651581515983312e-02 1.800948633062290569e-02 1.800891815767174595e-02 1.800619148510450643e-02 1.801788611163289769e-02 1.800777427804060166e-02 1.800589842845371630e-02 1.800592668328671736e-02 1.801389812283512790e-02 1.800313776619334033e-02 1.800330120582286850e-02 1.800218716172516734e-02 1.799626902602226991e-02 1.799367555447369676e-02 1.800405093556649988e-02 1.801047498250648790e-02 1.800112770521118677e-02 1.800263973296725023e-02 1.800519263048746058e-02 1.799931657146145239e-02 1.798563682142641229e-02 1.800311731942428120e-02 1.801039858249742914e-02 1.800852607074074699e-02 1.800073659931057321e-02 1.799415983666638810e-02 1.799975622510327500e-02 1.799551240927180565e-02 1.798696614532321880e-02 1.800894154951422979e-02 1.801364890711272190e-02 1.800603048806362697e-02 1.799485422120621764e-02 1.799348742391628994e-02 1.799326294604843002e-02 1.800423219140765210e-02 1.801750723163794699e-02 1.801616948783124617e-02 1.799665442167741949e-02 1.797655669504483883e-02 1.799467081420598469e-02 1.798984255301071256e-02 1.800051352545960562e-02 1.799379200821753580e-02 1.799078006289792087e-02 1.800102553100813366e-02 1.800088495686138698e-02 1.801032483383833982e-02 1.799558392743526303e-02 1.799688406878139843e-02
2.000000000000000000e+00 9.000886998975912712e-02 1.928189383559626409e-03 8.999999999999999667e-02 8.997935601743513312e-02 8.998425790320732642e-02 9.004467847186900520e-02 8.998882969051273661e-02 9.005635001379787286e-02 8.998173652160411373e-02 9.008820188127852902e-02 8.995466414383321285e-02 9.002260576771434208e-02 9.002582450110950540e-02 9.002560678159517160e-02 9.002794824792512141e-02 9.002555635304827775e-02 9.011384342774240996e-02 8.999187939790150026e-02 8.997208918811079592e-02 9.002467897819244058e-02 8.994781527914073871e-02 8.999033705618150747e-02 8.996548035693918699e-02 8.995433552574354230e-02 9.000666569131404726e-02 8.996303805605894433e-02 9.001945582784995348e-02 9.005624023891212193e-02 9.002920851109083578e-02 9.002235951465316355e-02 9.000662512949059169e-02 9.004317918877585702e-02 8.996466997922285269e-02 8.990435691614681590e-02 8.989488181453696158e-02 9.000818009772801331e-02 8.998889646735834524e-02 8.991359415432742530e-02 8.997013156112684817e-02 8.995126999403751933e-02 8.994373212549668095e-02 8.999676637956041669e-02 8.995126101223022141e-02 8.993196739200323697e-02 9.005436941496247627e-02 9.007336751328687274e-02 9.004794355353390456e-02 8.993719782750735081e-02 8.998473881647414685e-02 8.992844018720096144e-02 9.004673656382385094e-02 9.002453101215109055e-02 8.997923848507427547e-02 8.997353248243220025e-02 8.999788978406872419e-02 8.994544837597298614e-02 8.995955065304633846e-02 8.993656695479793073e-02 8.992803908624259768e-02 9.002928408992136311e-02 9.004260486900261817e-02 8.996744771837643373e-02 8.997884441869218042e-02 8.999646285745009633e-02 8.997156874704713425e-02 9.001559506754634732e-02 9.001531038756997727e-02 8.995975305927968180e-02 9.181279326781359440e-02 8.999142176575464225e-02 8.999348993134546892e-02 8.999365237142561980e-02 9.001293100011345527e-02 8.998155620197723081e-02 8.996806547508960639e-02 8.992360277264077606e-02 9.004085035316854169e-02 9.003443131572483327e-02 9.003770295789605138e-02 8.994425033073162601e-02 8.996348728244722703e-02 8.995790417645355141e-02 8.994157227867288773e-02 8.988799894117734113e-02 9.001847200253339232e-02 9.005614372402660772e-02 9.000246463723010626e-02 9.006391814816724906e-02 9.009231562804294324e-02 9.003046344490502062e-02 9.004476754309341524e-02 8.997776421715988904e-02 8.991512013532422520e-02 8.999384969032210579e-02 8.996560062289261916e-02 9.003529531601445202e-02 9.008569978262391531e-02 8.997001099698054283e-02 9.005074576189101010e-02 9.005881235154586384e-02 9.005420039733377791e-02 9.008715303563595567e-02 9.004588858909597093e-02 9.002315829806308012e-02 8.994922424109769166e-02 9.002615332868732501e-02 9.000649266288625328e-02 8.998037900884565954e-02 9.001430269367205472e-02 8.998662709044791264e-02 9.004859236018447621e-02 9.002908911968765526e-02 9.004517691637485555e-02 9.002413947302831398e-02 9.001818446643809757e-02 8.997810739074579844e-02 8.991389313085229595e-02 9.005045471947169256e-02 9.006670110972925247e-02 8.999228435653888747e-02 9.001742275045640507e-02 8.995781241998127009e-02 8.997180757176145849e-02 8.995809205655147522e-02 9.000862209790426449e-02 9.005410692037982279e-02 9.009236855806819488e-02 9.010715580256897783e-02 9.006827819802236401e-02 9.002164738732081062e-02 9.001964441370391423e-02 8.989181391460673853e-02 9.002628167948417692e-02 8.997790342262428076e-02 8.990752975506108302e-02 8.998564128684528873e-02 9.007094227459144786e-02 8.998327311574957910e-02 8.998516875819181915e-02 9.001606733359934776e-02 8.998899172162669324e-02 8.994761696305016152e-02 9.004281419177352641e-02 9.003526860783307717e-02 9.005537080357463309e-02 9.005972712111662282e-02 8.997412241487251494e-02 9.001366418839219785e-02 8.995132670616885762e-02 8.998014785860375397e-02 8.992451071527457485e-02 9.005328798421061154e-02 9.001261456397637029e-02 8.992494093782378572e-02 9.002410842490599086e-02 8.999000541512287843e-02 9.000874444624634707e-02 9.003238514405198512e-02 9.007536790470217769e-02 8.998179250610639779e-02 8.999522899147975596e-02 8.991551624749079263e-02 8.995322858133669719e-02 8.999779682101438638e-02 8.995208641111994419e-02 8.998400943268131114e-02 8.997021270360749945e-02 8.994918517314953732e-02 9.005392905802590831e-02 8.996344729279598385e-02 8.997276076401015954e-02 9.003551132715278960e-02 8.998440107026631218e-02 9.002259920522051595e-02 9.000080820014699778e-02 9.000874043830865701e-02 8.998363685800070400e-02 8.996825378589162758e-02 8.998257907579916559e-02 9.004743165311451802e-02 9.004459078835873320e-02 9.003095742552252867e-02 9.008943055816448497e-02 9.003887139020300134e-02 9.002949214226858843e-02 9.002963341643357986e-02 9.006949061417562907e-02 9.001568883096669471e-02 9.001650602911433208e-02 9.001093580862584709e-02 8.998134513011135649e-02 8.996837777236847689e-02 9.002025467783249246e-02 9.005237491253242910e-02 9.000563852605594772e-02 9.001319866483625809e-02 9.002596315243731329e-02 8.999658285730727236e-02 8.992818410713206145e-02 9.001558659712140253e-02 9.005199291248713878e-02 9.004263035370373147e-02 9.000368299655286952e-02 8.997079918333193704e-02 8.999878112551637499e-02 8.997756204635902477e-02 8.993483072661609401e-02 9.004470774757114548e-02 9.006824453556361298e-02 9.003015244031813136e-02 8.997427110603109512e-02 8.996743711958143930e-02 8.996631473024215009e-02 9.002116095703825704e-02 9.008753615818972105e-02 9.008084743915623083e-02 8.998327210838709400e-02 8.988278347522418721e-02 8.997335407102992344e-02 8.994921276505356278e-02 9.000256762729802462e-02 8.996896004108767553e-02 8.995390031448959045e-02 9.000512765504066481e-02 9.000442478430692450e-02 9.005162416919169910e-02 8.997791963717631514e-02 8.998442034390699562e-02
3.000000000000000000e+00 4.399466107118154001e-01 4.992980895362990508e-03 4.400000000000000022e-01 4.398990738630162434e-01 4.399230386379024971e-01 4.402184280846929143e-01 4.399453895980622864e-01 4.402754889563451624e-01 4.399107118833978647e-01 4.384292491555554783e-01 4.397783580365178802e-01 4.401105170866034255e-01 4.401262531165353598e-01 4.401251887100208204e-01 4.401366358787450750e-01 4.401249421704582221e-01 4.385540380150130813e-01 4.399602992786295630e-01 4.398635471418750331e-01 4.401206527822741910e-01 4.397448746980214263e-01 4.399527589413317896e-01 4.398312373005915932e-01 4.397767514591906512e-01 4.400325878242020150e-01 4.398192971629548143e-01 4.400951173805997541e-01 4.402749522791259418e-01 4.401427971653329441e-01 4.401093131827488181e-01 4.400323895219540038e-01 4.402110982562374986e-01 4.398272754539783724e-01 4.395324115900510753e-01 4.394860888710695468e-01 4.400399915888925095e-01 4.399457160626408236e-01 4.395775714211562768e-01 4.398539765210645602e-01 4.397617644152945759e-01 4.397249126135392983e-01 4.399841911889620372e-01 4.397617205042366750e-01 4.396673961386824980e-01 4.402658060287054087e-01 4.403586856205136124e-01 4.402343907061657680e-01 4.396929671567025855e-01 4.399253897694291315e-01 4.396501520263158547e-01 4.402284898675832836e-01 4.401199293927386957e-01 4.398984992603631183e-01 4.398706032474463123e-01 4.399896833887804171e-01 4.397333031714234508e-01 4.398022476371154510e-01 4.396898828901232292e-01 4.396481910882971134e-01 4.401431666618377259e-01 4.402082904706794975e-01 4.398408555120625341e-01 4.398965727136062154e-01 4.399827073030893598e-01 4.398610027633415576e-01 4.400762425524488153e-01 4.400748507836754198e-01 4.398032371787006789e-01 4.391046634547606797e-01 4.399580619659115843e-01 4.399681729976889777e-01 4.399689671491919252e-01 4.400632182227769418e-01 4.399098303207775729e-01 4.398438756559935880e-01 4.396265024440215718e-01 4.401997128377128643e-01 4.401683308768769565e-01 4.401843255719362635e-01 4.397274460613546099e-01 4.398214933808530791e-01 4.397941981959951341e-01 4.397143533624007783e-01 4.394524392679781122e-01 4.400903075679410414e-01 4.402744804285744773e-01 4.400120493375693775e-01 4.403124887243732299e-01 4.384492693898089932e-01 4.401489323973134526e-01 4.402188635440122400e-01 4.398912917283372415e-01 4.395850317726961998e-01 4.399699318193525110e-01 4.398318252674749962e-01 4.401725548782928765e-01 4.404189767150502033e-01 4.398533870963493575e-01 4.402480903914671173e-01 4.402875270520020257e-01 4.402649797202984883e-01 4.384241447734282815e-01 4.402243442133580986e-01 4.401132183460861880e-01 4.397517629564776098e-01 4.401278607180269531e-01 4.400317419074439296e-01 4.399040751543565886e-01 4.400699242801744959e-01 4.399346213310786902e-01 4.402375626497907479e-01 4.401422134740285430e-01 4.402208649244993000e-01 4.401180152014717017e-01 4.400889018359195881e-01 4.398929694658683665e-01 4.395790330841667926e-01 4.402466675174171451e-01 4.403260943142318640e-01 4.399622790764123326e-01 4.400851778911201717e-01 4.397937496087973019e-01 4.398621703508338032e-01 4.397951167209183665e-01 4.400421524786430894e-01 4.402645227218569546e-01 4.404515796172222553e-01 4.405238728125594472e-01 4.403338045236648846e-01 4.401058316713462037e-01 4.400960393558857597e-01 4.394710902491884563e-01 4.401284882108115748e-01 4.398919722883853911e-01 4.395479232469652886e-01 4.399298018467991955e-01 4.403468288980026402e-01 4.399182241214423805e-01 4.399274917067155788e-01 4.400785514087079409e-01 4.399461817501749694e-01 4.397439051526896847e-01 4.402093138264483452e-01 4.401724243049617291e-01 4.402707017063648420e-01 4.402919992587923659e-01 4.398734873615989249e-01 4.400668026988062698e-01 4.397620416746033101e-01 4.399029450865072355e-01 4.396309412746756684e-01 4.402605190339185515e-01 4.400616712016622301e-01 4.396330445849162549e-01 4.401178634106515108e-01 4.399511375850451711e-01 4.400427506260932708e-01 4.401583273709208100e-01 4.383667904695505713e-01 4.399109855854090312e-01 4.399766750694565354e-01 4.395869683210660850e-01 4.397713397309794270e-01 4.399892289027370063e-01 4.397657557876974987e-01 4.399218238931086322e-01 4.398543732176367071e-01 4.397515719576199911e-01 4.402636531725711011e-01 4.398212978758914704e-01 4.398668304018274466e-01 4.401736109327469837e-01 4.399237385657464583e-01 4.401104850033002447e-01 4.400039512007186682e-01 4.400427310317312490e-01 4.399200024168923306e-01 4.398447962865812411e-01 4.399148310372403836e-01 4.402318880818932301e-01 4.402179994097538129e-01 4.401513474136656834e-01 4.404372160621374821e-01 4.401900379076591485e-01 4.401441838066464385e-01 4.401448744803419522e-01 4.383381876556547430e-01 4.400767009513927297e-01 4.400806961423367469e-01 4.400534639532818759e-01 4.399087984138777552e-01 4.398454024426903808e-01 4.400990228694033335e-01 4.402560551279363632e-01 4.400275661273845840e-01 4.400645268058661630e-01 4.401269309674712971e-01 4.399832939690577760e-01 4.396489000793123436e-01 4.400762011414824371e-01 4.402541875721593390e-01 4.402084150625515391e-01 4.400180057609251461e-01 4.398572404518450440e-01 4.399940410580800432e-01 4.398903033377552507e-01 4.396813946634564596e-01 4.402185712103478532e-01 4.403336399516443178e-01 4.401474119304442101e-01 4.398742142961519774e-01 4.398408036957314748e-01 4.398353164589616227e-01 4.401034535677426085e-01 4.404279545511497473e-01 4.403952541469859927e-01 4.399182191965591016e-01 4.394269414344293412e-01 4.398697310139240702e-01 4.397517068513729921e-01 4.400125528445681389e-01 4.398482490897619446e-01 4.397746237597269237e-01 4.400250685357543490e-01 4.400216322788338963e-01 4.402523848271594487e-01 4.398920515595286518e-01 4.399238327924341885e-01
4.000000000000000000e+00 1.819226086540896237e+00 9.147781406195817228e-03 1.820000000000000062e+00 1.819582532797021646e+00 1.819681659820414854e+00 1.818902505131753999e+00 1.819774111519257609e+00 1.819138270278717107e+00 1.819630671881327544e+00 1.817779717960020136e+00 1.819083208241960348e+00 1.820457138858223356e+00 1.818521654922411912e+00 1.818517256988222419e+00 1.818564554608087525e+00 1.818516238331575163e+00 1.818297107386446898e+00 1.819835783379785799e+00 1.819435581359573950e+00 1.818498515359487477e+00 1.818944708978179614e+00 1.819804593802781589e+00 1.819301936106992423e+00 1.819076562853924939e+00 1.820134795091017388e+00 1.819252547355858729e+00 1.818393007722569177e+00 1.819136052826024752e+00 1.818590011924034799e+00 1.818451662195994079e+00 1.820133974840809854e+00 1.818872219613272279e+00 1.819285548468728697e+00 1.820063758902438877e+00 1.819871940734292481e+00 1.818165237974106008e+00 1.819775461895468904e+00 1.820250761657606242e+00 1.819395993791676158e+00 1.819014570990536539e+00 1.818862138537821638e+00 1.819934609008888371e+00 1.819014389358433403e+00 1.818624229482732169e+00 1.819098262182242021e+00 1.819482023768394852e+00 1.818968459781385105e+00 1.820728604907982051e+00 1.819691384955365976e+00 1.820551311345335099e+00 1.818944078589241675e+00 1.818495526445452093e+00 1.819580156031501916e+00 1.819464767978073327e+00 1.819957326744500836e+00 1.818896844936342516e+00 1.819182024317159252e+00 1.820715833240464931e+00 1.818544790410683509e+00 1.818591538616411318e+00 1.818860618353852932e+00 1.819341720527167805e+00 1.819572187133553065e+00 1.819928471117324253e+00 1.819425056884730996e+00 1.818315020364436263e+00 1.820309610059748229e+00 1.819186117420989346e+00 1.818292492760395396e+00 1.819826529040816210e+00 1.819868351944986307e+00 1.819871636844384799e+00 1.820261493557850052e+00 1.819627025417761779e+00 1.819354212940700766e+00 1.818455078291180138e+00 1.818825177134004711e+00 1.818695512577641615e+00 1.818761599749500135e+00 1.818872617799239588e+00 1.819261631711710514e+00 1.819148728901616163e+00 1.818818461635385075e+00 1.819732600786945653e+00 1.818373134451174433e+00 1.819134103225337418e+00 1.820049840441764211e+00 1.819291146592978414e+00 1.819864775686467429e+00 1.818615361587081480e+00 1.818904304370486891e+00 1.819550343058122133e+00 1.820281654295119234e+00 1.819875627070958179e+00 1.819304368151828388e+00 1.818712965383491920e+00 1.819731135609002903e+00 1.819393555716717792e+00 1.819025064390198398e+00 1.819188009501226500e+00 1.819094848026142408e+00 1.819760491319846185e+00 1.818926949499738654e+00 1.818467797620874293e+00 1.818973201319975752e+00 1.820528878424566122e+00 1.820131296071699767e+00 1.819603219956656748e+00 1.818288914412175439e+00 1.819729570051280110e+00 1.818981565675726442e+00 1.818587600217690614e+00 1.818912573710772085e+00 1.818487617355171837e+00 1.818367326222049440e+00 1.819557282790637220e+00 1.820256814271254298e+00 1.819019185333328181e+00 1.819347362416530833e+00 1.819843972543341959e+00 1.818351939559219366e+00 1.819146873381843443e+00 1.819429886451176204e+00 1.819152528254707635e+00 1.820174357979841950e+00 1.819092959791672515e+00 1.819865844872977423e+00 1.818162165971836330e+00 1.819379219600051556e+00 1.818437277223880377e+00 1.818396817156819001e+00 1.819809832804593963e+00 1.818530889925580540e+00 1.819553158101957724e+00 1.820127991263569944e+00 1.819709634911760299e+00 1.819433033946747269e+00 1.819661745229602667e+00 1.819700079332323472e+00 1.818324560138706802e+00 1.819777388148450914e+00 1.818940698586125393e+00 1.818864846673825308e+00 1.818712425878228345e+00 1.819118490232207508e+00 1.819206487846555698e+00 1.819476697722977487e+00 1.818276016605522294e+00 1.819015717835859025e+00 1.819598545585098037e+00 1.818473438908885909e+00 1.819076417281054292e+00 1.820255094515966565e+00 1.818482138964880868e+00 1.818486990183100893e+00 1.819797887283596038e+00 1.820176832135203870e+00 1.818654179909850122e+00 1.819522431674983842e+00 1.819631804012373788e+00 1.819903519605479358e+00 1.818291550782591637e+00 1.819054177978142173e+00 1.819955446824957690e+00 1.819031080758203300e+00 1.819676635194222181e+00 1.819397634672951680e+00 1.818972411279246248e+00 1.819089366972123312e+00 1.819260823032096575e+00 1.819449162116649976e+00 1.818717328808486355e+00 1.819684554976496615e+00 1.818456503945454328e+00 1.820016343602972597e+00 1.818176556853834835e+00 1.819669100906236459e+00 1.819358021003586012e+00 1.819647710199494339e+00 1.818958119392913408e+00 1.818900733924846413e+00 1.818625339995554979e+00 1.819806497274922608e+00 1.818785202082100705e+00 1.818595741273825395e+00 1.818598595011958308e+00 1.819403710406347852e+00 1.818316914385527339e+00 1.818333421788109527e+00 1.820221146352211550e+00 1.819622757075585184e+00 1.819360528285673739e+00 1.818409144492216356e+00 1.819057973233155101e+00 1.818113898226330072e+00 1.820266906333355417e+00 1.818524455679233487e+00 1.819930897781102619e+00 1.818547723055337295e+00 1.818314849261852384e+00 1.819050256832240198e+00 1.818861133144815234e+00 1.820074478374735794e+00 1.819409494596268217e+00 1.819975351649331108e+00 1.819546254715260325e+00 1.818682132471570068e+00 1.818903096500937178e+00 1.819378539618384805e+00 1.818609079294426278e+00 1.819479704588628621e+00 1.819341506195980340e+00 1.819318808989341285e+00 1.818427451332172762e+00 1.819768230395432562e+00 1.819633118270955752e+00 1.819661724858494534e+00 1.819627016576205181e+00 1.819461160103049702e+00 1.818972969248860982e+00 1.820051923129804461e+00 1.819372303053106377e+00 1.819067761915234005e+00 1.818103578631821371e+00 1.818089380642999853e+00 1.819042808217672391e+00 1.819553485996232123e+00 1.819684944732341325e+00
5.000000000000000000e+00 5.306151410286840786e+00 2.019758291671456402e-02 5.306000000000000050e+00 5.306782463783840775e+00 5.307071566113605421e+00 5.304632058420549967e+00 5.307341199969351386e+00 5.307320894146488222e+00 5.306922860629717853e+00 5.307196070828208434e+00 5.305326191949629511e+00 5.303331730893571461e+00 5.305521923932053241e+00 5.306409349063065051e+00 5.305647083411054510e+00 5.309507256910891648e+00 5.304801709605660776e+00 5.307521064934013211e+00 5.306353882338801675e+00 5.307454962869878834e+00 5.306921101469304070e+00 5.307430101046793247e+00 5.307963341059411810e+00 5.305306810784963467e+00 5.308393127661054756e+00 5.305820066684010072e+00 5.305146596787957414e+00 5.305313174963467659e+00 5.305721354920286181e+00 5.308568528157144861e+00 5.304390440964645848e+00 5.306544693525189871e+00 5.305916313885720825e+00 5.304357058052661777e+00 5.305795691098003530e+00 5.306482262206054124e+00 5.307345138319312206e+00 5.304252679147396954e+00 5.304239089592655887e+00 5.307124929648214362e+00 5.306680195404303468e+00 5.305809360110528061e+00 5.309123316632966549e+00 5.305986076128190732e+00 5.307204170855121639e+00 5.308323792116373063e+00 5.304824408009297443e+00 5.304296067426767181e+00 5.307099929309385900e+00 5.305777971044856933e+00 5.306754341494685612e+00 5.307446239449707726e+00 5.306775531986380301e+00 5.306439004630556511e+00 5.305875591047429118e+00 5.304782666440718053e+00 5.305614387404110843e+00 5.304258859956305194e+00 5.307502906848323931e+00 5.303725158275145013e+00 5.306510846946554949e+00 5.308079415384209021e+00 5.304752760950896651e+00 5.307791387192723143e+00 5.306323187881401893e+00 5.308919762428177869e+00 5.306902632404958631e+00 5.305626324873961686e+00 5.303186776360450772e+00 5.307644060509801420e+00 5.309615905949383041e+00 5.307625630972523822e+00 5.304762066940019949e+00 5.306912225778835257e+00 5.310115153374177055e+00 5.305492563585805676e+00 5.306407447480066431e+00 5.306029152206717114e+00 5.306221960985340935e+00 5.306710769513165893e+00 5.305846561058109145e+00 5.305517281873505020e+00 5.304554062835507011e+00 5.305389448617044756e+00 5.305088616682634317e+00 5.305307489164322376e+00 5.308145358826859450e+00 5.305765489128697610e+00 5.303434313304127734e+00 5.305795312353069448e+00 5.306638300539638031e+00 5.306688582940941146e+00 5.306990201764913984e+00 5.307637268402552344e+00 5.305971201181266750e+00 5.306080070623785616e+00 5.305046764976741436e+00 5.304231981666430507e+00 5.304989489217178722e+00 5.307466007917769346e+00 5.307194210082871066e+00 5.307134282166019901e+00 5.302702328024540890e+00 5.305364795699184732e+00 5.305005358574962138e+00 5.303540721652225010e+00 5.306382778547494183e+00 5.306842797543920298e+00 5.305342984873148815e+00 5.307211295512194837e+00 5.304862629929978368e+00 5.305714318786925787e+00 5.302660418408741805e+00 5.305422619610467905e+00 5.305071671222084895e+00 5.306708822556429617e+00 5.302921608206266235e+00 5.306973464800864626e+00 5.305929436486493955e+00 5.307544948494538062e+00 5.307027167932463207e+00 5.303512807782451155e+00 5.306337273232331064e+00 5.305528362624169603e+00 5.304508128969825265e+00 5.305187498798376033e+00 5.303437429118281088e+00 5.306310286151283861e+00 5.308023861803451204e+00 5.307276233745825245e+00 5.307158147323477237e+00 5.305614616826566099e+00 5.305548866977600753e+00 5.306696792969884946e+00 5.304793998686811562e+00 5.305153474088901255e+00 5.306179288220931767e+00 5.307013485537764197e+00 5.307125286316469293e+00 5.308947615630503769e+00 5.305351000832791541e+00 5.304910564887447499e+00 5.304522231608702398e+00 5.306078496621629448e+00 5.307263186023997825e+00 5.305518591068447698e+00 5.308473222477478437e+00 5.306805579817877039e+00 5.307128275663962391e+00 5.304829605975016626e+00 5.307544454661539568e+00 5.304538899105397221e+00 5.304743418303673685e+00 5.303573183310762218e+00 5.305420789841126528e+00 5.303410985797908594e+00 5.306515533686479102e+00 5.305908564489463686e+00 5.306440007008121462e+00 5.306926162471252262e+00 5.307718616519716548e+00 5.305015458601956446e+00 5.305241525663724644e+00 5.307870061399381889e+00 5.307173098256076749e+00 5.307056911874138194e+00 5.306243211452762232e+00 5.307001925215822702e+00 5.305177020729481718e+00 5.305844202557345568e+00 5.306393490392954604e+00 5.305392524681039390e+00 5.306580096449316386e+00 5.307332348698889035e+00 5.306047647888666674e+00 5.308515491628248206e+00 5.305035301872797149e+00 5.306127678839030359e+00 5.306972552603800075e+00 5.306795305423548825e+00 5.304626892887533529e+00 5.305824424277460594e+00 5.306717907028632553e+00 5.306290820595963353e+00 5.305738070251028837e+00 5.305746396008485632e+00 5.308095313528750303e+00 5.308925292386346584e+00 5.304972755315804811e+00 5.304644483655016174e+00 5.306899777229234338e+00 5.304135694002079404e+00 5.305193675680262011e+00 5.305085464291632746e+00 5.304332297135563756e+00 5.308778427921676091e+00 5.305530095116972156e+00 5.305448553742932560e+00 5.305762862320792195e+00 5.308919262861338417e+00 5.305062960244519843e+00 5.306512348844939275e+00 5.306217133107883122e+00 5.306277800723621318e+00 5.306778129065933491e+00 5.306676659356374337e+00 5.306155012870349630e+00 5.306634776590192892e+00 5.306020361417314035e+00 5.305776983816082648e+00 5.306482567009033424e+00 5.306079513674870185e+00 5.306013317645836835e+00 5.305247085734787760e+00 5.305154907093394989e+00 5.304761015861422457e+00 5.307013426125762656e+00 5.307079015414903900e+00 5.306428482322520956e+00 5.307003553138160079e+00 5.306151375893814581e+00 5.306169332201037037e+00 5.307280118554886350e+00 5.308302417699509057e+00 5.306260865617028699e+00 5.307042384371031041e+00 5.304698239942861271e+00 5.307081146505092661e+00
6.000000000000000000e+00 2.662781850137174115e-03 2.172661757711146126e-05 2.662781850137174115e-03 2.662193123415454270e-03 2.662273857749117983e-03 2.664117291701113485e-03 2.662397650394069705e-03 2.664515581080522354e-03 2.662203887993275838e-03 2.665748125241126400e-03 2.661361559778714810e-03 2.663622121121307466e-03 2.663501019620811462e-03 2.663433741009424600e-03 2.663875088700121043e-03 2.663511784198633030e-03 2.666167943776179272e-03 2.662602177372685140e-03 2.662080095348324550e-03 2.663581753954475176e-03 2.660944432388117221e-03 2.662483767016644420e-03 2.661751775724757393e-03 2.661517646157131670e-03 2.662446090994268280e-03 2.661845965780698826e-03 2.662989702174272440e-03 2.664421391024580921e-03 2.663441814442790885e-03 2.663522548776455032e-03 2.662658691406250000e-03 2.664405244157848351e-03 2.661444985256834241e-03 2.659757637683256033e-03 2.659892194906029756e-03 2.663081201085758590e-03 2.662446090994268280e-03 2.660072501584545904e-03 2.662045110470403261e-03 2.661270060867228660e-03 2.661033240155147653e-03 2.662952026151895867e-03 2.661186635389109229e-03 2.660992872988315796e-03 2.664168423445767344e-03 2.665180293761022952e-03 2.664332583257550489e-03 2.660917520943562650e-03 2.662559119061397566e-03 2.660640333064649352e-03 2.664039248511904621e-03 2.663861632977843757e-03 2.662117771370701123e-03 2.661942846981095543e-03 2.662750190317735716e-03 2.661331957189704521e-03 2.661474587845844529e-03 2.660869080343364074e-03 2.660696847098214211e-03 2.663635576843584752e-03 2.664063468812003909e-03 2.661431529534556955e-03 2.662308842627039273e-03 2.662446090994268280e-03 2.661843274636243543e-03 2.663269581197641022e-03 2.663353006675760453e-03 2.661619909646439387e-03 2.657139154128086364e-03 2.662720587728725861e-03 2.662524134183476710e-03 2.662674838272983003e-03 2.663285728064374025e-03 2.662088168781690835e-03 2.661727555424658106e-03 2.660788346009700361e-03 2.664292216090718632e-03 2.663686708588238611e-03 2.664510198791611353e-03 2.660965961543761225e-03 2.661614527357528820e-03 2.661272752011684378e-03 2.661041313588513937e-03 2.659510052393353023e-03 2.663336859809027884e-03 2.664354112413194493e-03 2.662830924651399863e-03 2.664693196614583218e-03 2.665500539951223390e-03 2.663783589788635327e-03 2.663896617855765047e-03 2.661945538125551260e-03 2.660287793140983341e-03 2.662577957072585853e-03 2.661827127769510540e-03 2.663517166487544031e-03 2.665548980551421965e-03 2.661625291935350388e-03 2.664706652336860503e-03 2.664507507647156069e-03 2.664324509824184204e-03 2.665879991319444406e-03 2.664025792789627336e-03 2.663398756131503311e-03 2.661264678578318093e-03 2.663649032565862038e-03 2.662884747540509439e-03 2.661913244392085688e-03 2.663239978608631167e-03 2.662424561838624276e-03 2.664265304646164061e-03 2.663775516355269043e-03 2.663832030388833903e-03 2.663379918120315458e-03 2.663264198908730021e-03 2.662139300526344694e-03 2.660268955129795054e-03 2.664324509824184204e-03 2.664615153425374788e-03 2.662809395495756293e-03 2.663382609264770742e-03 2.661415382667823952e-03 2.662018199025848689e-03 2.661563395612874961e-03 2.662884747540509439e-03 2.664472522769235213e-03 2.665360600439539100e-03 2.666251369254299137e-03 2.664876194437555083e-03 2.663315330653383880e-03 2.663377226975859741e-03 2.659655374193948315e-03 2.663457961309523888e-03 2.662128535948523125e-03 2.659808769427909891e-03 2.662292695760306270e-03 2.665099559427358804e-03 2.662236181726741410e-03 2.662362665516148415e-03 2.663522548776455032e-03 2.662343827504960129e-03 2.660901374076829647e-03 2.663813192377645616e-03 2.663815883522100900e-03 2.664424082169036638e-03 2.664709343481316221e-03 2.661975140714561115e-03 2.663253434330908453e-03 2.661159723944554658e-03 2.662284622326939985e-03 2.660632259631283067e-03 2.664483287347056781e-03 2.663143097408234017e-03 2.660567672164351923e-03 2.663151170841600735e-03 2.662957408440806868e-03 2.662970864163084154e-03 2.663541386787643319e-03 2.665341762428350813e-03 2.661985905292383117e-03 2.662513369605654708e-03 2.660021369839892045e-03 2.661587615912973815e-03 2.662742116884369431e-03 2.661372324356536812e-03 2.662120462515156407e-03 2.661934773547729258e-03 2.661399235801091383e-03 2.664671667458939647e-03 2.661695261691192534e-03 2.661385780078814097e-03 2.664488669635967782e-03 2.662432635271990561e-03 2.663323404086750598e-03 2.662997775607638725e-03 2.662917041273975011e-03 2.662230799437830843e-03 2.661902479814263686e-03 2.662241564015652411e-03 2.664297598379629633e-03 2.664386406146660065e-03 2.663570989376653608e-03 2.665557053984788250e-03 2.664004263633983766e-03 2.663745913766258754e-03 2.663560224798831606e-03 2.664857356426366796e-03 2.662857836095954434e-03 2.663396064987048027e-03 2.663008540185460727e-03 2.662206579137731555e-03 2.662389576960703420e-03 2.663164626563878021e-03 2.664432155602402923e-03 2.662604868517140858e-03 2.663094656808035875e-03 2.663632885699129035e-03 2.662532207616842995e-03 2.660581127886629208e-03 2.663038142774471016e-03 2.664569403969631930e-03 2.664017719356261051e-03 2.663226522886353448e-03 2.661851348069609827e-03 2.662682911706349288e-03 2.662257710882385414e-03 2.660729140831679784e-03 2.664270686935075062e-03 2.664811606970623938e-03 2.664074233389825911e-03 2.662098933359512837e-03 2.661724864280202822e-03 2.661697952835648251e-03 2.663387991553681743e-03 2.665479010795579820e-03 2.665379438450727386e-03 2.662365356660604133e-03 2.658947603202160576e-03 2.661870186080798114e-03 2.661358868634259092e-03 2.662997775607638725e-03 2.661617218501984104e-03 2.661447676401289524e-03 2.662769028328924002e-03 2.662577957072585853e-03 2.664184570312499913e-03 2.662241564015652411e-03 2.662338445216049562e-03
