# vvf statistics with RF=500
# gcat file: none
# stats order in row: stdvvf,p2.5,p16,p50,p84,p97.5,rho
# columns: numbers, mean, sigma,All, jnrealizations
0.0 1.4800029947164333 0.005026321303649278 0.0 1.4804201150794962 1.4796029896788283 1.4799621496997175 1.479997450714294 1.4803864369567399 1.4800394619147261 1.4801767786935562 1.4789897520635475 1.4786593835681312 1.4798807722740506 1.4806712964855488 1.4802729954702813 1.4801296657366911 1.4797620557038202 1.4802787887371502 1.4801065013224093 1.4802709016892293 1.4800452289292267 1.4803507425833466 1.4802738023675808 1.48000536223708 1.4806547963125243 1.4800413051884755 1.4800321454783238 1.4797596191034597 1.4802937318962754 1.4804389360357053 1.479833187973674 1.4804710513463721 1.4797942042324292 1.4798966891420686 1.4794054997761812 1.4800860920699808 1.4801424205846392 1.479524575448249 1.4793483988735028 1.4801351046267146 1.4799223676489524 1.479954848588848 1.4802608508935196 1.479931589218791 1.4799464782107623 1.4803396314856538 1.4798223684983196 1.4793631823602107 1.4801131276392128 1.479690315458469 1.4803768802625417 1.4801752646621713 1.4799348629031497 1.4793550991473523 1.4799853456804322 1.4797354995355783 1.48019494386069 1.4794123968743709 1.479736710783622 1.4797957036496647 1.4801318401467383 1.4801141772726967 1.4794328860937322 1.4802421662217862 1.4802613896623638 1.4804292252984588 1.4800375696586847 1.4800174027080228 1.4792642619923422 1.4807348717805016 1.4804132350625068 1.480432846372062 1.4798144718819397 1.4800093779788055 1.4805588508971068 1.4795582692668814 1.480062221357858 1.4798453338165238 1.4801108341751026 1.4800674810189243 1.47968592988091 1.4800092510641243 1.4796795771319968 1.4795931702928335 1.4801110385740275 1.4788427013321856 1.4801829847492385 1.47966981440361 1.48045062597253 1.4800608483452709 1.480323771142549 1.479772245412825 1.4796125370519289 1.4802327997771436 1.479968907759886 1.4800805240028247 1.4803601934332913 1.4796679871427476 1.4797770370364731 1.4803907202718136 1.480014977255909 1.4801160856991533 1.479759130312718 1.4799923048430448 1.4795687955279884 1.4798104010315412 1.4797365933581812 1.4801731270752654 1.480133150245535 1.4800131434017332 1.480081825107424 1.479622389234954 1.4800060211210972 1.4803383069883465 1.4801225067023798 1.480234394871883 1.4794383988893935 1.480329881314788 1.4803446313230841 1.4801816745997831 1.4799704728298697 1.479427797509868 1.4800587227462092 1.4799170878762113 1.479799217973402 1.480095118419781 1.479732997373945 1.4797855756701537 1.4802451668096366 1.4805912246378583 1.4803772010071947 1.4798839820302887 1.4800070102913052 1.480171526949937 1.4797461184604817 1.479995347226191 1.4799643265190532 1.4802489386704045 1.4801608764590346 1.4804037171846136 1.4796529026233611 1.479023017880095 1.479242027237657 1.4799523855672827 1.480429126447866 1.4802200386272126 1.4802859074037464 1.4802532083872744 1.4799188378557158 1.4798769513914676 1.4801487334726386 1.4797045416417804 1.479766571470318 1.479530319100609 1.4799216378852431 1.4791308658800801 1.480321130452826 1.4801410569860836 1.4805607635448668 1.4803220110442585 1.4803430894288347 1.479397010403087 1.4800948322835419 1.4804873490807389 1.4802633721035698 1.4802429354884905 1.4800721450279999 1.4798575524949973 1.4797488349509575 1.4794950745618738 1.4797021904325556 1.48012763023234 1.4798571327848173 1.4801551740487646 1.4797525686489963 1.480523400465838 1.4798429294779476 1.4800198057451868 1.480302117361196 1.4805391267368335 1.4801007467845837 1.4799328441968178 1.4803442904579684 1.480285023331674 1.4802034471388235 1.480289804151573 1.4805533568960347 1.4805169456485272 1.4804280578256201 1.4803839411661848 1.4800495537357743 1.479299460706772 1.4802710648482484 1.4798704557939752 1.4802760070910554 1.4804061368201686 1.4799287387914102 1.479524964863891 1.479882052326819 1.4803068682034766 1.480068226752576 1.4802462187070549 1.479799288983373 1.4802271716771176 1.4799064342321013 1.4800646443413008 1.4797377470869824 1.4800326455882444 1.48018674787588 1.4798981772630095 1.4799921054246514 1.479879173067832 1.4798749804107356 1.4801617148776385 1.4800170111643831 1.479823757995646 1.4796528783889134 1.4794317137320658 1.479988510207716 1.4802657064968952 1.4797841822160511 1.4802205228448355 1.4798939089468528 1.4806818801534165 1.4804048338936553 1.4801586477132205 1.4793796968386945 1.4800260787099297
1.0 0.021410997139265316 0.0005356426488581797 0.0 0.0214065619078786 0.021405656455275666 0.021419266830746644 0.02140823070419806 0.021424515048251026 0.021406475828092287 0.02143173555292078 0.021398808143222314 0.02141818995374003 0.021417508696605372 0.02141639328428592 0.02141941617972217 0.02141460297454842 0.021435125552271218 0.02140932576903392 0.021403832732061194 0.02141714842614741 0.021398136066780572 0.021408456022912168 0.021402321943849754 0.021400193052209988 0.021409589312233763 0.021402429903845922 0.02141453014973016 0.021423923508339562 0.021418311374074246 0.021417170706531933 0.021410083853676 0.021423351019060902 0.02140257354549049 0.02138803657103978 0.0213859668715687 0.02141145330320405 0.021407374280037177 0.021391008480577078 0.02140461265100388 0.021401058704264033 0.021398583860248867 0.021410234244623537 0.02139993688689574 0.02139556994358834 0.021423581195812932 0.02142914145151662 0.021422347721672598 0.02139769669812432 0.021407544508756707 0.02139642919735145 0.021420505235785516 0.021418651118908026 0.02140763762150849 0.021403524468535357 0.02140893508559161 0.02139895532165716 0.021403379242469198 0.02139442068417682 0.021394619220440596 0.021415901481334612 0.021419108786612805 0.02140426533123371 0.021404895948086474 0.021410671942844586 0.021405412955307904 0.021413270920659384 0.021414158364028796 0.02140120467076702 0.021372155536235733 0.021410616389614428 0.021410589226684124 0.021408548970796984 0.021414002604971078 0.021405477536577767 0.02140522376253871 0.021396384802870677 0.0214225428462354 0.021417693353205643 0.0214203089693779 0.021398325661531006 0.021404136942406414 0.021401490368445766 0.02139397681264576 0.021384478434731066 0.021415161880182096 0.021423544918527736 0.021410754976703486 0.021422794679291472 0.02143178806992255 0.02141944327616582 0.021420145383713455 0.021404677610738766 0.021392173336320923 0.02141038695972342 0.021403053990682094 0.02141723339565583 0.021431536122432406 0.02140693196372416 0.02142341945160237 0.021423248726024625 0.0214230247317367 0.02143119405140017 0.02142032527681821 0.02141588816935215 0.02140030999544398 0.021416517787853768 0.021412292837371283 0.0214042844057643 0.02141390734459619 0.021408267885316364 0.021420626190870432 0.021417443423666596 0.021420779923751646 0.021415009194426505 0.021415546085457544 0.021406322429002814 0.02139231108587403 0.021421181184080398 0.021426090305073794 0.021410678157296057 0.021415363196859535 0.02139924315188253 0.021403418823061387 0.021401271305048607 0.021410977978765445 0.021424214963379342 0.021430913476733243 0.021437766357931338 0.02142660074939014 0.021418294259120164 0.021412696209937448 0.02138834244819305 0.021416255688658768 0.021407006857855432 0.021388179643686868 0.021408608150262055 0.021429562829930963 0.02140791231643678 0.021406342542992816 0.021414499603556472 0.021406963006126472 0.02139928320005578 0.021420252399517985 0.021419452479135164 0.021425956240892503 0.02142279433161539 0.021405316563022848 0.02141596815160841 0.02139963634363277 0.02140575761975955 0.021392830224104147 0.021420942598909188 0.021413369844502348 0.021395131819463304 0.021417291154390086 0.021409151093158364 0.021413236555679126 0.021418597984381053 0.021428763623857445 0.02140869354157651 0.02140936853481412 0.021391741372046677 0.021402995725593302 0.021409697987248438 0.021401000367292294 0.021409721091776274 0.021403786612360483 0.021399404532946184 0.021422219282430228 0.021404368499762585 0.021403723131553434 0.021420188706592028 0.02140720393998528 0.02141526990421412 0.021411147388881453 0.021413110837753976 0.021406315311820523 0.02140294896198738 0.021407619216187432 0.021422617653368174 0.021422058975100387 0.021418266102074125 0.02143024889429401 0.021418978779398995 0.021417922720641476 0.021417775355287185 0.02142694351718226 0.021415824633536005 0.021417023043623293 0.02141468226714325 0.02140700916301445 0.021404110581854652 0.021415618260309632 0.021423414731400598 0.02141316014853988 0.021412649024152935 0.021417359514371404 0.02140924013821711 0.021393218171581876 0.02141436567640892 0.021425395745503117 0.021421292120154426 0.02140982304771571 0.021404957915627888 0.02140971365403244 0.021405510224507204 0.021397102195617024 0.021423046614398263 0.02142514338819321 0.021418735314496094 0.021405631587106365 0.021403817843050545 0.021403041008716133 0.021416814435419117 0.021431449067336756 0.021428773531972128 0.021406683079919216 0.021382909546493856 0.021404495863628456 0.021400652575284732 0.021414016440653827 0.021405893709993323 0.02140042513291046 0.02141193654689437 0.021412244051415938 0.021422002467730766 0.021405304606115397 0.021407273325134486
2.0 0.1010604885843157 0.0004181765966361875 0.0 0.10103958662222953 0.10103538552692103 0.10109971282542823 0.10104646353330518 0.10112402106885147 0.10103819367093728 0.10115783032977349 0.10100181240046736 0.10109576894234681 0.10108993584657337 0.10108270166087152 0.101098305649931 0.10107903041249146 0.10117867675047167 0.10105182882011018 0.10102619190937102 0.10109004477474519 0.10099930973625074 0.10104841837243693 0.1010209089405837 0.10100833159765917 0.10105583908057722 0.1010182143516751 0.10107823890779143 0.10111927449366688 0.10109493828772546 0.10108980545373247 0.10105484169217308 0.10111854448703972 0.10102174651808525 0.1009513019665531 0.10094035528929199 0.10106096662537774 0.10104319577107683 0.10096500144435411 0.10102931503594609 0.10101165215863794 0.10100043954312389 0.10105437710190246 0.10100780305137677 0.100988077640155 0.10111777797325772 0.1011474180665266 0.1011131561271023 0.1009965511092748 0.10104373065851463 0.10099009428296271 0.10110512761906816 0.10109594904972785 0.10104296568327938 0.10102443628303134 0.10104973743101923 0.1010033196307414 0.10102307503272205 0.10098205860994436 0.1009829320789768 0.10108346179983557 0.10109686882582077 0.10102908379307007 0.10103190272687945 0.10105716349744776 0.10103537522377158 0.10106922428169886 0.10107412639741295 0.10101143383441052 0.10099197017581482 0.10105870770225252 0.1010577496822766 0.1010495372817928 0.10107488432620176 0.10103502119683214 0.10103078447431893 0.10099104882061427 0.10111308127067475 0.10109169623618697 0.10110252264422515 0.10099821911455344 0.10102819852498546 0.10101573407955752 0.1009799616672935 0.1009356849612008 0.10107950657997976 0.10112091808113889 0.10105884646172945 0.1011129107568006 0.1011569535362817 0.10109868567579147 0.1011033477329813 0.10103021398467812 0.1009728029092101 0.1010573515020929 0.10102251795631301 0.10108891302523228 0.1011571527513242 0.10103926039230088 0.1011169369278344 0.10111829277182499 0.10111625383263255 0.10115252922075338 0.10110302971634988 0.10108367031737232 0.1010098353846646 0.10108608565513065 0.10106668153759407 0.10102976486971131 0.10107627641571226 0.10104793588003104 0.10110423540569395 0.10109263774847842 0.10110726507220559 0.10107995435756821 0.10108164841889701 0.10103730712236708 0.100969471014588 0.10110914525295478 0.10113170786995974 0.10105879538967874 0.101080584673585 0.10100375366510381 0.1010248522905131 0.10101373603792846 0.10105930823388681 0.10112107579654622 0.10115474224645976 0.10118510753926935 0.10113186618069128 0.10109473642696983 0.1010661569289812 0.10095329155969116 0.10108646614835523 0.10104199198190912 0.10095523219498803 0.10104879310094891 0.1011464805501429 0.10104468825584292 0.10103766830489155 0.10107865569575149 0.10104134835850426 0.10100401744738162 0.10110416899121015 0.10110062609230398 0.10112895246424387 0.10111442685431929 0.101032280969249 0.10108422993899734 0.1010061779537744 0.10103459116301192 0.1009745973199706 0.10110740469078762 0.10107402910972262 0.10098169423831568 0.10109040488189373 0.10104978178634214 0.10107100235935071 0.10109654891768681 0.10114404058688595 0.10104948099857994 0.10105432661130712 0.10096863941433772 0.10102190643372502 0.10105250356409752 0.1010144417806693 0.1010536910471724 0.10102611821358289 0.1010056124778587 0.10111289615545908 0.10102783223090323 0.10102640322125461 0.10110991866984824 0.1010439538666024 0.10108678380984881 0.10106144999978083 0.10106678599540328 0.1010352742256429 0.10102315301515287 0.10104672458044653 0.10111096606154953 0.10111405785653134 0.10109384543117697 0.10115220673242795 0.10109662164436586 0.10108949747802547 0.10109113459971772 0.1011321002110141 0.10108340596752538 0.10108965503826454 0.10107602701681988 0.10104130955754925 0.1010445244560953 0.10107992308939451 0.10111949418808606 0.10107000327308614 0.10106605831165927 0.10108830957443295 0.10105045537265439 0.10097611467605408 0.10107714731727184 0.10112419536925708 0.10110784569006283 0.10105606645187717 0.10102960981969092 0.10105583208254933 0.10103371639548815 0.10099412420728524 0.10111565876648469 0.10112622240402416 0.10109666927262868 0.10103176508406202 0.10102639394018811 0.10102346315580281 0.101088471023065 0.10115344370711857 0.10114381535375719 0.10104001117250785 0.10092820751454591 0.10102849296084644 0.10101089746817021 0.10107433519128775 0.10103502638913991 0.10101098834542191 0.10106348906980292 0.10106591598897685 0.1011133826885287 0.10103308315276452 0.1010431817520518
3.0 0.46311016115125503 0.0018366351392471601 0.0 0.4630110682476878 0.4630210869220351 0.4632891257628908 0.46306420921963115 0.46311660039950153 0.4630278391465498 0.46330633511307745 0.4631187049580922 0.46326518303989833 0.46324195214732483 0.4631187067823039 0.46325680228839844 0.4631808190509812 0.4634614183013584 0.4630609414604256 0.46297504164075487 0.4631745711198633 0.4628591748557113 0.46304900107378644 0.462939336778023 0.4629101016572451 0.46300113763517403 0.4629825676951938 0.4631873206022577 0.4633847656537348 0.4632380835555313 0.4631833109649409 0.4631061488146247 0.4631863517930939 0.4629598619940257 0.4628929346540914 0.46291010645651387 0.4631012369842529 0.4630469554279536 0.46284980175757323 0.46308678337085096 0.46291051007898654 0.46287386282435106 0.46311225099963277 0.46288693282593946 0.46289972175221317 0.46330807472376745 0.46323087459054757 0.46335220464208954 0.46299221430106713 0.4630570679890703 0.4629675221564257 0.4632848375105414 0.46323647786776784 0.46305369649561073 0.4630210284457234 0.4630553270625543 0.4629052323790123 0.46293684282490777 0.46289725294604483 0.46283652789138585 0.4632370984036319 0.46322300940000743 0.46297156029836584 0.463006489258198 0.46312569153527866 0.4630165497870904 0.4631223489186441 0.46316965599733634 0.462930898734643 0.46323811483183785 0.46307572076836784 0.46299075465919753 0.4630375860612128 0.46320608724180873 0.46302140189908486 0.46296831025687724 0.46306996304752396 0.46330024050527946 0.46323594193050405 0.46324398434822267 0.46287331355629635 0.46313165941686757 0.462925099519028 0.4629249811639249 0.46287828454804336 0.4632168786405278 0.46335964605056273 0.4630976472292442 0.4633573642544453 0.4632018520364524 0.4632354163771549 0.46323022609178355 0.46299214600284655 0.46281131573021694 0.46309896291971026 0.46296092115799514 0.4631436247901126 0.4632687538786243 0.46305406337082433 0.4633509922761157 0.46330255788926056 0.46331638273974074 0.46318582545021947 0.46331813614545514 0.46320965938349334 0.46300139267320783 0.4632300910463815 0.463159200703202 0.4629827042104031 0.4631686082446715 0.46306855652515116 0.463241769956056 0.4632450290082822 0.46332607825191313 0.46318019402732336 0.46321202147404444 0.46302410955371603 0.46300048969498997 0.4632957180803748 0.4633112808905034 0.46310581630985437 0.463188509721408 0.4631206223152657 0.4629686620046325 0.46297615787387697 0.46312496807256553 0.46322419698882744 0.4634639959799718 0.46328548457433033 0.46324831693064095 0.4631751320174806 0.4631440446523227 0.462793930071848 0.46321588877036657 0.46303915517956934 0.4627076269610991 0.4630866679278599 0.4632450539279665 0.46304034113558806 0.4630279338348146 0.463130786848699 0.46305389587587725 0.4629983684808127 0.4632953427284941 0.46329882033575526 0.4630107982935085 0.46330221178410236 0.4630059298185608 0.46319874387000826 0.46289666353351894 0.46302949831392987 0.462831086314295 0.4633134883852663 0.46314948070237666 0.46304186120440743 0.46324087123107865 0.46316666800570616 0.4631404921315175 0.4632361075807102 0.463150492419891 0.46306723898495866 0.4630929864763525 0.4629354996095149 0.46293306532347994 0.4630816970195801 0.46291401725819276 0.46308768962708513 0.4629697648188753 0.46293517807515644 0.46329649545790585 0.46307210022840156 0.462991107115167 0.4633261720267498 0.4630551181350931 0.4631759790434574 0.46313191954418864 0.4631453024057405 0.4630281915550563 0.4629660048897556 0.46304642164467064 0.46318632519848135 0.4633335949953988 0.4632637178189465 0.46325921734617737 0.46320837440236856 0.4632209397626956 0.4632264723438944 0.46305791153324866 0.46321186342914494 0.46318308465210384 0.4631808575716187 0.46304075200669415 0.46311158636815064 0.4631982837768196 0.46333242656048557 0.4631526550896719 0.46309893163229277 0.4632371541139235 0.46308788796408573 0.4628163355622813 0.4631836115768451 0.46329609845295977 0.4632480925686294 0.4631111672620273 0.463006744790744 0.46309279894515415 0.4629887434635856 0.46289075336992697 0.463281782906704 0.4632874593422212 0.4632382143702856 0.46301432487900396 0.4629914084956337 0.4629524833391024 0.4632278438067609 0.46326421562932657 0.46337475028876185 0.4630426477345763 0.4629741411762873 0.46296310416151343 0.4629120292882978 0.4631927535673149 0.4630216842613686 0.46289046808078393 0.46311814136507046 0.4631397234374624 0.4632927654708213 0.4630073473290693 0.46305176345761423
4.0 1.820819131177575 0.0061159411297649156 0.0 1.820626329000279 1.8207474853666847 1.820760397868011 1.8208660308363993 1.8208530533581708 1.8205531457680448 1.8207321469559834 1.8208551145615843 1.8213758889423886 1.8209379321729746 1.8205920758064644 1.8210498918077247 1.8208128733985178 1.8208331040586647 1.8209344903046127 1.8207672653767462 1.820761848199066 1.8210398034958852 1.8207125207044208 1.820873523408436 1.8207703026234319 1.820859614730475 1.8204516786880536 1.8207424471310893 1.8209250887038508 1.8209049686515406 1.8210026804041342 1.8208878111371476 1.8205891959935834 1.8210226291337632 1.8208419377320662 1.8210542332116437 1.820721676379881 1.82087365492457 1.8209542872129374 1.820811539014229 1.8209405131536605 1.820815004740198 1.8208649262739052 1.821232540893598 1.82077430771869 1.8208869220507773 1.8207019561477888 1.8207878152539627 1.8209730954931267 1.8206490095356682 1.8210286652748369 1.8205336158532879 1.820702256423297 1.8208054922448014 1.8210164150111585 1.8207749579854935 1.8210777630666677 1.8207464974384424 1.8209760762108407 1.820827198237686 1.8208327381266154 1.8206086323243988 1.8206882224838068 1.8209313299659091 1.820620313335966 1.8207352631111946 1.8206724414020883 1.8208099067190764 1.820686724474199 1.820698850992306 1.8207510289350977 1.8208961371847605 1.8206425874314278 1.8209199659756243 1.820650234602021 1.8205821015303203 1.820706437145069 1.8207770566635826 1.821067321569777 1.8210424354330739 1.8207895328951735 1.8206407111672998 1.8206931978452334 1.821143413942596 1.82090146463586 1.8207530119236053 1.8210480993281224 1.8207679482431338 1.8211113096961673 1.8207204722330959 1.8209748976216718 1.8207837438693681 1.8210196480538008 1.8208314928463543 1.8208409488148403 1.820884872337821 1.8210533120283592 1.8207609575001253 1.8207690305525164 1.8212339360183678 1.8207507098574667 1.8207140049272161 1.8207304652277103 1.8208160480835633 1.8210711081016728 1.8208785901979712 1.820978779069325 1.820915226883321 1.820653948471215 1.8206982659560265 1.820545978018439 1.820697648442452 1.8209283312997695 1.8209134831238563 1.8207749565879678 1.8205327929897088 1.8208646046535932 1.8209617075938653 1.8205451259282555 1.8203493864644271 1.8207346560030953 1.8210090648801436 1.820680624137071 1.820863472478964 1.8206284349204926 1.8209337106735997 1.8210619709649545 1.8207418197927685 1.820994223365354 1.8206601000488587 1.8206456957679769 1.8207066328466357 1.8210452842542384 1.820644288987223 1.8207604662794494 1.8211819916302976 1.8207716443243813 1.8209394597852728 1.8208487089663234 1.8207655620191878 1.8208855364590237 1.820637722693507 1.821348477719672 1.821411296734998 1.8206618807776724 1.8206332163867451 1.820888387316882 1.8204335378449634 1.8208962526948753 1.8207533378158123 1.8208045433671172 1.8203598837861887 1.820956782819049 1.8208277692950943 1.820703944988853 1.820840520645393 1.8207569086434903 1.8209945306687316 1.8209068365930279 1.8206663103424159 1.82062154211097 1.820812919918548 1.8208241610330085 1.8207100339732156 1.8209354018050887 1.8210228826555581 1.8208595745500948 1.8205552138546457 1.8206342744930653 1.8210766482796115 1.8208141661666875 1.8210177926845683 1.8206491266926168 1.8208537870981152 1.8206859536027615 1.8209768225427414 1.8206688145386258 1.8207586210133622 1.8207544017876165 1.8207888525052458 1.8208581200908418 1.8209382318204186 1.8207711136647324 1.8205840636739916 1.8208360000690846 1.8209594200805306 1.8207226758927244 1.8207119495840705 1.820665433864012 1.8207557571984716 1.820731006731235 1.820674215841154 1.8205486918197278 1.8207647512895009 1.820851098840765 1.8205335178745596 1.8208801748447285 1.8210115038264536 1.8209910313035216 1.8208823712210778 1.8210175869242713 1.8206775222433176 1.8207431025969032 1.8209796088207426 1.8205653486549485 1.820678903565621 1.820756128193308 1.8209158302405637 1.820839687097106 1.8207757694930333 1.820878175436418 1.8207164081640617 1.8206624537252305 1.820940305477303 1.8208331253933734 1.8206601437928522 1.8209760344317398 1.8211563961747872 1.8209301317970281 1.820745335653742 1.8206973520981267 1.8210148864056386 1.8207648682160142 1.8210465241803904 1.8206954504018922 1.8203509529188824 1.8210258906131163 1.82111692140442 1.8207248034861137
5.0 5.156415528495214 0.017320072922446 0.0 5.157602791416228 5.155969670037667 5.155979052234965 5.156429798141847 5.1577872193711904 5.156437035140461 5.156614142129952 5.154705555299204 5.154431509240741 5.154940642959052 5.158046026834392 5.156710848208851 5.156976330527492 5.156678560569833 5.156717381160174 5.156683212025761 5.156953121614214 5.1566532497283655 5.157632530256705 5.157210483954531 5.156541070688528 5.158324286664417 5.1558519501452444 5.156015862554152 5.156297742973472 5.156358921108674 5.157629665035075 5.156322194020909 5.157438097493381 5.156491555611884 5.1562143798910025 5.155113843215986 5.156383794040891 5.157024855774661 5.154658182776403 5.154216599879636 5.157202816043398 5.15626162425221 5.1563100656469 5.157358919392446 5.156152771754227 5.157088771861855 5.157419208355771 5.155402723657389 5.154920547669567 5.156815845959691 5.155278433034246 5.157118189542502 5.156864744365275 5.155831910635979 5.155522703696216 5.156367907152764 5.156191138115635 5.156580813887427 5.155769282431671 5.15644979140259 5.154881087219782 5.157236431174724 5.156779582366271 5.156541359002074 5.157373746526767 5.156910761348456 5.15782511536236 5.156770493120219 5.156235522176105 5.154517584996754 5.1588558926525465 5.158362856636189 5.1580774591034775 5.155927348155087 5.15662335744494 5.158405472810601 5.154625658221996 5.1569308442284605 5.155759498391337 5.15667596221688 5.156735962075141 5.155236593807815 5.156463992349229 5.155014767919751 5.15587470222259 5.156031971643903 5.1557155935826655 5.157850898872142 5.1552948810867525 5.15722325722358 5.156911961631524 5.15714567616055 5.155695741438103 5.155864727040389 5.15683046916203 5.156176630751975 5.1554731916858 5.15627090967065 5.155339169116007 5.155174429729965 5.157292437234973 5.157185177507719 5.157123524227171 5.1549479974732115 5.156654933045153 5.155209821472864 5.154988314729977 5.156345327833396 5.157393236746606 5.15652502960387 5.156628550514937 5.157102718308147 5.155123773942932 5.155452934150661 5.157299712201172 5.156610716689508 5.157104850940499 5.154965114916782 5.157068442104349 5.157795600176481 5.156489120407883 5.15607194179417 5.154248735383966 5.156401058458728 5.155474736166492 5.155008462717464 5.156908280952488 5.155397168472734 5.156706171716634 5.157295694449502 5.158273255804936 5.156980438815577 5.156288545051659 5.155572915757723 5.1567573791877415 5.155967162954753 5.155887444289651 5.156429163750626 5.157113318119652 5.156726938644168 5.15771959325576 5.155513098506992 5.154998894589337 5.156239316228788 5.155573828845549 5.158236206821808 5.156526517367434 5.156810466656452 5.157153176813383 5.156540938525511 5.1560686750876075 5.157214926224143 5.1555416479572775 5.155390534675354 5.154841965453127 5.155730400223304 5.154024455935054 5.156852568494047 5.1563942926014885 5.157716414784924 5.157209413360222 5.156854271603314 5.154699758149895 5.156909473735325 5.157715864922661 5.157102285489669 5.157289344959176 5.1562568993944975 5.155732548426506 5.156437616634932 5.15439024536473 5.1555525813179965 5.155846483145688 5.155326355997253 5.157844319357414 5.156136642265519 5.15757909107079 5.155959205334844 5.1564237982979 5.157320407857248 5.157616209289997 5.156745967968778 5.15642340907036 5.156728070164051 5.157097093303834 5.156874646217356 5.15673466492756 5.1579103860681474 5.157465374199594 5.15721832604471 5.157078698458259 5.155965018909079 5.15497060045579 5.156978728404462 5.15613213194514 5.157082341237546 5.15735778242787 5.156104223231923 5.155341949283753 5.156416365926403 5.156832626601417 5.156736825727344 5.15689753302138 5.15608107819329 5.1573010742353995 5.156196249125447 5.156502307583824 5.155695275437546 5.15702730205289 5.156470735611527 5.156053656493598 5.155902801613518 5.1555955646055045 5.155697126876424 5.157046908133841 5.156044732115153 5.15596116661662 5.155671119452023 5.154802206766424 5.156214429116072 5.15711354435062 5.155863772758701 5.1566716522961595 5.15643928958342 5.158075917645582 5.157369019168465 5.1567608313521065 5.1550162457682305 5.156127780625194
6.0 0.0025644050843405264 1.1265722613465064e-05 0.0 0.0025638474200088096 0.002563878587245993 0.0025654759992777172 0.0025639839813618886 0.002565998117392015 0.0025638245641719853 0.0025670086344180974 0.0025628493150799806 0.0025653758258754413 0.0025652620756976495 0.002565047096834411 0.002565613071083748 0.0025647857394298723 0.0025675725441175043 0.002564105055823228 0.0025636292302787145 0.002565078801232158 0.0025627045267734745 0.0025640483836033732 0.002563490694523434 0.0025631623589164906 0.0025639549419958665 0.0025634111755082913 0.0025646627211776325 0.0025659703278867628 0.002565063469934674 0.002565129833995661 0.0025642837894225322 0.002566025048943897 0.002563198050452524 0.002561556675529848 0.002561594962747184 0.0025646319830204276 0.002563947311726003 0.002561888386937661 0.002563717939117742 0.002563012396047757 0.002562917938737673 0.002564539915177046 0.0025628789711113647 0.002562735842062677 0.0025656179433088057 0.002566560382550819 0.0025658741924343975 0.0025627953745483737 0.002564270215454094 0.002562456836237593 0.0025654930963552093 0.002565571387619716 0.0025638470577802872 0.0025636062973897274 0.0025643524254299775 0.002563134438331948 0.0025633028630037353 0.0025625588268302123 0.002562456503133125 0.0025651408168408853 0.002565421233549301 0.0025633226045626133 0.0025637707394330195 0.0025641723583409463 0.0025635711756983016 0.002564798134068427 0.0025648098619539834 0.0025633077202966413 0.002559563658767901 0.0025644202592996993 0.00256400265283725 0.0025641876155094844 0.0025649114327389783 0.0025634951115762706 0.0025635879253784657 0.0025627319643893166 0.002565852894833725 0.002565195525000614 0.0025661280137197146 0.002562664278412429 0.0025634292792932195 0.0025631619633872077 0.00256243230501754 0.0025611559053234927 0.0025649187346387177 0.0025659879073805544 0.0025642665224258135 0.00256600174478624 0.0025669099803377286 0.0025654857808433476 0.002565345214527899 0.00256371788489081 0.0025620377929194485 0.0025643378780533656 0.0025635788269760197 0.0025650749087638455 0.0025670492436581584 0.0025637165314386368 0.002566327279627134 0.0025658883299646564 0.002565760640362348 0.002567115849707452 0.002565399494251604 0.002564936754039073 0.002563030660054714 0.0025652300344135657 0.002564544821506816 0.0025635239166536625 0.0025647871028997428 0.002563940897506033 0.002565683737443549 0.0025652896880062003 0.0025653813600733594 0.0025647865316485814 0.0025649435865762243 0.0025638051208694695 0.002562215465889133 0.0025656671857464614 0.0025660464681603544 0.002564578317885128 0.0025648787474669894 0.002563049844373894 0.002563518400376126 0.0025631884873026146 0.0025643442425971968 0.0025660624169756194 0.0025667083717945895 0.002567666840095396 0.002566358538340209 0.0025651518901025918 0.002564589384385553 0.0025617370683949483 0.002565087385329784 0.002563836121139542 0.0025615515266381897 0.0025641559052841344 0.002566662696379124 0.002564016353483347 0.002564034408733507 0.002565013207669902 0.0025638910282074837 0.0025627666650492177 0.002565429870705783 0.0025652565824556793 0.0025660588904800577 0.0025659994474848615 0.002563631570617411 0.0025649972200341123 0.002562882885727795 0.0025639007102157894 0.002562258395089997 0.0025657371013980508 0.002564776081547237 0.002562479712857386 0.002564963514350991 0.00256456410627805 0.0025647044749264533 0.002565049802021547 0.002566848891493717 0.0025639664608720194 0.002564131643386097 0.0025618927571099633 0.002563536287697986 0.002564338349294857 0.0025632521893567905 0.0025641386465263057 0.002563633306016138 0.002562856437020039 0.0025659366862645235 0.0025634570731315797 0.002563036092235391 0.0025661734578070667 0.0025640305903922756 0.00256499200230355 0.002564618212740135 0.0025645839538225293 0.0025637914538868974 0.002563415627029968 0.0025639140352314935 0.0025658251127940947 0.002565879250802115 0.002565191287401177 0.0025668816918939102 0.0025654589126411524 0.002565305250700677 0.002565199779992406 0.002566187909441191 0.002564705582281076 0.0025651954854962245 0.0025646897772203248 0.0025639396577909965 0.0025637830368948084 0.0025647904082250253 0.0025660361372726904 0.00256435067557879 0.002564630210343464 0.00256519736535406 0.0025640244532408067 0.002562185579271647 0.0025646671884985523 0.002566177472392197 0.002565730318732265 0.0025644851560743345 0.002563681485912832 0.0025643409083304903 0.0025638283226835277 0.002562674784294515 0.002565903143717145 0.0025662155595945636 0.0025655665572885465 0.0025638051240133163 0.00256340265903317 0.002563449846032009 0.002565063307355695 0.00256710774920982 0.002566623345676049 0.0025639930211095027 0.0025606177479124844 0.002563570560799126 0.002563129101641103 0.002564768870449158 0.0025636208719938 0.0025633222404686557 0.0025643904438486134 0.0025643347590442265 0.0025655475100135232 0.0025638813238506764 0.002563983078678878
