# vvf statistics with RF=500
# gcat file: none
# stats order in row: stdvvf,p2.5,p16,p50,p84,p97.5,rho
# columns: numbers, mean, sigma,All, jnrealizations
0.0 1.4840774168869577 0.005002652010174046 0.0 1.4845003524618743 1.4836834479933965 1.4840502785122065 1.4840914105498604 1.4844454771776383 1.48410839762087 1.4842545742354556 1.4830478922547585 1.4826732190498098 1.4839698919001438 1.4847415953329302 1.484353811475677 1.4841877250501647 1.483824998907694 1.4843441646614102 1.484174699138525 1.4843439961647 1.484135980588199 1.4844091431447248 1.4843457418811696 1.4840739199671664 1.4847387326333439 1.484116264415378 1.484133574235189 1.4838225959714575 1.4843621494813988 1.4845155105905876 1.483929410283939 1.4845488814937717 1.483830794118238 1.483975557415043 1.483467374908298 1.4841689396065836 1.4842182528063155 1.4836051489900925 1.4834148037834258 1.4842080866431584 1.4839857955774625 1.4840473060528998 1.484328876800816 1.4840048056114337 1.4840271818301773 1.484416168571973 1.4839059918795368 1.483410720102327 1.4842047031465322 1.4837745287804196 1.4844566603519107 1.4842511080881575 1.4839959729657268 1.483408105116763 1.4840560892841013 1.4837976864577334 1.4842855948920077 1.4834683851983574 1.483820745530933 1.4838778722001489 1.484238140693567 1.484173300001678 1.483512752064052 1.4843157282189392 1.484319694466913 1.4845183605537098 1.4840962726487725 1.4841106831282718 1.4833519316493207 1.4848104729824856 1.4844651222513385 1.484515925912989 1.483855550121787 1.4840989080621092 1.4846098739772076 1.4836293102726439 1.4841204520932845 1.4839308076471158 1.4841842987377871 1.4841425976407103 1.4837556411158186 1.484092497707058 1.4837354299453436 1.4836546774122834 1.484149713872474 1.482914879383599 1.4843032588118883 1.4837236361480004 1.4845287275434 1.4841427737874893 1.4843888933214968 1.4838343140607206 1.4837194076327753 1.4842979732669714 1.484040593151798 1.484164704223732 1.4844455136881798 1.4837328317960243 1.4838695140519536 1.48447898952915 1.4840773256736688 1.4841854045913179 1.4838574012706995 1.4840658079152977 1.483667786446126 1.4838712808218133 1.483786803874666 1.4842571012821097 1.4842367599285977 1.48410655249885 1.4841396131512883 1.483721017682267 1.4840999064819416 1.4844184146230943 1.4841882442125274 1.4843354428613482 1.4835095429445706 1.4844160781733955 1.4844175719183184 1.4842746974525514 1.4840698684934168 1.483490147340911 1.484118521925634 1.4839789432801873 1.4838833428922846 1.4841403391285843 1.4838088991705836 1.4838489454570105 1.4842930488644734 1.4846647696616602 1.4844376659792151 1.4839584439261895 1.4840876897886646 1.484277318377985 1.4838252877846336 1.4840815309781994 1.4840123722970398 1.4843176033794012 1.4842206007248804 1.484486734795223 1.4837460444848174 1.4831004386786137 1.4833196390745236 1.4840226604471376 1.4845057392608543 1.484302355099148 1.4843601117389518 1.484348995912114 1.483998850137363 1.483962030916725 1.4842102549397738 1.4837883036497594 1.48382656229652 1.4836088134005219 1.4839791812219003 1.4832025389599806 1.4843847628624178 1.4842067560786019 1.4846442450904238 1.4843999548814422 1.4844224755857243 1.4834796781679498 1.4841556861044798 1.4845669172413944 1.4843297395924877 1.4843069514405764 1.4841380769636503 1.4839224752713742 1.4838350871987676 1.4835688001594534 1.4837538801854508 1.4842182361306306 1.4839484307696096 1.4842436237488537 1.4838405939103414 1.4846049375092376 1.4839038293127 1.4841106147733123 1.4843668045199414 1.4846226258269286 1.4841500523654216 1.4840064633573085 1.4843996107759034 1.4843336146581654 1.4842756806216506 1.4843716234088444 1.4846081204310475 1.4845963685579031 1.4845220266897745 1.4844419112155482 1.4841314084787516 1.4833604482854055 1.4843486698687105 1.483963530138373 1.484362070634288 1.4844927728440533 1.4840125561683533 1.4835938547585388 1.4839693786363184 1.4843936645132407 1.4841450556205764 1.4843258625213196 1.4838633211564702 1.484307515323832 1.4840034508514155 1.4841405107662156 1.4837875033959953 1.4841254007459783 1.4842629111368812 1.4839669911595326 1.4840729973396543 1.4839609037983128 1.4839276171694615 1.4842337759502662 1.4840815288553517 1.483878400373483 1.4837022398806503 1.4834987400294681 1.4840555460604903 1.4843254610310996 1.4838674525748894 1.4843024952956758 1.4839787931681934 1.4847578387876712 1.4844952888720944 1.4842589776934896 1.4834709834256368 1.4840943410954568
1.0 0.021387434741888568 0.0005346604734908929 0.0 0.021382888850937993 0.021382332428644714 0.02139565430644609 0.02138484916738995 0.021400926868551086 0.0213829997145326 0.021408152858607345 0.02137527536424622 0.021394744412644353 0.02139398063110145 0.021392816165010587 0.02139587760477804 0.021391090062178472 0.021411272330901593 0.021385742176877602 0.021380057935899033 0.021393646921357288 0.021374565313188876 0.02138487262694847 0.021378608187966424 0.02137673715601976 0.02138561140833468 0.02137893067558343 0.021391090019986337 0.02140041467117201 0.021394777243120684 0.02139366114052616 0.0213866372282422 0.021399808681081493 0.021378884930240993 0.021364522568510368 0.02136251864627475 0.021387840629745098 0.0213839902746853 0.021367444391248526 0.02138118094911568 0.021377397263095746 0.02137499109792559 0.02138681888510578 0.021376256524413578 0.02137216691353675 0.021399987441706042 0.021405593313489943 0.021398843751601244 0.021374203332836114 0.021384103539489125 0.021372846920987013 0.021397149430712546 0.021395110918327014 0.021384234954549934 0.021379880086211236 0.021385377642949805 0.021375283837988528 0.021379866394824195 0.021370818708012666 0.02137115655846465 0.021392291568321932 0.021395608821409336 0.02138079749130077 0.021381302481702835 0.021387083776325727 0.021381797813334637 0.021389734064354952 0.02139060533141109 0.021377808355407937 0.021348663390261584 0.021386930774620446 0.021386807503607802 0.021385055032395888 0.021390522474449284 0.021381993816740368 0.02138161036195186 0.021372785341854644 0.02139901029762832 0.02139427855329186 0.021396775507921267 0.02137475920632519 0.02138078361802459 0.021378075895110125 0.021370500793071515 0.021360837461543596 0.02139179581297398 0.021400184749936598 0.02138698705270131 0.021399189942574996 0.021408052335712406 0.021395997313762648 0.021396461536425843 0.021381067877428148 0.021368583634679517 0.021386743286509115 0.02137951603883817 0.021393784792028917 0.021407844771806243 0.02138338248076027 0.02139990738665309 0.021399617737711974 0.021399422561215346 0.021407595608983563 0.021396690478946226 0.021392362510102892 0.02137653069740637 0.02139302604591853 0.02138873515339249 0.021380690663988716 0.021390406432285198 0.021384633798737722 0.021397018888374395 0.021393918832342998 0.02139740109246879 0.02139157509857441 0.021391943927395646 0.021382720520239085 0.021368825834451575 0.021397673823676026 0.021402627388096146 0.021387083313496806 0.021391915502303332 0.021375547755711755 0.021379840833041158 0.021377682533541383 0.021387467892015757 0.02140074220037317 0.021407168510756074 0.021413944855125964 0.021403010693544052 0.021394740719716615 0.021389024733072106 0.02136479229698965 0.021392538376695722 0.021383539157774273 0.021364692247858846 0.021385100920864555 0.021405934880543133 0.021384506635490602 0.02138281131214841 0.021390502139463717 0.021383554971522202 0.021375750079545713 0.021396805252823305 0.021395834227744145 0.02140236613206038 0.021399253214081822 0.02138175050686597 0.02139252879047722 0.021376213758173897 0.021382228204256722 0.02136897890566096 0.021397485737684574 0.02138990722067698 0.021371606473102548 0.02139387621663487 0.02138565836196803 0.021389786013797214 0.021394937115460054 0.02140521233580018 0.021385099637915878 0.021385855375780916 0.021368299106218645 0.0213792114038579 0.0213860736492014 0.021377404870914475 0.02138617246530062 0.021380236921298375 0.021375937786959214 0.02139858956538179 0.02138078628170784 0.02138028776267354 0.021396198621222284 0.02138381552321275 0.02139124683776509 0.021387584053040833 0.02138955564865306 0.021382695703481103 0.021379525211464728 0.021384206934441256 0.021398990398880092 0.021398636770729163 0.021394510263137864 0.021406498199197224 0.021395610379645276 0.021394113503987438 0.02139425225597156 0.021403427258267327 0.021392158629726838 0.021393376409349123 0.021391060278673133 0.021383562156653706 0.02137939951078914 0.021391968185217058 0.021399820436108906 0.02138972901568354 0.021389212823395124 0.02139374670457701 0.021385906313410752 0.021369773786122377 0.02139067333879021 0.021401714891764706 0.021397713386342235 0.02138629914923491 0.021381358518125712 0.021386104944624944 0.0213821324902585 0.0213735585802732 0.021399489844636625 0.021401648856793493 0.021395128688945973 0.021382117166421202 0.021380362904054116 0.021379373403489863 0.021393203629561642 0.021407852358150545 0.021405320627636188 0.021383089054778495 0.02135944149325165 0.021380863201555394 0.021377047500807645 0.021390411003849186 0.021382490040510935 0.021376758565869652 0.021388362734117393 0.021388519334211 0.021398589115997426 0.021381803869745353 0.02138380840884246
2.0 0.1010487479734551 0.00040492441960640954 0.0 0.10102772861893651 0.10102473187154504 0.10108789645412776 0.10103561718070808 0.10111274178095017 0.10102661825920081 0.10114607541338688 0.1009902906880139 0.1010844267803946 0.10107824710473529 0.10107094073091434 0.10108660224911091 0.10106757841098131 0.10116759669190442 0.10104045343827546 0.10101339313995068 0.10107862731441729 0.10098816983458093 0.10103679594985814 0.10100942336542001 0.10099739769632156 0.10104471838553764 0.10100702881916848 0.10106730667806026 0.10110859246222229 0.1010824908114064 0.10107804514398455 0.10104401142283512 0.10110642527229328 0.10100889293796937 0.10093975613002204 0.10092948977715172 0.1010491462702608 0.10103266676533082 0.10095219097601085 0.10101871891354047 0.1009996800693797 0.10098809740753913 0.10104394347129224 0.10099506616547767 0.10097595938559795 0.10110635644600517 0.10113608555844181 0.10110169219293 0.10098528701438876 0.10103238783922888 0.1009781381871618 0.10109428380888905 0.10108421726143384 0.10103253925085305 0.10101222907429695 0.10103801298717183 0.10099150608388793 0.1010116819239443 0.10096974954567872 0.10097118349532835 0.10107165995377658 0.1010856735048659 0.1010175953274126 0.10102005187717436 0.10104534121680384 0.10102258270861887 0.10105776148871452 0.10106315887003718 0.10100064302860805 0.10096367930109566 0.10104603049148103 0.10104420538855023 0.10103787546260036 0.10106379593848276 0.10102334102458396 0.10101886700018023 0.10097882513585006 0.10110123490957339 0.10108043815884259 0.1010908301668146 0.10098656818589792 0.10101743038124217 0.10100484885854752 0.10096868033790775 0.10092363945885058 0.10106956669072813 0.10110988607051728 0.10104699401182432 0.10110159492161494 0.10114429400974179 0.1010873528410608 0.10109145476338996 0.10101812393250188 0.10096015106084422 0.10104462151506782 0.10101125381940586 0.10107773031383435 0.10114432814425914 0.10102812152654256 0.10110500774810348 0.10110619252272202 0.10110448326302174 0.10114091485808607 0.10109136933460182 0.10107213036614171 0.1009970628940127 0.10107483962683617 0.10105480862548956 0.1010181881210441 0.10106432001991252 0.10103514528769289 0.1010926679199119 0.1010806925665284 0.10109682992725379 0.10106902095562291 0.10106971746911297 0.10102528965063538 0.1009590203938331 0.10109714489590313 0.10112036997641516 0.10104698353192566 0.10106934562745043 0.10099179595513738 0.10101285827696345 0.10100142028585897 0.10104820343079479 0.1011097609278922 0.10114240904768315 0.1011726728247516 0.10112015733398855 0.10108206398145858 0.10105396211043521 0.10094133492442309 0.10107361764801778 0.10103083234044596 0.10094350259547587 0.10103745215350189 0.10113413286713413 0.10103371530787555 0.10102578524548265 0.10106725048707926 0.10103069939659949 0.10099295371748387 0.10109282157337635 0.10108848516991889 0.10111694949917456 0.1011032686793065 0.10102061513083593 0.10107274692475565 0.1009953329821006 0.10102266257154037 0.10096127883373612 0.1010956624447555 0.10106224185239569 0.10097102046609845 0.10107960294440749 0.10103913244034574 0.10106032735578595 0.10108369682786304 0.1011325978925577 0.1010373475730411 0.10104283714658777 0.10095796674097568 0.1010091553701472 0.10104037710001573 0.10100238110211333 0.10104194872195511 0.10101421716648401 0.10099447641109521 0.1011013426497415 0.10101581497648122 0.10101502642282234 0.10109804343937619 0.10103234090369127 0.10107473261917643 0.1010497346085509 0.10105517822080985 0.10102385811301832 0.10101222590694375 0.10103563498879045 0.10109946836253687 0.10110274586878881 0.10108112564037255 0.10113947441080264 0.10108598033938421 0.1010771966604029 0.10108030277266333 0.10112123699212942 0.10107095928977185 0.10107778376330714 0.10106456596362211 0.10103015147514925 0.10102494983444957 0.10106853889301504 0.10110734828911568 0.10105884293612545 0.10105561835341732 0.10107645144475694 0.10103969504583149 0.10096500018942886 0.10106431309629983 0.10111298436840463 0.10109639620995758 0.10104404776827808 0.1010177241382271 0.10104373757134123 0.10102306469078012 0.10098193870811017 0.10110427378818776 0.10111478170844478 0.10108464175747289 0.10102108002469444 0.10101519726806604 0.1010112896544208 0.10107639083514189 0.10114208539267268 0.10113241802150474 0.1010281950081667 0.10091681646533725 0.10101634230548032 0.10099875757186363 0.10106208809959565 0.10102438193758778 0.10099827357811879 0.10105127950518628 0.10105350060907757 0.10110173426900956 0.10102224540279686 0.10103200691173475
3.0 0.4624202877232079 0.0018218238149959975 0.0 0.46232597915855944 0.46233415321173094 0.4626054443715413 0.4623839621784191 0.4624163591657125 0.46234481251343984 0.4626221850579824 0.4623847375779845 0.4625839783501157 0.46256073216089444 0.46243369451458044 0.4625594471727278 0.46249469117599384 0.46277421294671384 0.46237241790920786 0.4622880500495659 0.46248895912679255 0.4621701490104686 0.46236583181258917 0.46225755320817097 0.46222187807106035 0.46231362945547355 0.46228732435208036 0.46250493339098064 0.4627001029587014 0.4625458510777238 0.4624769396059097 0.4624268533700879 0.462495734341241 0.4622649253655707 0.46215519773697433 0.46220935141093333 0.46241376628970166 0.4623675237477161 0.46213844538159243 0.46239327291025945 0.4622255957936065 0.46217988826998324 0.46242916399396283 0.4621999598735332 0.4621848832725984 0.46260726599183405 0.46251562382142253 0.46266557819342685 0.4622867906069097 0.4623763146446396 0.4622548253653708 0.46259548259201944 0.4625454110948176 0.46237430805480545 0.46231219858085926 0.462375658370083 0.46221025931383214 0.4622554561435855 0.46218926417449807 0.46212968393234755 0.4625531258829226 0.4625359579756852 0.46229192215700915 0.4623130527341805 0.46244003325807226 0.4623288460689585 0.46242956000313074 0.4624810116621809 0.46224194533364843 0.4625286214988975 0.46238087601326683 0.4623037237161659 0.46235469388350436 0.46251988993891785 0.46233791406306113 0.4622847627340481 0.4623331480138758 0.4626134951604268 0.4625546941738128 0.4625551248847471 0.4621818043549861 0.46242666180980624 0.46224356667790056 0.46223049474317407 0.4621767388768681 0.46253892177127526 0.4626782722910541 0.462407317830183 0.4626681949754841 0.4625224119647416 0.4625342944853594 0.46253031406166184 0.4623074818881179 0.46210302325839814 0.4624142700649133 0.46227743543511823 0.46246313568057174 0.46258169925743026 0.4623626082031293 0.46266029555225396 0.46259793288343803 0.46261946541610527 0.462505581599284 0.46263415341374226 0.4625224243228267 0.4623042682615185 0.4625495720664891 0.4624765781230281 0.4622993502888548 0.4624871678726221 0.46238281041592255 0.46255370532370726 0.46256544468412636 0.46264463707827763 0.46249662180114326 0.4625266005756126 0.46233812518100065 0.462315880849433 0.4626142710897676 0.4626144286789141 0.46242047488606375 0.4625027979023116 0.4623842931082675 0.46227293062247726 0.4622678508118761 0.46244383205034983 0.4625410693085484 0.462764597166676 0.46260776560923655 0.46256735383196046 0.4624718843734653 0.46245247331704137 0.46208282416892194 0.4625288687766145 0.46235967165393627 0.46202640263626865 0.46240492052094156 0.46256937717673113 0.4623608118251891 0.4623432234175155 0.4624303418643716 0.4623658571152925 0.46230466273332027 0.4626112598758692 0.4626119512374278 0.46233943755430623 0.46261138926885725 0.4623228563723616 0.4625122761018957 0.46220966473966607 0.462336576275597 0.46213151171925404 0.4626259619903036 0.46247009891386753 0.46230848536559416 0.4625572044029305 0.4624574591100934 0.46245696141455717 0.4625399490175637 0.4624521803221836 0.4623783557864831 0.4624109550487528 0.462215212924356 0.46224616511832056 0.4623913697456971 0.46222960744853614 0.4624001260966289 0.4622874872885481 0.46223043003085273 0.4626067943524129 0.462376824310658 0.46230434405393306 0.4626406340526635 0.46237314709470306 0.4624906450834996 0.46244729506079346 0.4624562228040492 0.4623436788071963 0.4622786572005123 0.4623687695353768 0.4625029868399494 0.4626475219871611 0.462571785575324 0.46259270940900615 0.4625075592975636 0.46253416668157615 0.46254394481327316 0.4623675039469694 0.4625211950796121 0.46249329042791915 0.46249455441493703 0.46236008802142253 0.46241383459114227 0.4625112544905834 0.4626504256996114 0.46247355996334905 0.46241951642797546 0.4625497661285436 0.4624074861305384 0.46212818603347394 0.46249282551309984 0.46259890621469696 0.4625535900506112 0.4624283548281809 0.4623219808024352 0.4624085001213251 0.4623091358262016 0.46218248049160443 0.4625830943151921 0.4625930646766111 0.4625542131937537 0.46233285557074755 0.4622996746448078 0.4622698478636434 0.46253860348513093 0.46256876712385986 0.4626763602665985 0.4623587081830582 0.462260765491409 0.462279243066829 0.46222568656691343 0.4625089259167314 0.462337170588662 0.4622056859119545 0.46242662053832106 0.46245296249615103 0.4626039685500289 0.462321250924862 0.46236997896223014
4.0 1.8203033987172943 0.006121317931546477 0.0 1.820067479451389 1.8202098711880337 1.8202716531300136 1.8203497703197216 1.820348138919707 1.8200248278372837 1.8202239042911748 1.8203533179886624 1.8208662719023403 1.8204319696609004 1.8200891454139319 1.820549479563992 1.820310933049971 1.8203248438683113 1.8204073204343483 1.8202332419207445 1.8202545814112656 1.8205321629060784 1.8201824603961663 1.8203570664843702 1.8202714718460646 1.82031940844309 1.8199065341513272 1.8202304223657046 1.8204314461281266 1.8204096944790773 1.8205102461605291 1.820360327535124 1.8200619845879944 1.8205322811375624 1.820300305789279 1.8205306531892855 1.8201800442955687 1.82035654205567 1.8204295247121536 1.8202796123976535 1.820438971333952 1.8203120088385474 1.8203251452601257 1.820755736571383 1.820256014994371 1.820400739971723 1.8201462977649403 1.8203025960156813 1.8204903740043765 1.8201255307573 1.820545867964663 1.8200389761902953 1.8202086013438428 1.8202939585144988 1.8204872798335379 1.8202458191705124 1.82056277680745 1.820208148480728 1.8204395800777418 1.8202790048931088 1.820332897035516 1.8200739980705092 1.8201631479134641 1.8204034014607995 1.8200960177486398 1.8201895768051253 1.8201241141122255 1.820276918176483 1.8201835114829208 1.8202247830510023 1.820259612378167 1.8203721820597767 1.8201122887306487 1.8204119446375135 1.8201278471662048 1.8200419706203321 1.82021429931184 1.8202899941175474 1.8205464408681962 1.8205670786948063 1.8203050277455914 1.8200962667675529 1.8201702708517395 1.8206309179197115 1.8203486594118183 1.8202180176127178 1.820554665974643 1.8202659160792622 1.820617185657492 1.8202184975550462 1.8204558044477375 1.82029686571862 1.8205001269347578 1.8203003973280276 1.8203253956392897 1.8203624590858862 1.8205482843929544 1.8202497292054418 1.8202325255683 1.8207430776769333 1.82024372797677 1.8202046823041644 1.8202137851573457 1.820320516646541 1.820592616332768 1.8203755614390826 1.8204668354852678 1.8204010201956686 1.8201339285655806 1.8201838446079086 1.820002523727785 1.8202162588621407 1.8204227421965058 1.8204252539392674 1.82028515084304 1.8200083082693133 1.8203264868327693 1.8204389109990282 1.8200504081402051 1.8197808929020471 1.8202167431041243 1.8204740832731583 1.8201847118848318 1.8203559585179274 1.8200821735523924 1.8204080918405883 1.8205745417430672 1.8201818035817945 1.8204938179601788 1.8201188984720136 1.8201345034343945 1.820205068955885 1.8205347699119343 1.820102701515786 1.8202398448492203 1.8206682549138136 1.8202445925766013 1.8204112975838473 1.8203061506139913 1.8202298736255664 1.8203635967642222 1.8201132258355557 1.8208542829185945 1.8208701123123714 1.8201758216462103 1.820087574039693 1.8203926583198202 1.8198965390331576 1.8203607349116908 1.8202454402195571 1.8202605144095296 1.8198753949820003 1.8204552851984281 1.8202774835339215 1.8201897139319254 1.8202952093624474 1.820206155966496 1.8204735602009479 1.8204105808595692 1.8201608225137107 1.8200730099054034 1.8203219997861133 1.8202936434484824 1.8201783218741057 1.8204355708973912 1.8205444705263454 1.8203294303554756 1.8199899781204025 1.820116360780995 1.8205975626005804 1.8203044109175606 1.8204949983114032 1.8201191750438064 1.8203209820373751 1.820169585162615 1.820474619656345 1.8201327771981257 1.8202164271697407 1.8202353360970478 1.8202798907530586 1.820365609347577 1.820477632061418 1.8202528782459784 1.8200628490031965 1.8203461328602144 1.820453770868077 1.8202059262523695 1.8201939073238271 1.8201830631083376 1.8202606855970345 1.820211498551105 1.8201636015486153 1.8200139858780549 1.8202154730828173 1.8203642486572176 1.8200321885566815 1.820353800977475 1.8205135675004178 1.820460058526201 1.8203450677735233 1.8205325165562538 1.8201505598176455 1.8202405707947027 1.8204842777119825 1.8200346355896195 1.8201171078144796 1.8202217889268029 1.8203981096574553 1.8203495516328727 1.8202580273099365 1.8203539105223838 1.820175414096097 1.8201150183695227 1.820428123501939 1.8203349666911954 1.82012172058685 1.8204634009725444 1.8206453856514013 1.8203863565631455 1.8201847489855822 1.8201749815754829 1.8205206007906685 1.8202550201290186 1.8205553948248094 1.8201787697591543 1.81984700290255 1.8205342845886188 1.820603147533435 1.8201821605549473
5.0 5.16500469678536 0.017275417826955367 0.0 5.166139177333579 5.164497537606 5.164603157798364 5.165006162716395 5.166353857863086 5.165048923479252 5.165128334627854 5.163370945889321 5.16308789572399 5.163774944595469 5.166731348574321 5.1653139014877105 5.165597949745947 5.1653911370785055 5.165162697237968 5.165308859912567 5.165637627665088 5.165188634661633 5.166090656765444 5.1657646283566345 5.165102845914382 5.166821755008573 5.164335377513664 5.164704910833676 5.164897981759141 5.165106667848523 5.166200914278624 5.164999462253143 5.166131258959743 5.165039307627989 5.164662605440843 5.163737598789248 5.164983864647651 5.165643668171566 5.16323734743556 5.162838725688824 5.165675381731293 5.164850822106142 5.164953116937339 5.165752896596903 5.164713912638999 5.165757481359067 5.165972667918969 5.16405243581848 5.1634965295914395 5.165220960134151 5.163919829257884 5.165755461487055 5.1654925399825125 5.164320110701338 5.164008122624305 5.164871677668892 5.164703123959175 5.165204892683923 5.164383354365631 5.164960922790091 5.163512611778367 5.165873238839815 5.1653780972031536 5.165086336705236 5.165837011476634 5.165466107079214 5.166407093370941 5.165372685258835 5.164956113354319 5.163182311149351 5.167503602372995 5.1669832576039365 5.1667953219463625 5.164505379904312 5.165280803934946 5.166840288645556 5.163071858049989 5.165519552379548 5.16446750917916 5.1652245544341024 5.16543296575019 5.163737825384765 5.16504639302546 5.16357195153662 5.164167320723559 5.164732978585054 5.1645795261875636 5.166418298580571 5.163662466296503 5.165744814487564 5.165615738400859 5.165747115799438 5.164269341396485 5.164302376067838 5.16546518128067 5.164786017446217 5.164145592950177 5.165082708694695 5.1641576811315035 5.163906881102306 5.165935320110024 5.165707093565768 5.165682859774069 5.16348058865468 5.165174214771978 5.163957984426804 5.163572167670738 5.164978826372828 5.165935589770601 5.165239636278334 5.165030873943037 5.165714568667745 5.163683494958581 5.164118035647295 5.165983746061132 5.1651056361144 5.165734043167356 5.163506079514727 5.165709572558457 5.166551794900825 5.165222880291924 5.1646561451981565 5.162733002142867 5.165128693237337 5.163814266895422 5.163710522966102 5.165431162327499 5.1641560299204015 5.1652772368024715 5.1659810143835845 5.1669175766266555 5.165463914100949 5.164762357768053 5.164326861212284 5.165391728339045 5.1644027836289474 5.164504666177452 5.165032413829519 5.165570314629923 5.165207885863783 5.166327202743391 5.164090435264915 5.163457712818915 5.1646295967127545 5.164178357718592 5.166915677204756 5.1651050934101 5.16539568944648 5.1657289729760665 5.165097724095286 5.164550281840244 5.165623743221746 5.164190885875503 5.1640820230146485 5.163452329440034 5.164246019055721 5.162676936720331 5.1654006025388775 5.165114321267558 5.166299727415849 5.16587174446732 5.165475508309366 5.16331782166725 5.165536267158104 5.166250801775651 5.165651210156925 5.165763870542349 5.164773102427652 5.164391426162891 5.1651111500680225 5.163031077590238 5.1641116190283745 5.164413144231418 5.1639077403073514 5.166529342114851 5.164691214627591 5.166109029954128 5.164414986094213 5.165044131373427 5.165752203033952 5.1661084211738375 5.1652394282850285 5.165063461199552 5.165452418063601 5.1657164248733345 5.165389793817806 5.165428612115816 5.166466135691844 5.166099805956411 5.165842550697999 5.165776323428463 5.164582475464766 5.163543327270494 5.165409529873941 5.164746746119906 5.165536287087229 5.165909120442189 5.164694395324765 5.163869216600233 5.164945883400714 5.165432785736216 5.1654209377114615 5.165498063582549 5.164649786344843 5.165945513505051 5.164886296903938 5.165218057947591 5.164275391854189 5.165622407769906 5.164890758617214 5.164688499874372 5.164553451634864 5.164145524178621 5.1641783391651295 5.165530135093102 5.164677109759612 5.164609559643197 5.164299008607834 5.163225693675078 5.164734573505729 5.165589919405012 5.164524704759123 5.165421676699979 5.165033426030776 5.1666052311982975 5.166085703344885 5.165415484134222 5.1636623490626015 5.1647500358595675
6.0 0.0025899529743062563 1.129768680634738e-05 0.0 0.002589368901294703 0.002589441985695329 0.002591027779730854 0.002589565896494267 0.0025915456216007056 0.0025893725324007905 0.002592578729071582 0.0025883974197066758 0.002590947609287231 0.002590829639481161 0.0025906108801977312 0.002591150483612592 0.002590352049469365 0.0025931638517801277 0.0025896369932313416 0.0025891211776439345 0.002590651375179498 0.0025882416798504995 0.002589597281322871 0.002589037153800709 0.002588713439561333 0.0025894948078177557 0.00258896357865302 0.0025902235133463455 0.002591549271311313 0.002590625957155879 0.0025906822358338663 0.0025898544753327176 0.0025916020762785175 0.0025886888160035764 0.0025870718007410995 0.0025871219078442247 0.002590171674953242 0.0025894955828782906 0.0025874058549347967 0.0025892669509323847 0.002588554238803554 0.0025884267536961715 0.0025900930327623227 0.0025883927164324578 0.002588292360188145 0.0025911782635036724 0.0025921393202677514 0.002591470506110372 0.0025883295003058296 0.0025898377279280293 0.0025879730605574097 0.00259107595651677 0.0025911497457907235 0.0025894032379830748 0.002589126178152289 0.0025898886793179017 0.002588667861652504 0.0025888364225616126 0.0025880702922516053 0.002587987643340439 0.002590684494841911 0.002590976149547934 0.002588858385609776 0.0025893074300279446 0.0025897090233849038 0.002589085178201387 0.0025903506021742557 0.0025903388483773247 0.0025888695401078427 0.0025850510576352686 0.0025899506791133313 0.0025895238028868146 0.002589729279722477 0.0025904727643909936 0.0025890628004142215 0.0025891151531644216 0.0025882614732401993 0.0025914244251825846 0.002590762380363243 0.0025916977182093557 0.0025881893499258035 0.0025889812803812605 0.002588720874490901 0.002587978736085955 0.0025866664267009073 0.002590497643097773 0.002591561836958508 0.00258979419948694 0.0025915563957745456 0.002592458488795688 0.0025910683112579996 0.002590872874883441 0.0025892630952219706 0.002587527791791669 0.002589874267000885 0.0025891197205272203 0.0025906528919654166 0.0025926135859239523 0.002589269876257744 0.0025918895579965587 0.002591452964895626 0.002591306583417373 0.002592699555613908 0.0025909548259480486 0.002590497150467507 0.002588538572533043 0.0025907995689861897 0.002590096982738148 0.002589057331482711 0.002590344204815113 0.0025894617650840165 0.00259124394382955 0.0025908374203977734 0.0025909567524082496 0.002590356792410214 0.002590485922231566 0.0025893451473070796 0.002587736013617515 0.0025912390124339744 0.0025916224979199765 0.0025901168548728604 0.0025904395243546065 0.0025885705102170285 0.002589041438286141 0.0025887175839070602 0.0025898871838956365 0.002591639956882496 0.002592271827429822 0.0025932185380872744 0.0025919190890526986 0.002590689672842374 0.002590102209883742 0.0025872548762463994 0.002590607079897347 0.002589389029571517 0.0025870657868370256 0.002589715560055473 0.0025922388618031906 0.0025895595451409675 0.0025895612422286085 0.0025905806206522057 0.00258944375404961 0.0025882854251960776 0.002590992737654558 0.0025908179529263073 0.0025916207140310103 0.002591565836446644 0.002589172753555319 0.002590551486792914 0.002588449410325938 0.0025894645398592104 0.002587743367497049 0.0025912984159313325 0.0025903346320739506 0.002588000772803185 0.002590535577418675 0.0025901272553108083 0.00259026069128922 0.0025905917541887064 0.0025924288740270503 0.0025895097446281077 0.0025896808720223775 0.0025874417646325185 0.0025890305494144514 0.0025898805331850323 0.0025887570688215467 0.0025896749648251643 0.0025891881888889653 0.0025883880095867676 0.0025915143014162917 0.0025889940319086093 0.00258857852031446 0.0025917484109809316 0.0025896039803704643 0.002590521492481266 0.0025901554586590632 0.002590119591544223 0.0025893259445555 0.0025889696475233513 0.002589469994773474 0.002591394624897865 0.002591443379266597 0.0025907170884187612 0.002592449624564799 0.002591049243234287 0.002590831518964602 0.002590778988985148 0.0025917592718871472 0.0025902476105017554 0.0025907480041225165 0.0025902434509639536 0.0025894850747491035 0.002589327234815597 0.0025903329999920526 0.0025915820884203646 0.0025899046792928634 0.0025901923149763456 0.002590762734728042 0.0025895841626105112 0.002587734760468428 0.0025902014048950705 0.002591740910230478 0.0025912945783911523 0.0025900403481865356 0.002589213994892774 0.002589865401980819 0.002589388813452858 0.002588220121185047 0.0025914439744273926 0.0025917879629331207 0.0025911187128702024 0.002589381875446226 0.0025889571696830534 0.0025889887249510544 0.002590619933566295 0.002592659897477296 0.002592201395249432 0.0025895248965373085 0.002586142544702953 0.002589095895409356 0.0025886614206701254 0.0025903251695561127 0.0025891862703529044 0.0025888258302755656 0.0025899387309626736 0.0025898442164218574 0.002591120965196273 0.0025894223210475333 0.002589530037530271
